[Info]
Version 1
Dimension 2
NumNodes 182
Num3DElements 0
Num2DElements 150
Num1DElements 0
NumNodeBC 56
NumSaveNodes 0
NumSaveElements 0
Num 2d-line      : 0
Num 2d-line,quad : 0
Num 3d-line      : 0
Num 3d-line,quad : 0
Num triangle     : 0
Num triangle,quad: 0
Num quadr        : 150
Num quadr,quad   : 0
Num tetra        : 0
Num tetra,quad   : 0
Num brick        : 0
Num brick,quad   : 0
Num pyramid      : 0
Num pyramid,quad : 0
Num wedge        : 0
Num wedge,quad   : 0

[Nodes]
#NodeNr x-coord y-coord z-coord
       1  0.0000000000000e+00  2.0000000000000e-03  0.0000000000000e+00 
       2  0.0000000000000e+00  1.6666666666667e-03  0.0000000000000e+00 
       3  0.0000000000000e+00  1.3333333333333e-03  0.0000000000000e+00 
       4  0.0000000000000e+00  1.0000000000000e-03  0.0000000000000e+00 
       5  0.0000000000000e+00  6.6666666666667e-04  0.0000000000000e+00 
       6  0.0000000000000e+00  3.3333333333333e-04  0.0000000000000e+00 
       7  0.0000000000000e+00  0.0000000000000e+00  0.0000000000000e+00 
       8  2.0000000000000e-03  2.0000000000000e-03  0.0000000000000e+00 
       9  2.0000000000000e-03  1.6666666666667e-03  0.0000000000000e+00 
      10  2.0000000000000e-03  1.3333333333333e-03  0.0000000000000e+00 
      11  2.0000000000000e-03  1.0000000000000e-03  0.0000000000000e+00 
      12  2.0000000000000e-03  6.6666666666667e-04  0.0000000000000e+00 
      13  2.0000000000000e-03  3.3333333333333e-04  0.0000000000000e+00 
      14  2.0000000000000e-03  0.0000000000000e+00  0.0000000000000e+00 
      15  4.0000000000000e-03  2.0000000000000e-03  0.0000000000000e+00 
      16  4.0000000000000e-03  1.6666666666667e-03  0.0000000000000e+00 
      17  4.0000000000000e-03  1.3333333333333e-03  0.0000000000000e+00 
      18  4.0000000000000e-03  1.0000000000000e-03  0.0000000000000e+00 
      19  4.0000000000000e-03  6.6666666666667e-04  0.0000000000000e+00 
      20  4.0000000000000e-03  3.3333333333333e-04  0.0000000000000e+00 
      21  4.0000000000000e-03  0.0000000000000e+00  0.0000000000000e+00 
      22  6.0000000000000e-03  2.0000000000000e-03  0.0000000000000e+00 
      23  6.0000000000000e-03  1.6666666666667e-03  0.0000000000000e+00 
      24  6.0000000000000e-03  1.3333333333333e-03  0.0000000000000e+00 
      25  6.0000000000000e-03  1.0000000000000e-03  0.0000000000000e+00 
      26  6.0000000000000e-03  6.6666666666667e-04  0.0000000000000e+00 
      27  6.0000000000000e-03  3.3333333333333e-04  0.0000000000000e+00 
      28  6.0000000000000e-03  0.0000000000000e+00  0.0000000000000e+00 
      29  8.0000000000000e-03  2.0000000000000e-03  0.0000000000000e+00 
      30  8.0000000000000e-03  1.6666666666667e-03  0.0000000000000e+00 
      31  8.0000000000000e-03  1.3333333333333e-03  0.0000000000000e+00 
      32  8.0000000000000e-03  1.0000000000000e-03  0.0000000000000e+00 
      33  8.0000000000000e-03  6.6666666666667e-04  0.0000000000000e+00 
      34  8.0000000000000e-03  3.3333333333333e-04  0.0000000000000e+00 
      35  8.0000000000000e-03  0.0000000000000e+00  0.0000000000000e+00 
      36  1.0000000000000e-02  2.0000000000000e-03  0.0000000000000e+00 
      37  1.0000000000000e-02  1.6666666666667e-03  0.0000000000000e+00 
      38  1.0000000000000e-02  1.3333333333333e-03  0.0000000000000e+00 
      39  1.0000000000000e-02  1.0000000000000e-03  0.0000000000000e+00 
      40  1.0000000000000e-02  6.6666666666667e-04  0.0000000000000e+00 
      41  1.0000000000000e-02  3.3333333333333e-04  0.0000000000000e+00 
      42  1.0000000000000e-02  0.0000000000000e+00  0.0000000000000e+00 
      43  1.0500000000000e-02  2.0000000000000e-03  0.0000000000000e+00 
      44  1.0500000000000e-02  1.6666666666667e-03  0.0000000000000e+00 
      45  1.0500000000000e-02  1.3333333333333e-03  0.0000000000000e+00 
      46  1.0500000000000e-02  1.0000000000000e-03  0.0000000000000e+00 
      47  1.0500000000000e-02  6.6666666666667e-04  0.0000000000000e+00 
      48  1.0500000000000e-02  3.3333333333333e-04  0.0000000000000e+00 
      49  1.0500000000000e-02  0.0000000000000e+00  0.0000000000000e+00 
      50  1.1000000000000e-02  2.0000000000000e-03  0.0000000000000e+00 
      51  1.1000000000000e-02  1.6666666666667e-03  0.0000000000000e+00 
      52  1.1000000000000e-02  1.3333333333333e-03  0.0000000000000e+00 
      53  1.1000000000000e-02  1.0000000000000e-03  0.0000000000000e+00 
      54  1.1000000000000e-02  6.6666666666667e-04  0.0000000000000e+00 
      55  1.1000000000000e-02  3.3333333333333e-04  0.0000000000000e+00 
      56  1.1000000000000e-02  0.0000000000000e+00  0.0000000000000e+00 
      57  1.1500000000000e-02  2.0000000000000e-03  0.0000000000000e+00 
      58  1.1500000000000e-02  1.6666666666667e-03  0.0000000000000e+00 
      59  1.1500000000000e-02  1.3333333333333e-03  0.0000000000000e+00 
      60  1.1500000000000e-02  1.0000000000000e-03  0.0000000000000e+00 
      61  1.1500000000000e-02  6.6666666666667e-04  0.0000000000000e+00 
      62  1.1500000000000e-02  3.3333333333333e-04  0.0000000000000e+00 
      63  1.1500000000000e-02  0.0000000000000e+00  0.0000000000000e+00 
      64  1.2000000000000e-02  2.0000000000000e-03  0.0000000000000e+00 
      65  1.2000000000000e-02  1.6666666666667e-03  0.0000000000000e+00 
      66  1.2000000000000e-02  1.3333333333333e-03  0.0000000000000e+00 
      67  1.2000000000000e-02  1.0000000000000e-03  0.0000000000000e+00 
      68  1.2000000000000e-02  6.6666666666667e-04  0.0000000000000e+00 
      69  1.2000000000000e-02  3.3333333333333e-04  0.0000000000000e+00 
      70  1.2000000000000e-02  0.0000000000000e+00  0.0000000000000e+00 
      71  1.2500000000000e-02  2.0000000000000e-03  0.0000000000000e+00 
      72  1.2500000000000e-02  1.6666666666667e-03  0.0000000000000e+00 
      73  1.2500000000000e-02  1.3333333333333e-03  0.0000000000000e+00 
      74  1.2500000000000e-02  1.0000000000000e-03  0.0000000000000e+00 
      75  1.2500000000000e-02  6.6666666666667e-04  0.0000000000000e+00 
      76  1.2500000000000e-02  3.3333333333333e-04  0.0000000000000e+00 
      77  1.2500000000000e-02  0.0000000000000e+00  0.0000000000000e+00 
      78  1.3000000000000e-02  2.0000000000000e-03  0.0000000000000e+00 
      79  1.3000000000000e-02  1.6666666666667e-03  0.0000000000000e+00 
      80  1.3000000000000e-02  1.3333333333333e-03  0.0000000000000e+00 
      81  1.3000000000000e-02  1.0000000000000e-03  0.0000000000000e+00 
      82  1.3000000000000e-02  6.6666666666667e-04  0.0000000000000e+00 
      83  1.3000000000000e-02  3.3333333333333e-04  0.0000000000000e+00 
      84  1.3000000000000e-02  0.0000000000000e+00  0.0000000000000e+00 
      85  1.3500000000000e-02  2.0000000000000e-03  0.0000000000000e+00 
      86  1.3500000000000e-02  1.6666666666667e-03  0.0000000000000e+00 
      87  1.3500000000000e-02  1.3333333333333e-03  0.0000000000000e+00 
      88  1.3500000000000e-02  1.0000000000000e-03  0.0000000000000e+00 
      89  1.3500000000000e-02  6.6666666666667e-04  0.0000000000000e+00 
      90  1.3500000000000e-02  3.3333333333333e-04  0.0000000000000e+00 
      91  1.3500000000000e-02  0.0000000000000e+00  0.0000000000000e+00 
      92  1.4000000000000e-02  2.0000000000000e-03  0.0000000000000e+00 
      93  1.4000000000000e-02  1.6666666666667e-03  0.0000000000000e+00 
      94  1.4000000000000e-02  1.3333333333333e-03  0.0000000000000e+00 
      95  1.4000000000000e-02  1.0000000000000e-03  0.0000000000000e+00 
      96  1.4000000000000e-02  6.6666666666667e-04  0.0000000000000e+00 
      97  1.4000000000000e-02  3.3333333333333e-04  0.0000000000000e+00 
      98  1.4000000000000e-02  0.0000000000000e+00  0.0000000000000e+00 
      99  1.4500000000000e-02  2.0000000000000e-03  0.0000000000000e+00 
     100  1.4500000000000e-02  1.6666666666667e-03  0.0000000000000e+00 
     101  1.4500000000000e-02  1.3333333333333e-03  0.0000000000000e+00 
     102  1.4500000000000e-02  1.0000000000000e-03  0.0000000000000e+00 
     103  1.4500000000000e-02  6.6666666666667e-04  0.0000000000000e+00 
     104  1.4500000000000e-02  3.3333333333333e-04  0.0000000000000e+00 
     105  1.4500000000000e-02  0.0000000000000e+00  0.0000000000000e+00 
     106  1.5000000000000e-02  2.0000000000000e-03  0.0000000000000e+00 
     107  1.5000000000000e-02  1.6666666666667e-03  0.0000000000000e+00 
     108  1.5000000000000e-02  1.3333333333333e-03  0.0000000000000e+00 
     109  1.5000000000000e-02  1.0000000000000e-03  0.0000000000000e+00 
     110  1.5000000000000e-02  6.6666666666667e-04  0.0000000000000e+00 
     111  1.5000000000000e-02  3.3333333333333e-04  0.0000000000000e+00 
     112  1.5000000000000e-02  0.0000000000000e+00  0.0000000000000e+00 
     113  1.5500000000000e-02  2.0000000000000e-03  0.0000000000000e+00 
     114  1.5500000000000e-02  1.6666666666667e-03  0.0000000000000e+00 
     115  1.5500000000000e-02  1.3333333333333e-03  0.0000000000000e+00 
     116  1.5500000000000e-02  1.0000000000000e-03  0.0000000000000e+00 
     117  1.5500000000000e-02  6.6666666666667e-04  0.0000000000000e+00 
     118  1.5500000000000e-02  3.3333333333333e-04  0.0000000000000e+00 
     119  1.5500000000000e-02  0.0000000000000e+00  0.0000000000000e+00 
     120  1.6000000000000e-02  2.0000000000000e-03  0.0000000000000e+00 
     121  1.6000000000000e-02  1.6666666666667e-03  0.0000000000000e+00 
     122  1.6000000000000e-02  1.3333333333333e-03  0.0000000000000e+00 
     123  1.6000000000000e-02  1.0000000000000e-03  0.0000000000000e+00 
     124  1.6000000000000e-02  6.6666666666667e-04  0.0000000000000e+00 
     125  1.6000000000000e-02  3.3333333333333e-04  0.0000000000000e+00 
     126  1.6000000000000e-02  0.0000000000000e+00  0.0000000000000e+00 
     127  1.6500000000000e-02  2.0000000000000e-03  0.0000000000000e+00 
     128  1.6500000000000e-02  1.6666666666667e-03  0.0000000000000e+00 
     129  1.6500000000000e-02  1.3333333333333e-03  0.0000000000000e+00 
     130  1.6500000000000e-02  1.0000000000000e-03  0.0000000000000e+00 
     131  1.6500000000000e-02  6.6666666666667e-04  0.0000000000000e+00 
     132  1.6500000000000e-02  3.3333333333333e-04  0.0000000000000e+00 
     133  1.6500000000000e-02  0.0000000000000e+00  0.0000000000000e+00 
     134  1.7000000000000e-02  2.0000000000000e-03  0.0000000000000e+00 
     135  1.7000000000000e-02  1.6666666666667e-03  0.0000000000000e+00 
     136  1.7000000000000e-02  1.3333333333333e-03  0.0000000000000e+00 
     137  1.7000000000000e-02  1.0000000000000e-03  0.0000000000000e+00 
     138  1.7000000000000e-02  6.6666666666667e-04  0.0000000000000e+00 
     139  1.7000000000000e-02  3.3333333333333e-04  0.0000000000000e+00 
     140  1.7000000000000e-02  0.0000000000000e+00  0.0000000000000e+00 
     141  1.7500000000000e-02  2.0000000000000e-03  0.0000000000000e+00 
     142  1.7500000000000e-02  1.6666666666667e-03  0.0000000000000e+00 
     143  1.7500000000000e-02  1.3333333333333e-03  0.0000000000000e+00 
     144  1.7500000000000e-02  1.0000000000000e-03  0.0000000000000e+00 
     145  1.7500000000000e-02  6.6666666666667e-04  0.0000000000000e+00 
     146  1.7500000000000e-02  3.3333333333333e-04  0.0000000000000e+00 
     147  1.7500000000000e-02  0.0000000000000e+00  0.0000000000000e+00 
     148  1.8000000000000e-02  2.0000000000000e-03  0.0000000000000e+00 
     149  1.8000000000000e-02  1.6666666666667e-03  0.0000000000000e+00 
     150  1.8000000000000e-02  1.3333333333333e-03  0.0000000000000e+00 
     151  1.8000000000000e-02  1.0000000000000e-03  0.0000000000000e+00 
     152  1.8000000000000e-02  6.6666666666667e-04  0.0000000000000e+00 
     153  1.8000000000000e-02  3.3333333333333e-04  0.0000000000000e+00 
     154  1.8000000000000e-02  0.0000000000000e+00  0.0000000000000e+00 
     155  1.8500000000000e-02  2.0000000000000e-03  0.0000000000000e+00 
     156  1.8500000000000e-02  1.6666666666667e-03  0.0000000000000e+00 
     157  1.8500000000000e-02  1.3333333333333e-03  0.0000000000000e+00 
     158  1.8500000000000e-02  1.0000000000000e-03  0.0000000000000e+00 
     159  1.8500000000000e-02  6.6666666666667e-04  0.0000000000000e+00 
     160  1.8500000000000e-02  3.3333333333333e-04  0.0000000000000e+00 
     161  1.8500000000000e-02  0.0000000000000e+00  0.0000000000000e+00 
     162  1.9000000000000e-02  2.0000000000000e-03  0.0000000000000e+00 
     163  1.9000000000000e-02  1.6666666666667e-03  0.0000000000000e+00 
     164  1.9000000000000e-02  1.3333333333333e-03  0.0000000000000e+00 
     165  1.9000000000000e-02  1.0000000000000e-03  0.0000000000000e+00 
     166  1.9000000000000e-02  6.6666666666667e-04  0.0000000000000e+00 
     167  1.9000000000000e-02  3.3333333333333e-04  0.0000000000000e+00 
     168  1.9000000000000e-02  0.0000000000000e+00  0.0000000000000e+00 
     169  1.9500000000000e-02  2.0000000000000e-03  0.0000000000000e+00 
     170  1.9500000000000e-02  1.6666666666667e-03  0.0000000000000e+00 
     171  1.9500000000000e-02  1.3333333333333e-03  0.0000000000000e+00 
     172  1.9500000000000e-02  1.0000000000000e-03  0.0000000000000e+00 
     173  1.9500000000000e-02  6.6666666666667e-04  0.0000000000000e+00 
     174  1.9500000000000e-02  3.3333333333333e-04  0.0000000000000e+00 
     175  1.9500000000000e-02  0.0000000000000e+00  0.0000000000000e+00 
     176  2.0000000000000e-02  2.0000000000000e-03  0.0000000000000e+00 
     177  2.0000000000000e-02  1.6666666666667e-03  0.0000000000000e+00 
     178  2.0000000000000e-02  1.3333333333333e-03  0.0000000000000e+00 
     179  2.0000000000000e-02  1.0000000000000e-03  0.0000000000000e+00 
     180  2.0000000000000e-02  6.6666666666667e-04  0.0000000000000e+00 
     181  2.0000000000000e-02  3.3333333333333e-04  0.0000000000000e+00 
     182  2.0000000000000e-02  0.0000000000000e+00  0.0000000000000e+00 


[1D Elements]
#ElemNr  ElemType  NrOfNodes  Level
#Node1 Node2 ... NodeNrOfNodes

[2D Elements]
#ElemNr  ElemType  NrOfNodes  Level
#Node1 Node2 ... NodeNrOfNodes
1 6 4 air
14 13 6 7
2 6 4 air
21 20 13 14
3 6 4 air
28 27 20 21
4 6 4 air
35 34 27 28
5 6 4 air
42 41 34 35
6 6 4 air
13 12 5 6
7 6 4 air
20 19 12 13
8 6 4 air
27 26 19 20
9 6 4 air
34 33 26 27
10 6 4 air
41 40 33 34
11 6 4 air
12 11 4 5
12 6 4 air
19 18 11 12
13 6 4 air
26 25 18 19
14 6 4 air
33 32 25 26
15 6 4 air
40 39 32 33
16 6 4 air
11 10 3 4
17 6 4 air
18 17 10 11
18 6 4 air
25 24 17 18
19 6 4 air
32 31 24 25
20 6 4 air
39 38 31 32
21 6 4 air
10 9 2 3
22 6 4 air
17 16 9 10
23 6 4 air
24 23 16 17
24 6 4 air
31 30 23 24
25 6 4 air
38 37 30 31
26 6 4 air
9 8 1 2
27 6 4 air
16 15 8 9
28 6 4 air
23 22 15 16
29 6 4 air
30 29 22 23
30 6 4 air
37 36 29 30
31 6 4 solenoid
49 48 41 42
32 6 4 solenoid
56 55 48 49
33 6 4 solenoid
63 62 55 56
34 6 4 solenoid
70 69 62 63
35 6 4 solenoid
77 76 69 70
36 6 4 solenoid
84 83 76 77
37 6 4 solenoid
91 90 83 84
38 6 4 solenoid
98 97 90 91
39 6 4 solenoid
105 104 97 98
40 6 4 solenoid
112 111 104 105
41 6 4 solenoid
119 118 111 112
42 6 4 solenoid
126 125 118 119
43 6 4 solenoid
133 132 125 126
44 6 4 solenoid
140 139 132 133
45 6 4 solenoid
147 146 139 140
46 6 4 solenoid
154 153 146 147
47 6 4 solenoid
161 160 153 154
48 6 4 solenoid
168 167 160 161
49 6 4 solenoid
175 174 167 168
50 6 4 solenoid
182 181 174 175
51 6 4 solenoid
48 47 40 41
52 6 4 solenoid
55 54 47 48
53 6 4 solenoid
62 61 54 55
54 6 4 solenoid
69 68 61 62
55 6 4 solenoid
76 75 68 69
56 6 4 solenoid
83 82 75 76
57 6 4 solenoid
90 89 82 83
58 6 4 solenoid
97 96 89 90
59 6 4 solenoid
104 103 96 97
60 6 4 solenoid
111 110 103 104
61 6 4 solenoid
118 117 110 111
62 6 4 solenoid
125 124 117 118
63 6 4 solenoid
132 131 124 125
64 6 4 solenoid
139 138 131 132
65 6 4 solenoid
146 145 138 139
66 6 4 solenoid
153 152 145 146
67 6 4 solenoid
160 159 152 153
68 6 4 solenoid
167 166 159 160
69 6 4 solenoid
174 173 166 167
70 6 4 solenoid
181 180 173 174
71 6 4 solenoid
47 46 39 40
72 6 4 solenoid
54 53 46 47
73 6 4 solenoid
61 60 53 54
74 6 4 solenoid
68 67 60 61
75 6 4 solenoid
75 74 67 68
76 6 4 solenoid
82 81 74 75
77 6 4 solenoid
89 88 81 82
78 6 4 solenoid
96 95 88 89
79 6 4 solenoid
103 102 95 96
80 6 4 solenoid
110 109 102 103
81 6 4 solenoid
117 116 109 110
82 6 4 solenoid
124 123 116 117
83 6 4 solenoid
131 130 123 124
84 6 4 solenoid
138 137 130 131
85 6 4 solenoid
145 144 137 138
86 6 4 solenoid
152 151 144 145
87 6 4 solenoid
159 158 151 152
88 6 4 solenoid
166 165 158 159
89 6 4 solenoid
173 172 165 166
90 6 4 solenoid
180 179 172 173
91 6 4 solenoid
46 45 38 39
92 6 4 solenoid
53 52 45 46
93 6 4 solenoid
60 59 52 53
94 6 4 solenoid
67 66 59 60
95 6 4 solenoid
74 73 66 67
96 6 4 solenoid
81 80 73 74
97 6 4 solenoid
88 87 80 81
98 6 4 solenoid
95 94 87 88
99 6 4 solenoid
102 101 94 95
100 6 4 solenoid
109 108 101 102
101 6 4 solenoid
116 115 108 109
102 6 4 solenoid
123 122 115 116
103 6 4 solenoid
130 129 122 123
104 6 4 solenoid
137 136 129 130
105 6 4 solenoid
144 143 136 137
106 6 4 solenoid
151 150 143 144
107 6 4 solenoid
158 157 150 151
108 6 4 solenoid
165 164 157 158
109 6 4 solenoid
172 171 164 165
110 6 4 solenoid
179 178 171 172
111 6 4 solenoid
45 44 37 38
112 6 4 solenoid
52 51 44 45
113 6 4 solenoid
59 58 51 52
114 6 4 solenoid
66 65 58 59
115 6 4 solenoid
73 72 65 66
116 6 4 solenoid
80 79 72 73
117 6 4 solenoid
87 86 79 80
118 6 4 solenoid
94 93 86 87
119 6 4 solenoid
101 100 93 94
120 6 4 solenoid
108 107 100 101
121 6 4 solenoid
115 114 107 108
122 6 4 solenoid
122 121 114 115
123 6 4 solenoid
129 128 121 122
124 6 4 solenoid
136 135 128 129
125 6 4 solenoid
143 142 135 136
126 6 4 solenoid
150 149 142 143
127 6 4 solenoid
157 156 149 150
128 6 4 solenoid
164 163 156 157
129 6 4 solenoid
171 170 163 164
130 6 4 solenoid
178 177 170 171
131 6 4 solenoid
44 43 36 37
132 6 4 solenoid
51 50 43 44
133 6 4 solenoid
58 57 50 51
134 6 4 solenoid
65 64 57 58
135 6 4 solenoid
72 71 64 65
136 6 4 solenoid
79 78 71 72
137 6 4 solenoid
86 85 78 79
138 6 4 solenoid
93 92 85 86
139 6 4 solenoid
100 99 92 93
140 6 4 solenoid
107 106 99 100
141 6 4 solenoid
114 113 106 107
142 6 4 solenoid
121 120 113 114
143 6 4 solenoid
128 127 120 121
144 6 4 solenoid
135 134 127 128
145 6 4 solenoid
142 141 134 135
146 6 4 solenoid
149 148 141 142
147 6 4 solenoid
156 155 148 149
148 6 4 solenoid
163 162 155 156
149 6 4 solenoid
170 169 162 163
150 6 4 solenoid
177 176 169 170


[3D Elements]
#ElemNr  ElemType  NrOfNodes  Level
#Node1 Node2 ... NodeNrOfNodes

[Node BC]
#NodeNr Level
1 left
105 lower
106 upper
112 lower
113 upper
119 lower
120 upper
126 lower
127 upper
133 lower
134 upper
140 lower
141 upper
147 lower
148 upper
154 lower
155 upper
161 lower
162 upper
168 lower
169 upper
175 lower
176 right
176 upper
177 right
178 right
179 right
180 right
181 right
182 right
182 lower
2 left
3 left
36 upper
4 left
42 lower
43 upper
49 lower
5 left
50 upper
56 lower
57 upper
6 left
63 lower
64 upper
7 left
70 lower
71 upper
77 lower
78 upper
84 lower
85 upper
91 lower
92 upper
98 lower
99 upper

[Save Nodes]
#NodeNr Level


[Save Elements]
#ElemNr Level

