[Info]
Version 1
Dimension 3
NumNodes 723
Num3DElements 440
Num2DElements 520
Num1DElements 0
NumNodeBC 5
NumSaveNodes 0
NumSaveElements 200
Num 2d-line      : 0
Num 2d-line,quad : 0
Num 3d-line      : 0
Num 3d-line,quad : 0
Num triangle     : 0
Num triangle,quad: 0
Num quadr        : 520
Num quadr,quad   : 0
Num tetra        : 0
Num tetra,quad   : 0
Num brick        : 440
Num brick,quad   : 0
Num pyramid      : 0
Num pyramid,quad : 0
Num wedge        : 0
Num wedge,quad   : 0

[Nodes]
#NodeNr x-coord y-coord z-coord
       1  0.0000000000000e+00  0.0000000000000e+00  0.0000000000000e+00
       2  5.0000000000000e+00  0.0000000000000e+00  0.0000000000000e+00
       3  5.0000000000000e-01  0.0000000000000e+00  0.0000000000000e+00
       4  1.0000000000000e+00  0.0000000000000e+00  0.0000000000000e+00
       5  1.5000000000000e+00  0.0000000000000e+00  0.0000000000000e+00
       6  2.0000000000000e+00  0.0000000000000e+00  0.0000000000000e+00
       7  2.5000000000000e+00  0.0000000000000e+00  0.0000000000000e+00
       8  3.0000000000000e+00  0.0000000000000e+00  0.0000000000000e+00
       9  3.5000000000000e+00  0.0000000000000e+00  0.0000000000000e+00
      10  4.0000000000000e+00  0.0000000000000e+00  0.0000000000000e+00
      11  4.5000000000000e+00  0.0000000000000e+00  0.0000000000000e+00
      12  4.0000000000000e+00  1.0000000000000e+00  0.0000000000000e+00
      13  4.6666666666670e+00  3.3333333333330e-01  0.0000000000000e+00
      14  4.3333333333330e+00  6.6666666666670e-01  0.0000000000000e+00
      15  1.0000000000000e+00  1.0000000000000e+00  0.0000000000000e+00
      16  3.7000000000000e+00  1.0000000000000e+00  0.0000000000000e+00
      17  3.4000000000000e+00  1.0000000000000e+00  0.0000000000000e+00
      18  3.1000000000000e+00  1.0000000000000e+00  0.0000000000000e+00
      19  2.8000000000000e+00  1.0000000000000e+00  0.0000000000000e+00
      20  2.5000000000000e+00  1.0000000000000e+00  0.0000000000000e+00
      21  2.2000000000000e+00  1.0000000000000e+00  0.0000000000000e+00
      22  1.9000000000000e+00  1.0000000000000e+00  0.0000000000000e+00
      23  1.6000000000000e+00  1.0000000000000e+00  0.0000000000000e+00
      24  1.3000000000000e+00  1.0000000000000e+00  0.0000000000000e+00
      25  6.6666666666670e-01  6.6666666666670e-01  0.0000000000000e+00
      26  3.3333333333330e-01  3.3333333333330e-01  0.0000000000000e+00
      27  7.6666666666670e-01  3.3333333333330e-01  0.0000000000000e+00
      28  1.0333333333330e+00  6.6666666666670e-01  0.0000000000000e+00
      29  1.2000000000000e+00  3.3333333333330e-01  0.0000000000000e+00
      30  1.4000000000000e+00  6.6666666666670e-01  0.0000000000000e+00
      31  1.6333333333330e+00  3.3333333333330e-01  0.0000000000000e+00
      32  1.7666666666670e+00  6.6666666666670e-01  0.0000000000000e+00
      33  2.0666666666670e+00  3.3333333333330e-01  0.0000000000000e+00
      34  2.1333333333330e+00  6.6666666666670e-01  0.0000000000000e+00
      35  2.5000000000000e+00  3.3333333333330e-01  0.0000000000000e+00
      36  2.5000000000000e+00  6.6666666666670e-01  0.0000000000000e+00
      37  2.9333333333330e+00  3.3333333333330e-01  0.0000000000000e+00
      38  2.8666666666670e+00  6.6666666666670e-01  0.0000000000000e+00
      39  3.3666666666670e+00  3.3333333333330e-01  0.0000000000000e+00
      40  3.2333333333330e+00  6.6666666666670e-01  0.0000000000000e+00
      41  3.8000000000000e+00  3.3333333333330e-01  0.0000000000000e+00
      42  3.6000000000000e+00  6.6666666666670e-01  0.0000000000000e+00
      43  4.2333333333330e+00  3.3333333333330e-01  0.0000000000000e+00
      44  3.9666666666670e+00  6.6666666666670e-01  0.0000000000000e+00
      45  5.0000000000000e+00  5.0000000000000e+00  0.0000000000000e+00
      46  5.0000000000000e+00  5.0000000000000e-01  0.0000000000000e+00
      47  5.0000000000000e+00  1.0000000000000e+00  0.0000000000000e+00
      48  5.0000000000000e+00  1.5000000000000e+00  0.0000000000000e+00
      49  5.0000000000000e+00  2.0000000000000e+00  0.0000000000000e+00
      50  5.0000000000000e+00  2.5000000000000e+00  0.0000000000000e+00
      51  5.0000000000000e+00  3.0000000000000e+00  0.0000000000000e+00
      52  5.0000000000000e+00  3.5000000000000e+00  0.0000000000000e+00
      53  5.0000000000000e+00  4.0000000000000e+00  0.0000000000000e+00
      54  5.0000000000000e+00  4.5000000000000e+00  0.0000000000000e+00
      55  4.0000000000000e+00  4.0000000000000e+00  0.0000000000000e+00
      56  4.6666666666670e+00  4.6666666666670e+00  0.0000000000000e+00
      57  4.3333333333330e+00  4.3333333333330e+00  0.0000000000000e+00
      58  4.0000000000000e+00  3.7000000000000e+00  0.0000000000000e+00
      59  4.0000000000000e+00  3.4000000000000e+00  0.0000000000000e+00
      60  4.0000000000000e+00  3.1000000000000e+00  0.0000000000000e+00
      61  4.0000000000000e+00  2.8000000000000e+00  0.0000000000000e+00
      62  4.0000000000000e+00  2.5000000000000e+00  0.0000000000000e+00
      63  4.0000000000000e+00  2.2000000000000e+00  0.0000000000000e+00
      64  4.0000000000000e+00  1.9000000000000e+00  0.0000000000000e+00
      65  4.0000000000000e+00  1.6000000000000e+00  0.0000000000000e+00
      66  4.0000000000000e+00  1.3000000000000e+00  0.0000000000000e+00
      67  4.6666666666670e+00  7.6666666666670e-01  0.0000000000000e+00
      68  4.3333333333330e+00  1.0333333333330e+00  0.0000000000000e+00
      69  4.6666666666670e+00  1.2000000000000e+00  0.0000000000000e+00
      70  4.3333333333330e+00  1.4000000000000e+00  0.0000000000000e+00
      71  4.6666666666670e+00  1.6333333333330e+00  0.0000000000000e+00
      72  4.3333333333330e+00  1.7666666666670e+00  0.0000000000000e+00
      73  4.6666666666670e+00  2.0666666666670e+00  0.0000000000000e+00
      74  4.3333333333330e+00  2.1333333333330e+00  0.0000000000000e+00
      75  4.6666666666670e+00  2.5000000000000e+00  0.0000000000000e+00
      76  4.3333333333330e+00  2.5000000000000e+00  0.0000000000000e+00
      77  4.6666666666670e+00  2.9333333333330e+00  0.0000000000000e+00
      78  4.3333333333330e+00  2.8666666666670e+00  0.0000000000000e+00
      79  4.6666666666670e+00  3.3666666666670e+00  0.0000000000000e+00
      80  4.3333333333330e+00  3.2333333333330e+00  0.0000000000000e+00
      81  4.6666666666670e+00  3.8000000000000e+00  0.0000000000000e+00
      82  4.3333333333330e+00  3.6000000000000e+00  0.0000000000000e+00
      83  4.6666666666670e+00  4.2333333333330e+00  0.0000000000000e+00
      84  4.3333333333330e+00  3.9666666666670e+00  0.0000000000000e+00
      85  0.0000000000000e+00  5.0000000000000e+00  0.0000000000000e+00
      86  4.5000000000000e+00  5.0000000000000e+00  0.0000000000000e+00
      87  4.0000000000000e+00  5.0000000000000e+00  0.0000000000000e+00
      88  3.5000000000000e+00  5.0000000000000e+00  0.0000000000000e+00
      89  3.0000000000000e+00  5.0000000000000e+00  0.0000000000000e+00
      90  2.5000000000000e+00  5.0000000000000e+00  0.0000000000000e+00
      91  2.0000000000000e+00  5.0000000000000e+00  0.0000000000000e+00
      92  1.5000000000000e+00  5.0000000000000e+00  0.0000000000000e+00
      93  1.0000000000000e+00  5.0000000000000e+00  0.0000000000000e+00
      94  5.0000000000000e-01  5.0000000000000e+00  0.0000000000000e+00
      95  1.0000000000000e+00  4.0000000000000e+00  0.0000000000000e+00
      96  3.3333333333330e-01  4.6666666666670e+00  0.0000000000000e+00
      97  6.6666666666670e-01  4.3333333333330e+00  0.0000000000000e+00
      98  1.3000000000000e+00  4.0000000000000e+00  0.0000000000000e+00
      99  1.6000000000000e+00  4.0000000000000e+00  0.0000000000000e+00
     100  1.9000000000000e+00  4.0000000000000e+00  0.0000000000000e+00
     101  2.2000000000000e+00  4.0000000000000e+00  0.0000000000000e+00
     102  2.5000000000000e+00  4.0000000000000e+00  0.0000000000000e+00
     103  2.8000000000000e+00  4.0000000000000e+00  0.0000000000000e+00
     104  3.1000000000000e+00  4.0000000000000e+00  0.0000000000000e+00
     105  3.4000000000000e+00  4.0000000000000e+00  0.0000000000000e+00
     106  3.7000000000000e+00  4.0000000000000e+00  0.0000000000000e+00
     107  3.9666666666670e+00  4.3333333333330e+00  0.0000000000000e+00
     108  3.6000000000000e+00  4.3333333333330e+00  0.0000000000000e+00
     109  3.2333333333330e+00  4.3333333333330e+00  0.0000000000000e+00
     110  2.8666666666670e+00  4.3333333333330e+00  0.0000000000000e+00
     111  2.5000000000000e+00  4.3333333333330e+00  0.0000000000000e+00
     112  2.1333333333330e+00  4.3333333333330e+00  0.0000000000000e+00
     113  1.7666666666670e+00  4.3333333333330e+00  0.0000000000000e+00
     114  1.4000000000000e+00  4.3333333333330e+00  0.0000000000000e+00
     115  1.0333333333330e+00  4.3333333333330e+00  0.0000000000000e+00
     116  4.2333333333330e+00  4.6666666666670e+00  0.0000000000000e+00
     117  3.8000000000000e+00  4.6666666666670e+00  0.0000000000000e+00
     118  3.3666666666670e+00  4.6666666666670e+00  0.0000000000000e+00
     119  2.9333333333330e+00  4.6666666666670e+00  0.0000000000000e+00
     120  2.5000000000000e+00  4.6666666666670e+00  0.0000000000000e+00
     121  2.0666666666670e+00  4.6666666666670e+00  0.0000000000000e+00
     122  1.6333333333330e+00  4.6666666666670e+00  0.0000000000000e+00
     123  1.2000000000000e+00  4.6666666666670e+00  0.0000000000000e+00
     124  7.6666666666670e-01  4.6666666666670e+00  0.0000000000000e+00
     125  1.0000000000000e+00  1.3000000000000e+00  0.0000000000000e+00
     126  1.0000000000000e+00  1.6000000000000e+00  0.0000000000000e+00
     127  1.0000000000000e+00  1.9000000000000e+00  0.0000000000000e+00
     128  1.0000000000000e+00  2.2000000000000e+00  0.0000000000000e+00
     129  1.0000000000000e+00  2.5000000000000e+00  0.0000000000000e+00
     130  1.0000000000000e+00  2.8000000000000e+00  0.0000000000000e+00
     131  1.0000000000000e+00  3.1000000000000e+00  0.0000000000000e+00
     132  1.0000000000000e+00  3.4000000000000e+00  0.0000000000000e+00
     133  1.0000000000000e+00  3.7000000000000e+00  0.0000000000000e+00
     134  0.0000000000000e+00  4.5000000000000e+00  0.0000000000000e+00
     135  0.0000000000000e+00  4.0000000000000e+00  0.0000000000000e+00
     136  0.0000000000000e+00  3.5000000000000e+00  0.0000000000000e+00
     137  0.0000000000000e+00  3.0000000000000e+00  0.0000000000000e+00
     138  0.0000000000000e+00  2.5000000000000e+00  0.0000000000000e+00
     139  0.0000000000000e+00  2.0000000000000e+00  0.0000000000000e+00
     140  0.0000000000000e+00  1.5000000000000e+00  0.0000000000000e+00
     141  0.0000000000000e+00  1.0000000000000e+00  0.0000000000000e+00
     142  0.0000000000000e+00  5.0000000000000e-01  0.0000000000000e+00
     143  3.3333333333330e-01  7.6666666666670e-01  0.0000000000000e+00
     144  3.3333333333330e-01  1.2000000000000e+00  0.0000000000000e+00
     145  3.3333333333330e-01  1.6333333333330e+00  0.0000000000000e+00
     146  3.3333333333330e-01  2.0666666666670e+00  0.0000000000000e+00
     147  3.3333333333330e-01  2.5000000000000e+00  0.0000000000000e+00
     148  3.3333333333330e-01  2.9333333333330e+00  0.0000000000000e+00
     149  3.3333333333330e-01  3.3666666666670e+00  0.0000000000000e+00
     150  3.3333333333330e-01  3.8000000000000e+00  0.0000000000000e+00
     151  3.3333333333330e-01  4.2333333333330e+00  0.0000000000000e+00
     152  6.6666666666670e-01  1.0333333333330e+00  0.0000000000000e+00
     153  6.6666666666670e-01  1.4000000000000e+00  0.0000000000000e+00
     154  6.6666666666670e-01  1.7666666666670e+00  0.0000000000000e+00
     155  6.6666666666670e-01  2.1333333333330e+00  0.0000000000000e+00
     156  6.6666666666670e-01  2.5000000000000e+00  0.0000000000000e+00
     157  6.6666666666670e-01  2.8666666666670e+00  0.0000000000000e+00
     158  6.6666666666670e-01  3.2333333333330e+00  0.0000000000000e+00
     159  6.6666666666670e-01  3.6000000000000e+00  0.0000000000000e+00
     160  6.6666666666670e-01  3.9666666666670e+00  0.0000000000000e+00
     161  1.3000000000000e+00  1.3000000000000e+00  0.0000000000000e+00
     162  1.3000000000000e+00  1.6000000000000e+00  0.0000000000000e+00
     163  1.3000000000000e+00  1.9000000000000e+00  0.0000000000000e+00
     164  1.3000000000000e+00  2.2000000000000e+00  0.0000000000000e+00
     165  1.3000000000000e+00  2.5000000000000e+00  0.0000000000000e+00
     166  1.3000000000000e+00  2.8000000000000e+00  0.0000000000000e+00
     167  1.3000000000000e+00  3.1000000000000e+00  0.0000000000000e+00
     168  1.3000000000000e+00  3.4000000000000e+00  0.0000000000000e+00
     169  1.3000000000000e+00  3.7000000000000e+00  0.0000000000000e+00
     170  1.6000000000000e+00  1.3000000000000e+00  0.0000000000000e+00
     171  1.6000000000000e+00  1.6000000000000e+00  0.0000000000000e+00
     172  1.6000000000000e+00  1.9000000000000e+00  0.0000000000000e+00
     173  1.6000000000000e+00  2.2000000000000e+00  0.0000000000000e+00
     174  1.6000000000000e+00  2.5000000000000e+00  0.0000000000000e+00
     175  1.6000000000000e+00  2.8000000000000e+00  0.0000000000000e+00
     176  1.6000000000000e+00  3.1000000000000e+00  0.0000000000000e+00
     177  1.6000000000000e+00  3.4000000000000e+00  0.0000000000000e+00
     178  1.6000000000000e+00  3.7000000000000e+00  0.0000000000000e+00
     179  1.9000000000000e+00  1.3000000000000e+00  0.0000000000000e+00
     180  1.9000000000000e+00  1.6000000000000e+00  0.0000000000000e+00
     181  1.9000000000000e+00  1.9000000000000e+00  0.0000000000000e+00
     182  1.9000000000000e+00  2.2000000000000e+00  0.0000000000000e+00
     183  1.9000000000000e+00  2.5000000000000e+00  0.0000000000000e+00
     184  1.9000000000000e+00  2.8000000000000e+00  0.0000000000000e+00
     185  1.9000000000000e+00  3.1000000000000e+00  0.0000000000000e+00
     186  1.9000000000000e+00  3.4000000000000e+00  0.0000000000000e+00
     187  1.9000000000000e+00  3.7000000000000e+00  0.0000000000000e+00
     188  2.2000000000000e+00  1.3000000000000e+00  0.0000000000000e+00
     189  2.2000000000000e+00  1.6000000000000e+00  0.0000000000000e+00
     190  2.2000000000000e+00  1.9000000000000e+00  0.0000000000000e+00
     191  2.2000000000000e+00  2.2000000000000e+00  0.0000000000000e+00
     192  2.2000000000000e+00  2.5000000000000e+00  0.0000000000000e+00
     193  2.2000000000000e+00  2.8000000000000e+00  0.0000000000000e+00
     194  2.2000000000000e+00  3.1000000000000e+00  0.0000000000000e+00
     195  2.2000000000000e+00  3.4000000000000e+00  0.0000000000000e+00
     196  2.2000000000000e+00  3.7000000000000e+00  0.0000000000000e+00
     197  2.5000000000000e+00  1.3000000000000e+00  0.0000000000000e+00
     198  2.5000000000000e+00  1.6000000000000e+00  0.0000000000000e+00
     199  2.5000000000000e+00  1.9000000000000e+00  0.0000000000000e+00
     200  2.5000000000000e+00  2.2000000000000e+00  0.0000000000000e+00
     201  2.5000000000000e+00  2.5000000000000e+00  0.0000000000000e+00
     202  2.5000000000000e+00  2.8000000000000e+00  0.0000000000000e+00
     203  2.5000000000000e+00  3.1000000000000e+00  0.0000000000000e+00
     204  2.5000000000000e+00  3.4000000000000e+00  0.0000000000000e+00
     205  2.5000000000000e+00  3.7000000000000e+00  0.0000000000000e+00
     206  2.8000000000000e+00  1.3000000000000e+00  0.0000000000000e+00
     207  2.8000000000000e+00  1.6000000000000e+00  0.0000000000000e+00
     208  2.8000000000000e+00  1.9000000000000e+00  0.0000000000000e+00
     209  2.8000000000000e+00  2.2000000000000e+00  0.0000000000000e+00
     210  2.8000000000000e+00  2.5000000000000e+00  0.0000000000000e+00
     211  2.8000000000000e+00  2.8000000000000e+00  0.0000000000000e+00
     212  2.8000000000000e+00  3.1000000000000e+00  0.0000000000000e+00
     213  2.8000000000000e+00  3.4000000000000e+00  0.0000000000000e+00
     214  2.8000000000000e+00  3.7000000000000e+00  0.0000000000000e+00
     215  3.1000000000000e+00  1.3000000000000e+00  0.0000000000000e+00
     216  3.1000000000000e+00  1.6000000000000e+00  0.0000000000000e+00
     217  3.1000000000000e+00  1.9000000000000e+00  0.0000000000000e+00
     218  3.1000000000000e+00  2.2000000000000e+00  0.0000000000000e+00
     219  3.1000000000000e+00  2.5000000000000e+00  0.0000000000000e+00
     220  3.1000000000000e+00  2.8000000000000e+00  0.0000000000000e+00
     221  3.1000000000000e+00  3.1000000000000e+00  0.0000000000000e+00
     222  3.1000000000000e+00  3.4000000000000e+00  0.0000000000000e+00
     223  3.1000000000000e+00  3.7000000000000e+00  0.0000000000000e+00
     224  3.4000000000000e+00  1.3000000000000e+00  0.0000000000000e+00
     225  3.4000000000000e+00  1.6000000000000e+00  0.0000000000000e+00
     226  3.4000000000000e+00  1.9000000000000e+00  0.0000000000000e+00
     227  3.4000000000000e+00  2.2000000000000e+00  0.0000000000000e+00
     228  3.4000000000000e+00  2.5000000000000e+00  0.0000000000000e+00
     229  3.4000000000000e+00  2.8000000000000e+00  0.0000000000000e+00
     230  3.4000000000000e+00  3.1000000000000e+00  0.0000000000000e+00
     231  3.4000000000000e+00  3.4000000000000e+00  0.0000000000000e+00
     232  3.4000000000000e+00  3.7000000000000e+00  0.0000000000000e+00
     233  3.7000000000000e+00  1.3000000000000e+00  0.0000000000000e+00
     234  3.7000000000000e+00  1.6000000000000e+00  0.0000000000000e+00
     235  3.7000000000000e+00  1.9000000000000e+00  0.0000000000000e+00
     236  3.7000000000000e+00  2.2000000000000e+00  0.0000000000000e+00
     237  3.7000000000000e+00  2.5000000000000e+00  0.0000000000000e+00
     238  3.7000000000000e+00  2.8000000000000e+00  0.0000000000000e+00
     239  3.7000000000000e+00  3.1000000000000e+00  0.0000000000000e+00
     240  3.7000000000000e+00  3.4000000000000e+00  0.0000000000000e+00
     241  3.7000000000000e+00  3.7000000000000e+00  0.0000000000000e+00
     242  0.0000000000000e+00  0.0000000000000e+00  1.0000000000000e+00
     243  5.0000000000000e+00  0.0000000000000e+00  1.0000000000000e+00
     244  5.0000000000000e-01  0.0000000000000e+00  1.0000000000000e+00
     245  1.0000000000000e+00  0.0000000000000e+00  1.0000000000000e+00
     246  1.5000000000000e+00  0.0000000000000e+00  1.0000000000000e+00
     247  2.0000000000000e+00  0.0000000000000e+00  1.0000000000000e+00
     248  2.5000000000000e+00  0.0000000000000e+00  1.0000000000000e+00
     249  3.0000000000000e+00  0.0000000000000e+00  1.0000000000000e+00
     250  3.5000000000000e+00  0.0000000000000e+00  1.0000000000000e+00
     251  4.0000000000000e+00  0.0000000000000e+00  1.0000000000000e+00
     252  4.5000000000000e+00  0.0000000000000e+00  1.0000000000000e+00
     253  4.0000000000000e+00  1.0000000000000e+00  1.0000000000000e+00
     254  4.6666666666670e+00  3.3333333333330e-01  1.0000000000000e+00
     255  4.3333333333330e+00  6.6666666666670e-01  1.0000000000000e+00
     256  1.0000000000000e+00  1.0000000000000e+00  1.0000000000000e+00
     257  3.7000000000000e+00  1.0000000000000e+00  1.0000000000000e+00
     258  3.4000000000000e+00  1.0000000000000e+00  1.0000000000000e+00
     259  3.1000000000000e+00  1.0000000000000e+00  1.0000000000000e+00
     260  2.8000000000000e+00  1.0000000000000e+00  1.0000000000000e+00
     261  2.5000000000000e+00  1.0000000000000e+00  1.0000000000000e+00
     262  2.2000000000000e+00  1.0000000000000e+00  1.0000000000000e+00
     263  1.9000000000000e+00  1.0000000000000e+00  1.0000000000000e+00
     264  1.6000000000000e+00  1.0000000000000e+00  1.0000000000000e+00
     265  1.3000000000000e+00  1.0000000000000e+00  1.0000000000000e+00
     266  6.6666666666670e-01  6.6666666666670e-01  1.0000000000000e+00
     267  3.3333333333330e-01  3.3333333333330e-01  1.0000000000000e+00
     268  7.6666666666670e-01  3.3333333333330e-01  1.0000000000000e+00
     269  1.0333333333330e+00  6.6666666666670e-01  1.0000000000000e+00
     270  1.2000000000000e+00  3.3333333333330e-01  1.0000000000000e+00
     271  1.4000000000000e+00  6.6666666666670e-01  1.0000000000000e+00
     272  1.6333333333330e+00  3.3333333333330e-01  1.0000000000000e+00
     273  1.7666666666670e+00  6.6666666666670e-01  1.0000000000000e+00
     274  2.0666666666670e+00  3.3333333333330e-01  1.0000000000000e+00
     275  2.1333333333330e+00  6.6666666666670e-01  1.0000000000000e+00
     276  2.5000000000000e+00  3.3333333333330e-01  1.0000000000000e+00
     277  2.5000000000000e+00  6.6666666666670e-01  1.0000000000000e+00
     278  2.9333333333330e+00  3.3333333333330e-01  1.0000000000000e+00
     279  2.8666666666670e+00  6.6666666666670e-01  1.0000000000000e+00
     280  3.3666666666670e+00  3.3333333333330e-01  1.0000000000000e+00
     281  3.2333333333330e+00  6.6666666666670e-01  1.0000000000000e+00
     282  3.8000000000000e+00  3.3333333333330e-01  1.0000000000000e+00
     283  3.6000000000000e+00  6.6666666666670e-01  1.0000000000000e+00
     284  4.2333333333330e+00  3.3333333333330e-01  1.0000000000000e+00
     285  3.9666666666670e+00  6.6666666666670e-01  1.0000000000000e+00
     286  0.0000000000000e+00  0.0000000000000e+00  5.0000000000000e-01
     287  5.0000000000000e+00  0.0000000000000e+00  5.0000000000000e-01
     288  1.0000000000000e+00  1.0000000000000e+00  5.0000000000000e-01
     289  4.0000000000000e+00  1.0000000000000e+00  5.0000000000000e-01
     290  5.0000000000000e-01  0.0000000000000e+00  5.0000000000000e-01
     291  1.0000000000000e+00  0.0000000000000e+00  5.0000000000000e-01
     292  1.5000000000000e+00  0.0000000000000e+00  5.0000000000000e-01
     293  2.0000000000000e+00  0.0000000000000e+00  5.0000000000000e-01
     294  2.5000000000000e+00  0.0000000000000e+00  5.0000000000000e-01
     295  3.0000000000000e+00  0.0000000000000e+00  5.0000000000000e-01
     296  3.5000000000000e+00  0.0000000000000e+00  5.0000000000000e-01
     297  4.0000000000000e+00  0.0000000000000e+00  5.0000000000000e-01
     298  4.5000000000000e+00  0.0000000000000e+00  5.0000000000000e-01
     299  4.6666666666670e+00  3.3333333333330e-01  5.0000000000000e-01
     300  4.3333333333330e+00  6.6666666666670e-01  5.0000000000000e-01
     301  3.7000000000000e+00  1.0000000000000e+00  5.0000000000000e-01
     302  3.4000000000000e+00  1.0000000000000e+00  5.0000000000000e-01
     303  3.1000000000000e+00  1.0000000000000e+00  5.0000000000000e-01
     304  2.8000000000000e+00  1.0000000000000e+00  5.0000000000000e-01
     305  2.5000000000000e+00  1.0000000000000e+00  5.0000000000000e-01
     306  2.2000000000000e+00  1.0000000000000e+00  5.0000000000000e-01
     307  1.9000000000000e+00  1.0000000000000e+00  5.0000000000000e-01
     308  1.6000000000000e+00  1.0000000000000e+00  5.0000000000000e-01
     309  1.3000000000000e+00  1.0000000000000e+00  5.0000000000000e-01
     310  6.6666666666670e-01  6.6666666666670e-01  5.0000000000000e-01
     311  3.3333333333330e-01  3.3333333333330e-01  5.0000000000000e-01
     312  7.6666666666670e-01  3.3333333333330e-01  5.0000000000000e-01
     313  1.0333333333330e+00  6.6666666666670e-01  5.0000000000000e-01
     314  1.2000000000000e+00  3.3333333333330e-01  5.0000000000000e-01
     315  1.4000000000000e+00  6.6666666666670e-01  5.0000000000000e-01
     316  1.6333333333330e+00  3.3333333333330e-01  5.0000000000000e-01
     317  1.7666666666670e+00  6.6666666666670e-01  5.0000000000000e-01
     318  2.0666666666670e+00  3.3333333333330e-01  5.0000000000000e-01
     319  2.1333333333330e+00  6.6666666666670e-01  5.0000000000000e-01
     320  2.5000000000000e+00  3.3333333333330e-01  5.0000000000000e-01
     321  2.5000000000000e+00  6.6666666666670e-01  5.0000000000000e-01
     322  2.9333333333330e+00  3.3333333333330e-01  5.0000000000000e-01
     323  2.8666666666670e+00  6.6666666666670e-01  5.0000000000000e-01
     324  3.3666666666670e+00  3.3333333333330e-01  5.0000000000000e-01
     325  3.2333333333330e+00  6.6666666666670e-01  5.0000000000000e-01
     326  3.8000000000000e+00  3.3333333333330e-01  5.0000000000000e-01
     327  3.6000000000000e+00  6.6666666666670e-01  5.0000000000000e-01
     328  4.2333333333330e+00  3.3333333333330e-01  5.0000000000000e-01
     329  3.9666666666670e+00  6.6666666666670e-01  5.0000000000000e-01
     330  5.0000000000000e+00  5.0000000000000e+00  1.0000000000000e+00
     331  5.0000000000000e+00  5.0000000000000e-01  1.0000000000000e+00
     332  5.0000000000000e+00  1.0000000000000e+00  1.0000000000000e+00
     333  5.0000000000000e+00  1.5000000000000e+00  1.0000000000000e+00
     334  5.0000000000000e+00  2.0000000000000e+00  1.0000000000000e+00
     335  5.0000000000000e+00  2.5000000000000e+00  1.0000000000000e+00
     336  5.0000000000000e+00  3.0000000000000e+00  1.0000000000000e+00
     337  5.0000000000000e+00  3.5000000000000e+00  1.0000000000000e+00
     338  5.0000000000000e+00  4.0000000000000e+00  1.0000000000000e+00
     339  5.0000000000000e+00  4.5000000000000e+00  1.0000000000000e+00
     340  4.0000000000000e+00  4.0000000000000e+00  1.0000000000000e+00
     341  4.6666666666670e+00  4.6666666666670e+00  1.0000000000000e+00
     342  4.3333333333330e+00  4.3333333333330e+00  1.0000000000000e+00
     343  4.0000000000000e+00  3.7000000000000e+00  1.0000000000000e+00
     344  4.0000000000000e+00  3.4000000000000e+00  1.0000000000000e+00
     345  4.0000000000000e+00  3.1000000000000e+00  1.0000000000000e+00
     346  4.0000000000000e+00  2.8000000000000e+00  1.0000000000000e+00
     347  4.0000000000000e+00  2.5000000000000e+00  1.0000000000000e+00
     348  4.0000000000000e+00  2.2000000000000e+00  1.0000000000000e+00
     349  4.0000000000000e+00  1.9000000000000e+00  1.0000000000000e+00
     350  4.0000000000000e+00  1.6000000000000e+00  1.0000000000000e+00
     351  4.0000000000000e+00  1.3000000000000e+00  1.0000000000000e+00
     352  4.6666666666670e+00  7.6666666666670e-01  1.0000000000000e+00
     353  4.3333333333330e+00  1.0333333333330e+00  1.0000000000000e+00
     354  4.6666666666670e+00  1.2000000000000e+00  1.0000000000000e+00
     355  4.3333333333330e+00  1.4000000000000e+00  1.0000000000000e+00
     356  4.6666666666670e+00  1.6333333333330e+00  1.0000000000000e+00
     357  4.3333333333330e+00  1.7666666666670e+00  1.0000000000000e+00
     358  4.6666666666670e+00  2.0666666666670e+00  1.0000000000000e+00
     359  4.3333333333330e+00  2.1333333333330e+00  1.0000000000000e+00
     360  4.6666666666670e+00  2.5000000000000e+00  1.0000000000000e+00
     361  4.3333333333330e+00  2.5000000000000e+00  1.0000000000000e+00
     362  4.6666666666670e+00  2.9333333333330e+00  1.0000000000000e+00
     363  4.3333333333330e+00  2.8666666666670e+00  1.0000000000000e+00
     364  4.6666666666670e+00  3.3666666666670e+00  1.0000000000000e+00
     365  4.3333333333330e+00  3.2333333333330e+00  1.0000000000000e+00
     366  4.6666666666670e+00  3.8000000000000e+00  1.0000000000000e+00
     367  4.3333333333330e+00  3.6000000000000e+00  1.0000000000000e+00
     368  4.6666666666670e+00  4.2333333333330e+00  1.0000000000000e+00
     369  4.3333333333330e+00  3.9666666666670e+00  1.0000000000000e+00
     370  4.0000000000000e+00  4.0000000000000e+00  5.0000000000000e-01
     371  5.0000000000000e+00  5.0000000000000e+00  5.0000000000000e-01
     372  5.0000000000000e+00  5.0000000000000e-01  5.0000000000000e-01
     373  5.0000000000000e+00  1.0000000000000e+00  5.0000000000000e-01
     374  5.0000000000000e+00  1.5000000000000e+00  5.0000000000000e-01
     375  5.0000000000000e+00  2.0000000000000e+00  5.0000000000000e-01
     376  5.0000000000000e+00  2.5000000000000e+00  5.0000000000000e-01
     377  5.0000000000000e+00  3.0000000000000e+00  5.0000000000000e-01
     378  5.0000000000000e+00  3.5000000000000e+00  5.0000000000000e-01
     379  5.0000000000000e+00  4.0000000000000e+00  5.0000000000000e-01
     380  5.0000000000000e+00  4.5000000000000e+00  5.0000000000000e-01
     381  4.6666666666670e+00  4.6666666666670e+00  5.0000000000000e-01
     382  4.3333333333330e+00  4.3333333333330e+00  5.0000000000000e-01
     383  4.0000000000000e+00  3.7000000000000e+00  5.0000000000000e-01
     384  4.0000000000000e+00  3.4000000000000e+00  5.0000000000000e-01
     385  4.0000000000000e+00  3.1000000000000e+00  5.0000000000000e-01
     386  4.0000000000000e+00  2.8000000000000e+00  5.0000000000000e-01
     387  4.0000000000000e+00  2.5000000000000e+00  5.0000000000000e-01
     388  4.0000000000000e+00  2.2000000000000e+00  5.0000000000000e-01
     389  4.0000000000000e+00  1.9000000000000e+00  5.0000000000000e-01
     390  4.0000000000000e+00  1.6000000000000e+00  5.0000000000000e-01
     391  4.0000000000000e+00  1.3000000000000e+00  5.0000000000000e-01
     392  4.6666666666670e+00  7.6666666666670e-01  5.0000000000000e-01
     393  4.3333333333330e+00  1.0333333333330e+00  5.0000000000000e-01
     394  4.6666666666670e+00  1.2000000000000e+00  5.0000000000000e-01
     395  4.3333333333330e+00  1.4000000000000e+00  5.0000000000000e-01
     396  4.6666666666670e+00  1.6333333333330e+00  5.0000000000000e-01
     397  4.3333333333330e+00  1.7666666666670e+00  5.0000000000000e-01
     398  4.6666666666670e+00  2.0666666666670e+00  5.0000000000000e-01
     399  4.3333333333330e+00  2.1333333333330e+00  5.0000000000000e-01
     400  4.6666666666670e+00  2.5000000000000e+00  5.0000000000000e-01
     401  4.3333333333330e+00  2.5000000000000e+00  5.0000000000000e-01
     402  4.6666666666670e+00  2.9333333333330e+00  5.0000000000000e-01
     403  4.3333333333330e+00  2.8666666666670e+00  5.0000000000000e-01
     404  4.6666666666670e+00  3.3666666666670e+00  5.0000000000000e-01
     405  4.3333333333330e+00  3.2333333333330e+00  5.0000000000000e-01
     406  4.6666666666670e+00  3.8000000000000e+00  5.0000000000000e-01
     407  4.3333333333330e+00  3.6000000000000e+00  5.0000000000000e-01
     408  4.6666666666670e+00  4.2333333333330e+00  5.0000000000000e-01
     409  4.3333333333330e+00  3.9666666666670e+00  5.0000000000000e-01
     410  0.0000000000000e+00  5.0000000000000e+00  1.0000000000000e+00
     411  4.5000000000000e+00  5.0000000000000e+00  1.0000000000000e+00
     412  4.0000000000000e+00  5.0000000000000e+00  1.0000000000000e+00
     413  3.5000000000000e+00  5.0000000000000e+00  1.0000000000000e+00
     414  3.0000000000000e+00  5.0000000000000e+00  1.0000000000000e+00
     415  2.5000000000000e+00  5.0000000000000e+00  1.0000000000000e+00
     416  2.0000000000000e+00  5.0000000000000e+00  1.0000000000000e+00
     417  1.5000000000000e+00  5.0000000000000e+00  1.0000000000000e+00
     418  1.0000000000000e+00  5.0000000000000e+00  1.0000000000000e+00
     419  5.0000000000000e-01  5.0000000000000e+00  1.0000000000000e+00
     420  1.0000000000000e+00  4.0000000000000e+00  1.0000000000000e+00
     421  3.3333333333330e-01  4.6666666666670e+00  1.0000000000000e+00
     422  6.6666666666670e-01  4.3333333333330e+00  1.0000000000000e+00
     423  1.3000000000000e+00  4.0000000000000e+00  1.0000000000000e+00
     424  1.6000000000000e+00  4.0000000000000e+00  1.0000000000000e+00
     425  1.9000000000000e+00  4.0000000000000e+00  1.0000000000000e+00
     426  2.2000000000000e+00  4.0000000000000e+00  1.0000000000000e+00
     427  2.5000000000000e+00  4.0000000000000e+00  1.0000000000000e+00
     428  2.8000000000000e+00  4.0000000000000e+00  1.0000000000000e+00
     429  3.1000000000000e+00  4.0000000000000e+00  1.0000000000000e+00
     430  3.4000000000000e+00  4.0000000000000e+00  1.0000000000000e+00
     431  3.7000000000000e+00  4.0000000000000e+00  1.0000000000000e+00
     432  3.9666666666670e+00  4.3333333333330e+00  1.0000000000000e+00
     433  3.6000000000000e+00  4.3333333333330e+00  1.0000000000000e+00
     434  3.2333333333330e+00  4.3333333333330e+00  1.0000000000000e+00
     435  2.8666666666670e+00  4.3333333333330e+00  1.0000000000000e+00
     436  2.5000000000000e+00  4.3333333333330e+00  1.0000000000000e+00
     437  2.1333333333330e+00  4.3333333333330e+00  1.0000000000000e+00
     438  1.7666666666670e+00  4.3333333333330e+00  1.0000000000000e+00
     439  1.4000000000000e+00  4.3333333333330e+00  1.0000000000000e+00
     440  1.0333333333330e+00  4.3333333333330e+00  1.0000000000000e+00
     441  4.2333333333330e+00  4.6666666666670e+00  1.0000000000000e+00
     442  3.8000000000000e+00  4.6666666666670e+00  1.0000000000000e+00
     443  3.3666666666670e+00  4.6666666666670e+00  1.0000000000000e+00
     444  2.9333333333330e+00  4.6666666666670e+00  1.0000000000000e+00
     445  2.5000000000000e+00  4.6666666666670e+00  1.0000000000000e+00
     446  2.0666666666670e+00  4.6666666666670e+00  1.0000000000000e+00
     447  1.6333333333330e+00  4.6666666666670e+00  1.0000000000000e+00
     448  1.2000000000000e+00  4.6666666666670e+00  1.0000000000000e+00
     449  7.6666666666670e-01  4.6666666666670e+00  1.0000000000000e+00
     450  1.0000000000000e+00  4.0000000000000e+00  5.0000000000000e-01
     451  0.0000000000000e+00  5.0000000000000e+00  5.0000000000000e-01
     452  4.5000000000000e+00  5.0000000000000e+00  5.0000000000000e-01
     453  4.0000000000000e+00  5.0000000000000e+00  5.0000000000000e-01
     454  3.5000000000000e+00  5.0000000000000e+00  5.0000000000000e-01
     455  3.0000000000000e+00  5.0000000000000e+00  5.0000000000000e-01
     456  2.5000000000000e+00  5.0000000000000e+00  5.0000000000000e-01
     457  2.0000000000000e+00  5.0000000000000e+00  5.0000000000000e-01
     458  1.5000000000000e+00  5.0000000000000e+00  5.0000000000000e-01
     459  1.0000000000000e+00  5.0000000000000e+00  5.0000000000000e-01
     460  5.0000000000000e-01  5.0000000000000e+00  5.0000000000000e-01
     461  3.3333333333330e-01  4.6666666666670e+00  5.0000000000000e-01
     462  6.6666666666670e-01  4.3333333333330e+00  5.0000000000000e-01
     463  1.3000000000000e+00  4.0000000000000e+00  5.0000000000000e-01
     464  1.6000000000000e+00  4.0000000000000e+00  5.0000000000000e-01
     465  1.9000000000000e+00  4.0000000000000e+00  5.0000000000000e-01
     466  2.2000000000000e+00  4.0000000000000e+00  5.0000000000000e-01
     467  2.5000000000000e+00  4.0000000000000e+00  5.0000000000000e-01
     468  2.8000000000000e+00  4.0000000000000e+00  5.0000000000000e-01
     469  3.1000000000000e+00  4.0000000000000e+00  5.0000000000000e-01
     470  3.4000000000000e+00  4.0000000000000e+00  5.0000000000000e-01
     471  3.7000000000000e+00  4.0000000000000e+00  5.0000000000000e-01
     472  3.9666666666670e+00  4.3333333333330e+00  5.0000000000000e-01
     473  3.6000000000000e+00  4.3333333333330e+00  5.0000000000000e-01
     474  3.2333333333330e+00  4.3333333333330e+00  5.0000000000000e-01
     475  2.8666666666670e+00  4.3333333333330e+00  5.0000000000000e-01
     476  2.5000000000000e+00  4.3333333333330e+00  5.0000000000000e-01
     477  2.1333333333330e+00  4.3333333333330e+00  5.0000000000000e-01
     478  1.7666666666670e+00  4.3333333333330e+00  5.0000000000000e-01
     479  1.4000000000000e+00  4.3333333333330e+00  5.0000000000000e-01
     480  1.0333333333330e+00  4.3333333333330e+00  5.0000000000000e-01
     481  4.2333333333330e+00  4.6666666666670e+00  5.0000000000000e-01
     482  3.8000000000000e+00  4.6666666666670e+00  5.0000000000000e-01
     483  3.3666666666670e+00  4.6666666666670e+00  5.0000000000000e-01
     484  2.9333333333330e+00  4.6666666666670e+00  5.0000000000000e-01
     485  2.5000000000000e+00  4.6666666666670e+00  5.0000000000000e-01
     486  2.0666666666670e+00  4.6666666666670e+00  5.0000000000000e-01
     487  1.6333333333330e+00  4.6666666666670e+00  5.0000000000000e-01
     488  1.2000000000000e+00  4.6666666666670e+00  5.0000000000000e-01
     489  7.6666666666670e-01  4.6666666666670e+00  5.0000000000000e-01
     490  1.0000000000000e+00  1.3000000000000e+00  1.0000000000000e+00
     491  1.0000000000000e+00  1.6000000000000e+00  1.0000000000000e+00
     492  1.0000000000000e+00  1.9000000000000e+00  1.0000000000000e+00
     493  1.0000000000000e+00  2.2000000000000e+00  1.0000000000000e+00
     494  1.0000000000000e+00  2.5000000000000e+00  1.0000000000000e+00
     495  1.0000000000000e+00  2.8000000000000e+00  1.0000000000000e+00
     496  1.0000000000000e+00  3.1000000000000e+00  1.0000000000000e+00
     497  1.0000000000000e+00  3.4000000000000e+00  1.0000000000000e+00
     498  1.0000000000000e+00  3.7000000000000e+00  1.0000000000000e+00
     499  0.0000000000000e+00  4.5000000000000e+00  1.0000000000000e+00
     500  0.0000000000000e+00  4.0000000000000e+00  1.0000000000000e+00
     501  0.0000000000000e+00  3.5000000000000e+00  1.0000000000000e+00
     502  0.0000000000000e+00  3.0000000000000e+00  1.0000000000000e+00
     503  0.0000000000000e+00  2.5000000000000e+00  1.0000000000000e+00
     504  0.0000000000000e+00  2.0000000000000e+00  1.0000000000000e+00
     505  0.0000000000000e+00  1.5000000000000e+00  1.0000000000000e+00
     506  0.0000000000000e+00  1.0000000000000e+00  1.0000000000000e+00
     507  0.0000000000000e+00  5.0000000000000e-01  1.0000000000000e+00
     508  3.3333333333330e-01  7.6666666666670e-01  1.0000000000000e+00
     509  3.3333333333330e-01  1.2000000000000e+00  1.0000000000000e+00
     510  3.3333333333330e-01  1.6333333333330e+00  1.0000000000000e+00
     511  3.3333333333330e-01  2.0666666666670e+00  1.0000000000000e+00
     512  3.3333333333330e-01  2.5000000000000e+00  1.0000000000000e+00
     513  3.3333333333330e-01  2.9333333333330e+00  1.0000000000000e+00
     514  3.3333333333330e-01  3.3666666666670e+00  1.0000000000000e+00
     515  3.3333333333330e-01  3.8000000000000e+00  1.0000000000000e+00
     516  3.3333333333330e-01  4.2333333333330e+00  1.0000000000000e+00
     517  6.6666666666670e-01  1.0333333333330e+00  1.0000000000000e+00
     518  6.6666666666670e-01  1.4000000000000e+00  1.0000000000000e+00
     519  6.6666666666670e-01  1.7666666666670e+00  1.0000000000000e+00
     520  6.6666666666670e-01  2.1333333333330e+00  1.0000000000000e+00
     521  6.6666666666670e-01  2.5000000000000e+00  1.0000000000000e+00
     522  6.6666666666670e-01  2.8666666666670e+00  1.0000000000000e+00
     523  6.6666666666670e-01  3.2333333333330e+00  1.0000000000000e+00
     524  6.6666666666670e-01  3.6000000000000e+00  1.0000000000000e+00
     525  6.6666666666670e-01  3.9666666666670e+00  1.0000000000000e+00
     526  1.0000000000000e+00  1.3000000000000e+00  5.0000000000000e-01
     527  1.0000000000000e+00  1.6000000000000e+00  5.0000000000000e-01
     528  1.0000000000000e+00  1.9000000000000e+00  5.0000000000000e-01
     529  1.0000000000000e+00  2.2000000000000e+00  5.0000000000000e-01
     530  1.0000000000000e+00  2.5000000000000e+00  5.0000000000000e-01
     531  1.0000000000000e+00  2.8000000000000e+00  5.0000000000000e-01
     532  1.0000000000000e+00  3.1000000000000e+00  5.0000000000000e-01
     533  1.0000000000000e+00  3.4000000000000e+00  5.0000000000000e-01
     534  1.0000000000000e+00  3.7000000000000e+00  5.0000000000000e-01
     535  0.0000000000000e+00  4.5000000000000e+00  5.0000000000000e-01
     536  0.0000000000000e+00  4.0000000000000e+00  5.0000000000000e-01
     537  0.0000000000000e+00  3.5000000000000e+00  5.0000000000000e-01
     538  0.0000000000000e+00  3.0000000000000e+00  5.0000000000000e-01
     539  0.0000000000000e+00  2.5000000000000e+00  5.0000000000000e-01
     540  0.0000000000000e+00  2.0000000000000e+00  5.0000000000000e-01
     541  0.0000000000000e+00  1.5000000000000e+00  5.0000000000000e-01
     542  0.0000000000000e+00  1.0000000000000e+00  5.0000000000000e-01
     543  0.0000000000000e+00  5.0000000000000e-01  5.0000000000000e-01
     544  3.3333333333330e-01  7.6666666666670e-01  5.0000000000000e-01
     545  3.3333333333330e-01  1.2000000000000e+00  5.0000000000000e-01
     546  3.3333333333330e-01  1.6333333333330e+00  5.0000000000000e-01
     547  3.3333333333330e-01  2.0666666666670e+00  5.0000000000000e-01
     548  3.3333333333330e-01  2.5000000000000e+00  5.0000000000000e-01
     549  3.3333333333330e-01  2.9333333333330e+00  5.0000000000000e-01
     550  3.3333333333330e-01  3.3666666666670e+00  5.0000000000000e-01
     551  3.3333333333330e-01  3.8000000000000e+00  5.0000000000000e-01
     552  3.3333333333330e-01  4.2333333333330e+00  5.0000000000000e-01
     553  6.6666666666670e-01  1.0333333333330e+00  5.0000000000000e-01
     554  6.6666666666670e-01  1.4000000000000e+00  5.0000000000000e-01
     555  6.6666666666670e-01  1.7666666666670e+00  5.0000000000000e-01
     556  6.6666666666670e-01  2.1333333333330e+00  5.0000000000000e-01
     557  6.6666666666670e-01  2.5000000000000e+00  5.0000000000000e-01
     558  6.6666666666670e-01  2.8666666666670e+00  5.0000000000000e-01
     559  6.6666666666670e-01  3.2333333333330e+00  5.0000000000000e-01
     560  6.6666666666670e-01  3.6000000000000e+00  5.0000000000000e-01
     561  6.6666666666670e-01  3.9666666666670e+00  5.0000000000000e-01
     562  1.3000000000000e+00  1.3000000000000e+00  1.0000000000000e+00
     563  1.3000000000000e+00  1.6000000000000e+00  1.0000000000000e+00
     564  1.3000000000000e+00  1.9000000000000e+00  1.0000000000000e+00
     565  1.3000000000000e+00  2.2000000000000e+00  1.0000000000000e+00
     566  1.3000000000000e+00  2.5000000000000e+00  1.0000000000000e+00
     567  1.3000000000000e+00  2.8000000000000e+00  1.0000000000000e+00
     568  1.3000000000000e+00  3.1000000000000e+00  1.0000000000000e+00
     569  1.3000000000000e+00  3.4000000000000e+00  1.0000000000000e+00
     570  1.3000000000000e+00  3.7000000000000e+00  1.0000000000000e+00
     571  1.6000000000000e+00  1.3000000000000e+00  1.0000000000000e+00
     572  1.6000000000000e+00  1.6000000000000e+00  1.0000000000000e+00
     573  1.6000000000000e+00  1.9000000000000e+00  1.0000000000000e+00
     574  1.6000000000000e+00  2.2000000000000e+00  1.0000000000000e+00
     575  1.6000000000000e+00  2.5000000000000e+00  1.0000000000000e+00
     576  1.6000000000000e+00  2.8000000000000e+00  1.0000000000000e+00
     577  1.6000000000000e+00  3.1000000000000e+00  1.0000000000000e+00
     578  1.6000000000000e+00  3.4000000000000e+00  1.0000000000000e+00
     579  1.6000000000000e+00  3.7000000000000e+00  1.0000000000000e+00
     580  1.9000000000000e+00  1.3000000000000e+00  1.0000000000000e+00
     581  1.9000000000000e+00  1.6000000000000e+00  1.0000000000000e+00
     582  1.9000000000000e+00  1.9000000000000e+00  1.0000000000000e+00
     583  1.9000000000000e+00  2.2000000000000e+00  1.0000000000000e+00
     584  1.9000000000000e+00  2.5000000000000e+00  1.0000000000000e+00
     585  1.9000000000000e+00  2.8000000000000e+00  1.0000000000000e+00
     586  1.9000000000000e+00  3.1000000000000e+00  1.0000000000000e+00
     587  1.9000000000000e+00  3.4000000000000e+00  1.0000000000000e+00
     588  1.9000000000000e+00  3.7000000000000e+00  1.0000000000000e+00
     589  2.2000000000000e+00  1.3000000000000e+00  1.0000000000000e+00
     590  2.2000000000000e+00  1.6000000000000e+00  1.0000000000000e+00
     591  2.2000000000000e+00  1.9000000000000e+00  1.0000000000000e+00
     592  2.2000000000000e+00  2.2000000000000e+00  1.0000000000000e+00
     593  2.2000000000000e+00  2.5000000000000e+00  1.0000000000000e+00
     594  2.2000000000000e+00  2.8000000000000e+00  1.0000000000000e+00
     595  2.2000000000000e+00  3.1000000000000e+00  1.0000000000000e+00
     596  2.2000000000000e+00  3.4000000000000e+00  1.0000000000000e+00
     597  2.2000000000000e+00  3.7000000000000e+00  1.0000000000000e+00
     598  2.5000000000000e+00  1.3000000000000e+00  1.0000000000000e+00
     599  2.5000000000000e+00  1.6000000000000e+00  1.0000000000000e+00
     600  2.5000000000000e+00  1.9000000000000e+00  1.0000000000000e+00
     601  2.5000000000000e+00  2.2000000000000e+00  1.0000000000000e+00
     602  2.5000000000000e+00  2.5000000000000e+00  1.0000000000000e+00
     603  2.5000000000000e+00  2.8000000000000e+00  1.0000000000000e+00
     604  2.5000000000000e+00  3.1000000000000e+00  1.0000000000000e+00
     605  2.5000000000000e+00  3.4000000000000e+00  1.0000000000000e+00
     606  2.5000000000000e+00  3.7000000000000e+00  1.0000000000000e+00
     607  2.8000000000000e+00  1.3000000000000e+00  1.0000000000000e+00
     608  2.8000000000000e+00  1.6000000000000e+00  1.0000000000000e+00
     609  2.8000000000000e+00  1.9000000000000e+00  1.0000000000000e+00
     610  2.8000000000000e+00  2.2000000000000e+00  1.0000000000000e+00
     611  2.8000000000000e+00  2.5000000000000e+00  1.0000000000000e+00
     612  2.8000000000000e+00  2.8000000000000e+00  1.0000000000000e+00
     613  2.8000000000000e+00  3.1000000000000e+00  1.0000000000000e+00
     614  2.8000000000000e+00  3.4000000000000e+00  1.0000000000000e+00
     615  2.8000000000000e+00  3.7000000000000e+00  1.0000000000000e+00
     616  3.1000000000000e+00  1.3000000000000e+00  1.0000000000000e+00
     617  3.1000000000000e+00  1.6000000000000e+00  1.0000000000000e+00
     618  3.1000000000000e+00  1.9000000000000e+00  1.0000000000000e+00
     619  3.1000000000000e+00  2.2000000000000e+00  1.0000000000000e+00
     620  3.1000000000000e+00  2.5000000000000e+00  1.0000000000000e+00
     621  3.1000000000000e+00  2.8000000000000e+00  1.0000000000000e+00
     622  3.1000000000000e+00  3.1000000000000e+00  1.0000000000000e+00
     623  3.1000000000000e+00  3.4000000000000e+00  1.0000000000000e+00
     624  3.1000000000000e+00  3.7000000000000e+00  1.0000000000000e+00
     625  3.4000000000000e+00  1.3000000000000e+00  1.0000000000000e+00
     626  3.4000000000000e+00  1.6000000000000e+00  1.0000000000000e+00
     627  3.4000000000000e+00  1.9000000000000e+00  1.0000000000000e+00
     628  3.4000000000000e+00  2.2000000000000e+00  1.0000000000000e+00
     629  3.4000000000000e+00  2.5000000000000e+00  1.0000000000000e+00
     630  3.4000000000000e+00  2.8000000000000e+00  1.0000000000000e+00
     631  3.4000000000000e+00  3.1000000000000e+00  1.0000000000000e+00
     632  3.4000000000000e+00  3.4000000000000e+00  1.0000000000000e+00
     633  3.4000000000000e+00  3.7000000000000e+00  1.0000000000000e+00
     634  3.7000000000000e+00  1.3000000000000e+00  1.0000000000000e+00
     635  3.7000000000000e+00  1.6000000000000e+00  1.0000000000000e+00
     636  3.7000000000000e+00  1.9000000000000e+00  1.0000000000000e+00
     637  3.7000000000000e+00  2.2000000000000e+00  1.0000000000000e+00
     638  3.7000000000000e+00  2.5000000000000e+00  1.0000000000000e+00
     639  3.7000000000000e+00  2.8000000000000e+00  1.0000000000000e+00
     640  3.7000000000000e+00  3.1000000000000e+00  1.0000000000000e+00
     641  3.7000000000000e+00  3.4000000000000e+00  1.0000000000000e+00
     642  3.7000000000000e+00  3.7000000000000e+00  1.0000000000000e+00
     643  1.3000000000000e+00  1.3000000000000e+00  5.0000000000000e-01
     644  1.3000000000000e+00  1.6000000000000e+00  5.0000000000000e-01
     645  1.3000000000000e+00  1.9000000000000e+00  5.0000000000000e-01
     646  1.3000000000000e+00  2.2000000000000e+00  5.0000000000000e-01
     647  1.3000000000000e+00  2.5000000000000e+00  5.0000000000000e-01
     648  1.3000000000000e+00  2.8000000000000e+00  5.0000000000000e-01
     649  1.3000000000000e+00  3.1000000000000e+00  5.0000000000000e-01
     650  1.3000000000000e+00  3.4000000000000e+00  5.0000000000000e-01
     651  1.3000000000000e+00  3.7000000000000e+00  5.0000000000000e-01
     652  1.6000000000000e+00  1.3000000000000e+00  5.0000000000000e-01
     653  1.6000000000000e+00  1.6000000000000e+00  5.0000000000000e-01
     654  1.6000000000000e+00  1.9000000000000e+00  5.0000000000000e-01
     655  1.6000000000000e+00  2.2000000000000e+00  5.0000000000000e-01
     656  1.6000000000000e+00  2.5000000000000e+00  5.0000000000000e-01
     657  1.6000000000000e+00  2.8000000000000e+00  5.0000000000000e-01
     658  1.6000000000000e+00  3.1000000000000e+00  5.0000000000000e-01
     659  1.6000000000000e+00  3.4000000000000e+00  5.0000000000000e-01
     660  1.6000000000000e+00  3.7000000000000e+00  5.0000000000000e-01
     661  1.9000000000000e+00  1.3000000000000e+00  5.0000000000000e-01
     662  1.9000000000000e+00  1.6000000000000e+00  5.0000000000000e-01
     663  1.9000000000000e+00  1.9000000000000e+00  5.0000000000000e-01
     664  1.9000000000000e+00  2.2000000000000e+00  5.0000000000000e-01
     665  1.9000000000000e+00  2.5000000000000e+00  5.0000000000000e-01
     666  1.9000000000000e+00  2.8000000000000e+00  5.0000000000000e-01
     667  1.9000000000000e+00  3.1000000000000e+00  5.0000000000000e-01
     668  1.9000000000000e+00  3.4000000000000e+00  5.0000000000000e-01
     669  1.9000000000000e+00  3.7000000000000e+00  5.0000000000000e-01
     670  2.2000000000000e+00  1.3000000000000e+00  5.0000000000000e-01
     671  2.2000000000000e+00  1.6000000000000e+00  5.0000000000000e-01
     672  2.2000000000000e+00  1.9000000000000e+00  5.0000000000000e-01
     673  2.2000000000000e+00  2.2000000000000e+00  5.0000000000000e-01
     674  2.2000000000000e+00  2.5000000000000e+00  5.0000000000000e-01
     675  2.2000000000000e+00  2.8000000000000e+00  5.0000000000000e-01
     676  2.2000000000000e+00  3.1000000000000e+00  5.0000000000000e-01
     677  2.2000000000000e+00  3.4000000000000e+00  5.0000000000000e-01
     678  2.2000000000000e+00  3.7000000000000e+00  5.0000000000000e-01
     679  2.5000000000000e+00  1.3000000000000e+00  5.0000000000000e-01
     680  2.5000000000000e+00  1.6000000000000e+00  5.0000000000000e-01
     681  2.5000000000000e+00  1.9000000000000e+00  5.0000000000000e-01
     682  2.5000000000000e+00  2.2000000000000e+00  5.0000000000000e-01
     683  2.5000000000000e+00  2.5000000000000e+00  5.0000000000000e-01
     684  2.5000000000000e+00  2.8000000000000e+00  5.0000000000000e-01
     685  2.5000000000000e+00  3.1000000000000e+00  5.0000000000000e-01
     686  2.5000000000000e+00  3.4000000000000e+00  5.0000000000000e-01
     687  2.5000000000000e+00  3.7000000000000e+00  5.0000000000000e-01
     688  2.8000000000000e+00  1.3000000000000e+00  5.0000000000000e-01
     689  2.8000000000000e+00  1.6000000000000e+00  5.0000000000000e-01
     690  2.8000000000000e+00  1.9000000000000e+00  5.0000000000000e-01
     691  2.8000000000000e+00  2.2000000000000e+00  5.0000000000000e-01
     692  2.8000000000000e+00  2.5000000000000e+00  5.0000000000000e-01
     693  2.8000000000000e+00  2.8000000000000e+00  5.0000000000000e-01
     694  2.8000000000000e+00  3.1000000000000e+00  5.0000000000000e-01
     695  2.8000000000000e+00  3.4000000000000e+00  5.0000000000000e-01
     696  2.8000000000000e+00  3.7000000000000e+00  5.0000000000000e-01
     697  3.1000000000000e+00  1.3000000000000e+00  5.0000000000000e-01
     698  3.1000000000000e+00  1.6000000000000e+00  5.0000000000000e-01
     699  3.1000000000000e+00  1.9000000000000e+00  5.0000000000000e-01
     700  3.1000000000000e+00  2.2000000000000e+00  5.0000000000000e-01
     701  3.1000000000000e+00  2.5000000000000e+00  5.0000000000000e-01
     702  3.1000000000000e+00  2.8000000000000e+00  5.0000000000000e-01
     703  3.1000000000000e+00  3.1000000000000e+00  5.0000000000000e-01
     704  3.1000000000000e+00  3.4000000000000e+00  5.0000000000000e-01
     705  3.1000000000000e+00  3.7000000000000e+00  5.0000000000000e-01
     706  3.4000000000000e+00  1.3000000000000e+00  5.0000000000000e-01
     707  3.4000000000000e+00  1.6000000000000e+00  5.0000000000000e-01
     708  3.4000000000000e+00  1.9000000000000e+00  5.0000000000000e-01
     709  3.4000000000000e+00  2.2000000000000e+00  5.0000000000000e-01
     710  3.4000000000000e+00  2.5000000000000e+00  5.0000000000000e-01
     711  3.4000000000000e+00  2.8000000000000e+00  5.0000000000000e-01
     712  3.4000000000000e+00  3.1000000000000e+00  5.0000000000000e-01
     713  3.4000000000000e+00  3.4000000000000e+00  5.0000000000000e-01
     714  3.4000000000000e+00  3.7000000000000e+00  5.0000000000000e-01
     715  3.7000000000000e+00  1.3000000000000e+00  5.0000000000000e-01
     716  3.7000000000000e+00  1.6000000000000e+00  5.0000000000000e-01
     717  3.7000000000000e+00  1.9000000000000e+00  5.0000000000000e-01
     718  3.7000000000000e+00  2.2000000000000e+00  5.0000000000000e-01
     719  3.7000000000000e+00  2.5000000000000e+00  5.0000000000000e-01
     720  3.7000000000000e+00  2.8000000000000e+00  5.0000000000000e-01
     721  3.7000000000000e+00  3.1000000000000e+00  5.0000000000000e-01
     722  3.7000000000000e+00  3.4000000000000e+00  5.0000000000000e-01
     723  3.7000000000000e+00  3.7000000000000e+00  5.0000000000000e-01

[3D Elements]
#ElemNr  ElemType  NrOfNodes  Level
#Node1 Node2 ... NodeNrOfNodes
221 10 8 coreX1
1 3 27 26 286 290 312 311
222 10 8 coreX1
286 290 312 311 242 244 268 267
223 10 8 coreX1
3 4 29 27 290 291 314 312
224 10 8 coreX1
290 291 314 312 244 245 270 268
225 10 8 coreX1
4 5 31 29 291 292 316 314
226 10 8 coreX1
291 292 316 314 245 246 272 270
227 10 8 coreX1
5 6 33 31 292 293 318 316
228 10 8 coreX1
292 293 318 316 246 247 274 272
229 10 8 coreX1
6 7 35 33 293 294 320 318
230 10 8 coreX1
293 294 320 318 247 248 276 274
231 10 8 coreX1
7 8 37 35 294 295 322 320
232 10 8 coreX1
294 295 322 320 248 249 278 276
233 10 8 coreX1
8 9 39 37 295 296 324 322
234 10 8 coreX1
295 296 324 322 249 250 280 278
235 10 8 coreX1
9 10 41 39 296 297 326 324
236 10 8 coreX1
296 297 326 324 250 251 282 280
237 10 8 coreX1
10 11 43 41 297 298 328 326
238 10 8 coreX1
297 298 328 326 251 252 284 282
239 10 8 coreX1
11 2 13 43 298 287 299 328
240 10 8 coreX1
298 287 299 328 252 243 254 284
241 10 8 coreX1
26 27 28 25 311 312 313 310
242 10 8 coreX1
311 312 313 310 267 268 269 266
243 10 8 coreX1
27 29 30 28 312 314 315 313
244 10 8 coreX1
312 314 315 313 268 270 271 269
245 10 8 coreX1
29 31 32 30 314 316 317 315
246 10 8 coreX1
314 316 317 315 270 272 273 271
247 10 8 coreX1
31 33 34 32 316 318 319 317
248 10 8 coreX1
316 318 319 317 272 274 275 273
249 10 8 coreX1
33 35 36 34 318 320 321 319
250 10 8 coreX1
318 320 321 319 274 276 277 275
251 10 8 coreX1
35 37 38 36 320 322 323 321
252 10 8 coreX1
320 322 323 321 276 278 279 277
253 10 8 coreX1
37 39 40 38 322 324 325 323
254 10 8 coreX1
322 324 325 323 278 280 281 279
255 10 8 coreX1
39 41 42 40 324 326 327 325
256 10 8 coreX1
324 326 327 325 280 282 283 281
257 10 8 coreX1
41 43 44 42 326 328 329 327
258 10 8 coreX1
326 328 329 327 282 284 285 283
259 10 8 coreX1
43 13 14 44 328 299 300 329
260 10 8 coreX1
328 299 300 329 284 254 255 285
261 10 8 coreX1
25 28 24 15 310 313 309 288
262 10 8 coreX1
310 313 309 288 266 269 265 256
263 10 8 coreX1
28 30 23 24 313 315 308 309
264 10 8 coreX1
313 315 308 309 269 271 264 265
265 10 8 coreX1
30 32 22 23 315 317 307 308
266 10 8 coreX1
315 317 307 308 271 273 263 264
267 10 8 coreX1
32 34 21 22 317 319 306 307
268 10 8 coreX1
317 319 306 307 273 275 262 263
269 10 8 coreX1
34 36 20 21 319 321 305 306
270 10 8 coreX1
319 321 305 306 275 277 261 262
271 10 8 coreX1
36 38 19 20 321 323 304 305
272 10 8 coreX1
321 323 304 305 277 279 260 261
273 10 8 coreX1
38 40 18 19 323 325 303 304
274 10 8 coreX1
323 325 303 304 279 281 259 260
275 10 8 coreX1
40 42 17 18 325 327 302 303
276 10 8 coreX1
325 327 302 303 281 283 258 259
277 10 8 coreX1
42 44 16 17 327 329 301 302
278 10 8 coreX1
327 329 301 302 283 285 257 258
279 10 8 coreX1
44 14 12 16 329 300 289 301
280 10 8 coreX1
329 300 289 301 285 255 253 257
341 10 8 coreX2
55 57 107 106 370 382 472 471
342 10 8 coreX2
370 382 472 471 340 342 432 431
343 10 8 coreX2
57 56 116 107 382 381 481 472
344 10 8 coreX2
382 381 481 472 342 341 441 432
345 10 8 coreX2
56 45 86 116 381 371 452 481
346 10 8 coreX2
381 371 452 481 341 330 411 441
347 10 8 coreX2
106 107 108 105 471 472 473 470
348 10 8 coreX2
471 472 473 470 431 432 433 430
349 10 8 coreX2
107 116 117 108 472 481 482 473
350 10 8 coreX2
472 481 482 473 432 441 442 433
351 10 8 coreX2
116 86 87 117 481 452 453 482
352 10 8 coreX2
481 452 453 482 441 411 412 442
353 10 8 coreX2
105 108 109 104 470 473 474 469
354 10 8 coreX2
470 473 474 469 430 433 434 429
355 10 8 coreX2
108 117 118 109 473 482 483 474
356 10 8 coreX2
473 482 483 474 433 442 443 434
357 10 8 coreX2
117 87 88 118 482 453 454 483
358 10 8 coreX2
482 453 454 483 442 412 413 443
359 10 8 coreX2
104 109 110 103 469 474 475 468
360 10 8 coreX2
469 474 475 468 429 434 435 428
361 10 8 coreX2
109 118 119 110 474 483 484 475
362 10 8 coreX2
474 483 484 475 434 443 444 435
363 10 8 coreX2
118 88 89 119 483 454 455 484
364 10 8 coreX2
483 454 455 484 443 413 414 444
365 10 8 coreX2
103 110 111 102 468 475 476 467
366 10 8 coreX2
468 475 476 467 428 435 436 427
367 10 8 coreX2
110 119 120 111 475 484 485 476
368 10 8 coreX2
475 484 485 476 435 444 445 436
369 10 8 coreX2
119 89 90 120 484 455 456 485
370 10 8 coreX2
484 455 456 485 444 414 415 445
371 10 8 coreX2
102 111 112 101 467 476 477 466
372 10 8 coreX2
467 476 477 466 427 436 437 426
373 10 8 coreX2
111 120 121 112 476 485 486 477
374 10 8 coreX2
476 485 486 477 436 445 446 437
375 10 8 coreX2
120 90 91 121 485 456 457 486
376 10 8 coreX2
485 456 457 486 445 415 416 446
377 10 8 coreX2
101 112 113 100 466 477 478 465
378 10 8 coreX2
466 477 478 465 426 437 438 425
379 10 8 coreX2
112 121 122 113 477 486 487 478
380 10 8 coreX2
477 486 487 478 437 446 447 438
381 10 8 coreX2
121 91 92 122 486 457 458 487
382 10 8 coreX2
486 457 458 487 446 416 417 447
383 10 8 coreX2
100 113 114 99 465 478 479 464
384 10 8 coreX2
465 478 479 464 425 438 439 424
385 10 8 coreX2
113 122 123 114 478 487 488 479
386 10 8 coreX2
478 487 488 479 438 447 448 439
387 10 8 coreX2
122 92 93 123 487 458 459 488
388 10 8 coreX2
487 458 459 488 447 417 418 448
389 10 8 coreX2
99 114 115 98 464 479 480 463
390 10 8 coreX2
464 479 480 463 424 439 440 423
391 10 8 coreX2
114 123 124 115 479 488 489 480
392 10 8 coreX2
479 488 489 480 439 448 449 440
393 10 8 coreX2
123 93 94 124 488 459 460 489
394 10 8 coreX2
488 459 460 489 448 418 419 449
395 10 8 coreX2
98 115 97 95 463 480 462 450
396 10 8 coreX2
463 480 462 450 423 440 422 420
397 10 8 coreX2
115 124 96 97 480 489 461 462
398 10 8 coreX2
480 489 461 462 440 449 421 422
399 10 8 coreX2
124 94 85 96 489 460 451 461
400 10 8 coreX2
489 460 451 461 449 419 410 421
401 10 8 coreY1
1 26 143 142 286 311 544 543
402 10 8 coreY1
286 311 544 543 242 267 508 507
403 10 8 coreY1
26 25 152 143 311 310 553 544
404 10 8 coreY1
311 310 553 544 267 266 517 508
405 10 8 coreY1
25 15 125 152 310 288 526 553
406 10 8 coreY1
310 288 526 553 266 256 490 517
407 10 8 coreY1
142 143 144 141 543 544 545 542
408 10 8 coreY1
543 544 545 542 507 508 509 506
409 10 8 coreY1
143 152 153 144 544 553 554 545
410 10 8 coreY1
544 553 554 545 508 517 518 509
411 10 8 coreY1
152 125 126 153 553 526 527 554
412 10 8 coreY1
553 526 527 554 517 490 491 518
413 10 8 coreY1
141 144 145 140 542 545 546 541
414 10 8 coreY1
542 545 546 541 506 509 510 505
415 10 8 coreY1
144 153 154 145 545 554 555 546
416 10 8 coreY1
545 554 555 546 509 518 519 510
417 10 8 coreY1
153 126 127 154 554 527 528 555
418 10 8 coreY1
554 527 528 555 518 491 492 519
419 10 8 coreY1
140 145 146 139 541 546 547 540
420 10 8 coreY1
541 546 547 540 505 510 511 504
421 10 8 coreY1
145 154 155 146 546 555 556 547
422 10 8 coreY1
546 555 556 547 510 519 520 511
423 10 8 coreY1
154 127 128 155 555 528 529 556
424 10 8 coreY1
555 528 529 556 519 492 493 520
425 10 8 coreY1
139 146 147 138 540 547 548 539
426 10 8 coreY1
540 547 548 539 504 511 512 503
427 10 8 coreY1
146 155 156 147 547 556 557 548
428 10 8 coreY1
547 556 557 548 511 520 521 512
429 10 8 coreY1
155 128 129 156 556 529 530 557
430 10 8 coreY1
556 529 530 557 520 493 494 521
431 10 8 coreY1
138 147 148 137 539 548 549 538
432 10 8 coreY1
539 548 549 538 503 512 513 502
433 10 8 coreY1
147 156 157 148 548 557 558 549
434 10 8 coreY1
548 557 558 549 512 521 522 513
435 10 8 coreY1
156 129 130 157 557 530 531 558
436 10 8 coreY1
557 530 531 558 521 494 495 522
437 10 8 coreY1
137 148 149 136 538 549 550 537
438 10 8 coreY1
538 549 550 537 502 513 514 501
439 10 8 coreY1
148 157 158 149 549 558 559 550
440 10 8 coreY1
549 558 559 550 513 522 523 514
441 10 8 coreY1
157 130 131 158 558 531 532 559
442 10 8 coreY1
558 531 532 559 522 495 496 523
443 10 8 coreY1
136 149 150 135 537 550 551 536
444 10 8 coreY1
537 550 551 536 501 514 515 500
445 10 8 coreY1
149 158 159 150 550 559 560 551
446 10 8 coreY1
550 559 560 551 514 523 524 515
447 10 8 coreY1
158 131 132 159 559 532 533 560
448 10 8 coreY1
559 532 533 560 523 496 497 524
449 10 8 coreY1
135 150 151 134 536 551 552 535
450 10 8 coreY1
536 551 552 535 500 515 516 499
451 10 8 coreY1
150 159 160 151 551 560 561 552
452 10 8 coreY1
551 560 561 552 515 524 525 516
453 10 8 coreY1
159 132 133 160 560 533 534 561
454 10 8 coreY1
560 533 534 561 524 497 498 525
455 10 8 coreY1
134 151 96 85 535 552 461 451
456 10 8 coreY1
535 552 461 451 499 516 421 410
457 10 8 coreY1
151 160 97 96 552 561 462 461
458 10 8 coreY1
552 561 462 461 516 525 422 421
459 10 8 coreY1
160 133 95 97 561 534 450 462
460 10 8 coreY1
561 534 450 462 525 498 420 422
281 10 8 coreY2
2 46 67 13 287 372 392 299
282 10 8 coreY2
287 372 392 299 243 331 352 254
283 10 8 coreY2
46 47 69 67 372 373 394 392
284 10 8 coreY2
372 373 394 392 331 332 354 352
285 10 8 coreY2
47 48 71 69 373 374 396 394
286 10 8 coreY2
373 374 396 394 332 333 356 354
287 10 8 coreY2
48 49 73 71 374 375 398 396
288 10 8 coreY2
374 375 398 396 333 334 358 356
289 10 8 coreY2
49 50 75 73 375 376 400 398
290 10 8 coreY2
375 376 400 398 334 335 360 358
291 10 8 coreY2
50 51 77 75 376 377 402 400
292 10 8 coreY2
376 377 402 400 335 336 362 360
293 10 8 coreY2
51 52 79 77 377 378 404 402
294 10 8 coreY2
377 378 404 402 336 337 364 362
295 10 8 coreY2
52 53 81 79 378 379 406 404
296 10 8 coreY2
378 379 406 404 337 338 366 364
297 10 8 coreY2
53 54 83 81 379 380 408 406
298 10 8 coreY2
379 380 408 406 338 339 368 366
299 10 8 coreY2
54 45 56 83 380 371 381 408
300 10 8 coreY2
380 371 381 408 339 330 341 368
301 10 8 coreY2
13 67 68 14 299 392 393 300
302 10 8 coreY2
299 392 393 300 254 352 353 255
303 10 8 coreY2
67 69 70 68 392 394 395 393
304 10 8 coreY2
392 394 395 393 352 354 355 353
305 10 8 coreY2
69 71 72 70 394 396 397 395
306 10 8 coreY2
394 396 397 395 354 356 357 355
307 10 8 coreY2
71 73 74 72 396 398 399 397
308 10 8 coreY2
396 398 399 397 356 358 359 357
309 10 8 coreY2
73 75 76 74 398 400 401 399
310 10 8 coreY2
398 400 401 399 358 360 361 359
311 10 8 coreY2
75 77 78 76 400 402 403 401
312 10 8 coreY2
400 402 403 401 360 362 363 361
313 10 8 coreY2
77 79 80 78 402 404 405 403
314 10 8 coreY2
402 404 405 403 362 364 365 363
315 10 8 coreY2
79 81 82 80 404 406 407 405
316 10 8 coreY2
404 406 407 405 364 366 367 365
317 10 8 coreY2
81 83 84 82 406 408 409 407
318 10 8 coreY2
406 408 409 407 366 368 369 367
319 10 8 coreY2
83 56 57 84 408 381 382 409
320 10 8 coreY2
408 381 382 409 368 341 342 369
321 10 8 coreY2
14 68 66 12 300 393 391 289
322 10 8 coreY2
300 393 391 289 255 353 351 253
323 10 8 coreY2
68 70 65 66 393 395 390 391
324 10 8 coreY2
393 395 390 391 353 355 350 351
325 10 8 coreY2
70 72 64 65 395 397 389 390
326 10 8 coreY2
395 397 389 390 355 357 349 350
327 10 8 coreY2
72 74 63 64 397 399 388 389
328 10 8 coreY2
397 399 388 389 357 359 348 349
329 10 8 coreY2
74 76 62 63 399 401 387 388
330 10 8 coreY2
399 401 387 388 359 361 347 348
331 10 8 coreY2
76 78 61 62 401 403 386 387
332 10 8 coreY2
401 403 386 387 361 363 346 347
333 10 8 coreY2
78 80 60 61 403 405 385 386
334 10 8 coreY2
403 405 385 386 363 365 345 346
335 10 8 coreY2
80 82 59 60 405 407 384 385
336 10 8 coreY2
405 407 384 385 365 367 344 345
337 10 8 coreY2
82 84 58 59 407 409 383 384
338 10 8 coreY2
407 409 383 384 367 369 343 344
339 10 8 coreY2
84 57 55 58 409 382 370 383
340 10 8 coreY2
409 382 370 383 369 342 340 343
461 10 8 coil
15 24 161 125 288 309 643 526
462 10 8 coil
288 309 643 526 256 265 562 490
463 10 8 coil
24 23 170 161 309 308 652 643
464 10 8 coil
309 308 652 643 265 264 571 562
465 10 8 coil
23 22 179 170 308 307 661 652
466 10 8 coil
308 307 661 652 264 263 580 571
467 10 8 coil
22 21 188 179 307 306 670 661
468 10 8 coil
307 306 670 661 263 262 589 580
469 10 8 coil
21 20 197 188 306 305 679 670
470 10 8 coil
306 305 679 670 262 261 598 589
471 10 8 coil
20 19 206 197 305 304 688 679
472 10 8 coil
305 304 688 679 261 260 607 598
473 10 8 coil
19 18 215 206 304 303 697 688
474 10 8 coil
304 303 697 688 260 259 616 607
475 10 8 coil
18 17 224 215 303 302 706 697
476 10 8 coil
303 302 706 697 259 258 625 616
477 10 8 coil
17 16 233 224 302 301 715 706
478 10 8 coil
302 301 715 706 258 257 634 625
479 10 8 coil
16 12 66 233 301 289 391 715
480 10 8 coil
301 289 391 715 257 253 351 634
481 10 8 coil
125 161 162 126 526 643 644 527
482 10 8 coil
526 643 644 527 490 562 563 491
483 10 8 coil
161 170 171 162 643 652 653 644
484 10 8 coil
643 652 653 644 562 571 572 563
485 10 8 coil
170 179 180 171 652 661 662 653
486 10 8 coil
652 661 662 653 571 580 581 572
487 10 8 coil
179 188 189 180 661 670 671 662
488 10 8 coil
661 670 671 662 580 589 590 581
489 10 8 coil
188 197 198 189 670 679 680 671
490 10 8 coil
670 679 680 671 589 598 599 590
491 10 8 coil
197 206 207 198 679 688 689 680
492 10 8 coil
679 688 689 680 598 607 608 599
493 10 8 coil
206 215 216 207 688 697 698 689
494 10 8 coil
688 697 698 689 607 616 617 608
495 10 8 coil
215 224 225 216 697 706 707 698
496 10 8 coil
697 706 707 698 616 625 626 617
497 10 8 coil
224 233 234 225 706 715 716 707
498 10 8 coil
706 715 716 707 625 634 635 626
499 10 8 coil
233 66 65 234 715 391 390 716
500 10 8 coil
715 391 390 716 634 351 350 635
501 10 8 coil
126 162 163 127 527 644 645 528
502 10 8 coil
527 644 645 528 491 563 564 492
503 10 8 coil
162 171 172 163 644 653 654 645
504 10 8 coil
644 653 654 645 563 572 573 564
505 10 8 coil
171 180 181 172 653 662 663 654
506 10 8 coil
653 662 663 654 572 581 582 573
507 10 8 coil
180 189 190 181 662 671 672 663
508 10 8 coil
662 671 672 663 581 590 591 582
509 10 8 coil
189 198 199 190 671 680 681 672
510 10 8 coil
671 680 681 672 590 599 600 591
511 10 8 coil
198 207 208 199 680 689 690 681
512 10 8 coil
680 689 690 681 599 608 609 600
513 10 8 coil
207 216 217 208 689 698 699 690
514 10 8 coil
689 698 699 690 608 617 618 609
515 10 8 coil
216 225 226 217 698 707 708 699
516 10 8 coil
698 707 708 699 617 626 627 618
517 10 8 coil
225 234 235 226 707 716 717 708
518 10 8 coil
707 716 717 708 626 635 636 627
519 10 8 coil
234 65 64 235 716 390 389 717
520 10 8 coil
716 390 389 717 635 350 349 636
521 10 8 coil
127 163 164 128 528 645 646 529
522 10 8 coil
528 645 646 529 492 564 565 493
523 10 8 coil
163 172 173 164 645 654 655 646
524 10 8 coil
645 654 655 646 564 573 574 565
525 10 8 coil
172 181 182 173 654 663 664 655
526 10 8 coil
654 663 664 655 573 582 583 574
527 10 8 coil
181 190 191 182 663 672 673 664
528 10 8 coil
663 672 673 664 582 591 592 583
529 10 8 coil
190 199 200 191 672 681 682 673
530 10 8 coil
672 681 682 673 591 600 601 592
531 10 8 coil
199 208 209 200 681 690 691 682
532 10 8 coil
681 690 691 682 600 609 610 601
533 10 8 coil
208 217 218 209 690 699 700 691
534 10 8 coil
690 699 700 691 609 618 619 610
535 10 8 coil
217 226 227 218 699 708 709 700
536 10 8 coil
699 708 709 700 618 627 628 619
537 10 8 coil
226 235 236 227 708 717 718 709
538 10 8 coil
708 717 718 709 627 636 637 628
539 10 8 coil
235 64 63 236 717 389 388 718
540 10 8 coil
717 389 388 718 636 349 348 637
541 10 8 coil
128 164 165 129 529 646 647 530
542 10 8 coil
529 646 647 530 493 565 566 494
543 10 8 coil
164 173 174 165 646 655 656 647
544 10 8 coil
646 655 656 647 565 574 575 566
545 10 8 coil
173 182 183 174 655 664 665 656
546 10 8 coil
655 664 665 656 574 583 584 575
547 10 8 coil
182 191 192 183 664 673 674 665
548 10 8 coil
664 673 674 665 583 592 593 584
549 10 8 coil
191 200 201 192 673 682 683 674
550 10 8 coil
673 682 683 674 592 601 602 593
551 10 8 coil
200 209 210 201 682 691 692 683
552 10 8 coil
682 691 692 683 601 610 611 602
553 10 8 coil
209 218 219 210 691 700 701 692
554 10 8 coil
691 700 701 692 610 619 620 611
555 10 8 coil
218 227 228 219 700 709 710 701
556 10 8 coil
700 709 710 701 619 628 629 620
557 10 8 coil
227 236 237 228 709 718 719 710
558 10 8 coil
709 718 719 710 628 637 638 629
559 10 8 coil
236 63 62 237 718 388 387 719
560 10 8 coil
718 388 387 719 637 348 347 638
561 10 8 coil
129 165 166 130 530 647 648 531
562 10 8 coil
530 647 648 531 494 566 567 495
563 10 8 coil
165 174 175 166 647 656 657 648
564 10 8 coil
647 656 657 648 566 575 576 567
565 10 8 coil
174 183 184 175 656 665 666 657
566 10 8 coil
656 665 666 657 575 584 585 576
567 10 8 coil
183 192 193 184 665 674 675 666
568 10 8 coil
665 674 675 666 584 593 594 585
569 10 8 coil
192 201 202 193 674 683 684 675
570 10 8 coil
674 683 684 675 593 602 603 594
571 10 8 coil
201 210 211 202 683 692 693 684
572 10 8 coil
683 692 693 684 602 611 612 603
573 10 8 coil
210 219 220 211 692 701 702 693
574 10 8 coil
692 701 702 693 611 620 621 612
575 10 8 coil
219 228 229 220 701 710 711 702
576 10 8 coil
701 710 711 702 620 629 630 621
577 10 8 coil
228 237 238 229 710 719 720 711
578 10 8 coil
710 719 720 711 629 638 639 630
579 10 8 coil
237 62 61 238 719 387 386 720
580 10 8 coil
719 387 386 720 638 347 346 639
581 10 8 coil
130 166 167 131 531 648 649 532
582 10 8 coil
531 648 649 532 495 567 568 496
583 10 8 coil
166 175 176 167 648 657 658 649
584 10 8 coil
648 657 658 649 567 576 577 568
585 10 8 coil
175 184 185 176 657 666 667 658
586 10 8 coil
657 666 667 658 576 585 586 577
587 10 8 coil
184 193 194 185 666 675 676 667
588 10 8 coil
666 675 676 667 585 594 595 586
589 10 8 coil
193 202 203 194 675 684 685 676
590 10 8 coil
675 684 685 676 594 603 604 595
591 10 8 coil
202 211 212 203 684 693 694 685
592 10 8 coil
684 693 694 685 603 612 613 604
593 10 8 coil
211 220 221 212 693 702 703 694
594 10 8 coil
693 702 703 694 612 621 622 613
595 10 8 coil
220 229 230 221 702 711 712 703
596 10 8 coil
702 711 712 703 621 630 631 622
597 10 8 coil
229 238 239 230 711 720 721 712
598 10 8 coil
711 720 721 712 630 639 640 631
599 10 8 coil
238 61 60 239 720 386 385 721
600 10 8 coil
720 386 385 721 639 346 345 640
601 10 8 coil
131 167 168 132 532 649 650 533
602 10 8 coil
532 649 650 533 496 568 569 497
603 10 8 coil
167 176 177 168 649 658 659 650
604 10 8 coil
649 658 659 650 568 577 578 569
605 10 8 coil
176 185 186 177 658 667 668 659
606 10 8 coil
658 667 668 659 577 586 587 578
607 10 8 coil
185 194 195 186 667 676 677 668
608 10 8 coil
667 676 677 668 586 595 596 587
609 10 8 coil
194 203 204 195 676 685 686 677
610 10 8 coil
676 685 686 677 595 604 605 596
611 10 8 coil
203 212 213 204 685 694 695 686
612 10 8 coil
685 694 695 686 604 613 614 605
613 10 8 coil
212 221 222 213 694 703 704 695
614 10 8 coil
694 703 704 695 613 622 623 614
615 10 8 coil
221 230 231 222 703 712 713 704
616 10 8 coil
703 712 713 704 622 631 632 623
617 10 8 coil
230 239 240 231 712 721 722 713
618 10 8 coil
712 721 722 713 631 640 641 632
619 10 8 coil
239 60 59 240 721 385 384 722
620 10 8 coil
721 385 384 722 640 345 344 641
621 10 8 coil
132 168 169 133 533 650 651 534
622 10 8 coil
533 650 651 534 497 569 570 498
623 10 8 coil
168 177 178 169 650 659 660 651
624 10 8 coil
650 659 660 651 569 578 579 570
625 10 8 coil
177 186 187 178 659 668 669 660
626 10 8 coil
659 668 669 660 578 587 588 579
627 10 8 coil
186 195 196 187 668 677 678 669
628 10 8 coil
668 677 678 669 587 596 597 588
629 10 8 coil
195 204 205 196 677 686 687 678
630 10 8 coil
677 686 687 678 596 605 606 597
631 10 8 coil
204 213 214 205 686 695 696 687
632 10 8 coil
686 695 696 687 605 614 615 606
633 10 8 coil
213 222 223 214 695 704 705 696
634 10 8 coil
695 704 705 696 614 623 624 615
635 10 8 coil
222 231 232 223 704 713 714 705
636 10 8 coil
704 713 714 705 623 632 633 624
637 10 8 coil
231 240 241 232 713 722 723 714
638 10 8 coil
713 722 723 714 632 641 642 633
639 10 8 coil
240 59 58 241 722 384 383 723
640 10 8 coil
722 384 383 723 641 344 343 642
641 10 8 coil
133 169 98 95 534 651 463 450
642 10 8 coil
534 651 463 450 498 570 423 420
643 10 8 coil
169 178 99 98 651 660 464 463
644 10 8 coil
651 660 464 463 570 579 424 423
645 10 8 coil
178 187 100 99 660 669 465 464
646 10 8 coil
660 669 465 464 579 588 425 424
647 10 8 coil
187 196 101 100 669 678 466 465
648 10 8 coil
669 678 466 465 588 597 426 425
649 10 8 coil
196 205 102 101 678 687 467 466
650 10 8 coil
678 687 467 466 597 606 427 426
651 10 8 coil
205 214 103 102 687 696 468 467
652 10 8 coil
687 696 468 467 606 615 428 427
653 10 8 coil
214 223 104 103 696 705 469 468
654 10 8 coil
696 705 469 468 615 624 429 428
655 10 8 coil
223 232 105 104 705 714 470 469
656 10 8 coil
705 714 470 469 624 633 430 429
657 10 8 coil
232 241 106 105 714 723 471 470
658 10 8 coil
714 723 471 470 633 642 431 430
659 10 8 coil
241 58 55 106 723 383 370 471
660 10 8 coil
723 383 370 471 642 343 340 431

[2D Elements]
#ElemNr  ElemType  NrOfNodes  Level
#Node1 Node2 ... NodeNrOfNodes
841 6 4 surfxInner
499 410 451 535
842 6 4 surfxInner
535 451 85 134
843 6 4 surfxInner
500 499 535 536
844 6 4 surfxInner
536 535 134 135
845 6 4 surfxInner
501 500 536 537
846 6 4 surfxInner
537 536 135 136
847 6 4 surfxInner
502 501 537 538
848 6 4 surfxInner
538 537 136 137
849 6 4 surfxInner
503 502 538 539
850 6 4 surfxInner
539 538 137 138
851 6 4 surfxInner
504 503 539 540
852 6 4 surfxInner
540 539 138 139
853 6 4 surfxInner
505 504 540 541
854 6 4 surfxInner
541 540 139 140
855 6 4 surfxInner
506 505 541 542
856 6 4 surfxInner
542 541 140 141
857 6 4 surfxInner
507 506 542 543
858 6 4 surfxInner
543 542 141 142
859 6 4 surfxInner
242 507 543 286
860 6 4 surfxInner
286 543 142 1
741 6 4 surfxOuter
371 330 339 380
742 6 4 surfxOuter
45 371 380 54
743 6 4 surfxOuter
380 339 338 379
744 6 4 surfxOuter
54 380 379 53
745 6 4 surfxOuter
379 338 337 378
746 6 4 surfxOuter
53 379 378 52
747 6 4 surfxOuter
378 337 336 377
748 6 4 surfxOuter
52 378 377 51
749 6 4 surfxOuter
377 336 335 376
750 6 4 surfxOuter
51 377 376 50
751 6 4 surfxOuter
376 335 334 375
752 6 4 surfxOuter
50 376 375 49
753 6 4 surfxOuter
375 334 333 374
754 6 4 surfxOuter
49 375 374 48
755 6 4 surfxOuter
374 333 332 373
756 6 4 surfxOuter
48 374 373 47
757 6 4 surfxOuter
373 332 331 372
758 6 4 surfxOuter
47 373 372 46
759 6 4 surfxOuter
372 331 243 287
760 6 4 surfxOuter
46 372 287 2
691 6 4 surfyInner
287 243 252 298
692 6 4 surfyInner
2 287 298 11
693 6 4 surfyInner
298 252 251 297
694 6 4 surfyInner
11 298 297 10
695 6 4 surfyInner
297 251 250 296
696 6 4 surfyInner
10 297 296 9
697 6 4 surfyInner
296 250 249 295
698 6 4 surfyInner
9 296 295 8
699 6 4 surfyInner
295 249 248 294
700 6 4 surfyInner
8 295 294 7
701 6 4 surfyInner
294 248 247 293
702 6 4 surfyInner
7 294 293 6
703 6 4 surfyInner
293 247 246 292
704 6 4 surfyInner
6 293 292 5
705 6 4 surfyInner
292 246 245 291
706 6 4 surfyInner
5 292 291 4
707 6 4 surfyInner
291 245 244 290
708 6 4 surfyInner
4 291 290 3
709 6 4 surfyInner
290 244 242 286
710 6 4 surfyInner
3 290 286 1
791 6 4 surfyOuter
451 410 419 460
792 6 4 surfyOuter
85 451 460 94
793 6 4 surfyOuter
460 419 418 459
794 6 4 surfyOuter
94 460 459 93
795 6 4 surfyOuter
459 418 417 458
796 6 4 surfyOuter
93 459 458 92
797 6 4 surfyOuter
458 417 416 457
798 6 4 surfyOuter
92 458 457 91
799 6 4 surfyOuter
457 416 415 456
800 6 4 surfyOuter
91 457 456 90
801 6 4 surfyOuter
456 415 414 455
802 6 4 surfyOuter
90 456 455 89
803 6 4 surfyOuter
455 414 413 454
804 6 4 surfyOuter
89 455 454 88
805 6 4 surfyOuter
454 413 412 453
806 6 4 surfyOuter
88 454 453 87
807 6 4 surfyOuter
453 412 411 452
808 6 4 surfyOuter
87 453 452 86
809 6 4 surfyOuter
452 411 330 371
810 6 4 surfyOuter
86 452 371 45
1 6 4 bottom
1 3 27 26
2 6 4 bottom
3 4 29 27
3 6 4 bottom
4 5 31 29
4 6 4 bottom
5 6 33 31
5 6 4 bottom
6 7 35 33
6 6 4 bottom
7 8 37 35
7 6 4 bottom
8 9 39 37
8 6 4 bottom
9 10 41 39
9 6 4 bottom
10 11 43 41
10 6 4 bottom
11 2 13 43
11 6 4 bottom
26 27 28 25
12 6 4 bottom
27 29 30 28
13 6 4 bottom
29 31 32 30
14 6 4 bottom
31 33 34 32
15 6 4 bottom
33 35 36 34
16 6 4 bottom
35 37 38 36
17 6 4 bottom
37 39 40 38
18 6 4 bottom
39 41 42 40
19 6 4 bottom
41 43 44 42
20 6 4 bottom
43 13 14 44
21 6 4 bottom
25 28 24 15
22 6 4 bottom
28 30 23 24
23 6 4 bottom
30 32 22 23
24 6 4 bottom
32 34 21 22
25 6 4 bottom
34 36 20 21
26 6 4 bottom
36 38 19 20
27 6 4 bottom
38 40 18 19
28 6 4 bottom
40 42 17 18
29 6 4 bottom
42 44 16 17
30 6 4 bottom
44 14 12 16
31 6 4 bottom
2 46 67 13
32 6 4 bottom
46 47 69 67
33 6 4 bottom
47 48 71 69
34 6 4 bottom
48 49 73 71
35 6 4 bottom
49 50 75 73
36 6 4 bottom
50 51 77 75
37 6 4 bottom
51 52 79 77
38 6 4 bottom
52 53 81 79
39 6 4 bottom
53 54 83 81
40 6 4 bottom
54 45 56 83
41 6 4 bottom
13 67 68 14
42 6 4 bottom
67 69 70 68
43 6 4 bottom
69 71 72 70
44 6 4 bottom
71 73 74 72
45 6 4 bottom
73 75 76 74
46 6 4 bottom
75 77 78 76
47 6 4 bottom
77 79 80 78
48 6 4 bottom
79 81 82 80
49 6 4 bottom
81 83 84 82
50 6 4 bottom
83 56 57 84
51 6 4 bottom
14 68 66 12
52 6 4 bottom
68 70 65 66
53 6 4 bottom
70 72 64 65
54 6 4 bottom
72 74 63 64
55 6 4 bottom
74 76 62 63
56 6 4 bottom
76 78 61 62
57 6 4 bottom
78 80 60 61
58 6 4 bottom
80 82 59 60
59 6 4 bottom
82 84 58 59
60 6 4 bottom
84 57 55 58
61 6 4 bottom
55 57 107 106
62 6 4 bottom
57 56 116 107
63 6 4 bottom
56 45 86 116
64 6 4 bottom
106 107 108 105
65 6 4 bottom
107 116 117 108
66 6 4 bottom
116 86 87 117
67 6 4 bottom
105 108 109 104
68 6 4 bottom
108 117 118 109
69 6 4 bottom
117 87 88 118
70 6 4 bottom
104 109 110 103
71 6 4 bottom
109 118 119 110
72 6 4 bottom
118 88 89 119
73 6 4 bottom
103 110 111 102
74 6 4 bottom
110 119 120 111
75 6 4 bottom
119 89 90 120
76 6 4 bottom
102 111 112 101
77 6 4 bottom
111 120 121 112
78 6 4 bottom
120 90 91 121
79 6 4 bottom
101 112 113 100
80 6 4 bottom
112 121 122 113
81 6 4 bottom
121 91 92 122
82 6 4 bottom
100 113 114 99
83 6 4 bottom
113 122 123 114
84 6 4 bottom
122 92 93 123
85 6 4 bottom
99 114 115 98
86 6 4 bottom
114 123 124 115
87 6 4 bottom
123 93 94 124
88 6 4 bottom
98 115 97 95
89 6 4 bottom
115 124 96 97
90 6 4 bottom
124 94 85 96
91 6 4 bottom
1 26 143 142
92 6 4 bottom
26 25 152 143
93 6 4 bottom
25 15 125 152
94 6 4 bottom
142 143 144 141
95 6 4 bottom
143 152 153 144
96 6 4 bottom
152 125 126 153
97 6 4 bottom
141 144 145 140
98 6 4 bottom
144 153 154 145
99 6 4 bottom
153 126 127 154
100 6 4 bottom
140 145 146 139
101 6 4 bottom
145 154 155 146
102 6 4 bottom
154 127 128 155
103 6 4 bottom
139 146 147 138
104 6 4 bottom
146 155 156 147
105 6 4 bottom
155 128 129 156
106 6 4 bottom
138 147 148 137
107 6 4 bottom
147 156 157 148
108 6 4 bottom
156 129 130 157
109 6 4 bottom
137 148 149 136
110 6 4 bottom
148 157 158 149
111 6 4 bottom
157 130 131 158
112 6 4 bottom
136 149 150 135
113 6 4 bottom
149 158 159 150
114 6 4 bottom
158 131 132 159
115 6 4 bottom
135 150 151 134
116 6 4 bottom
150 159 160 151
117 6 4 bottom
159 132 133 160
118 6 4 bottom
134 151 96 85
119 6 4 bottom
151 160 97 96
120 6 4 bottom
160 133 95 97
121 6 4 bottom
15 24 161 125
122 6 4 bottom
24 23 170 161
123 6 4 bottom
23 22 179 170
124 6 4 bottom
22 21 188 179
125 6 4 bottom
21 20 197 188
126 6 4 bottom
20 19 206 197
127 6 4 bottom
19 18 215 206
128 6 4 bottom
18 17 224 215
129 6 4 bottom
17 16 233 224
130 6 4 bottom
16 12 66 233
131 6 4 bottom
125 161 162 126
132 6 4 bottom
161 170 171 162
133 6 4 bottom
170 179 180 171
134 6 4 bottom
179 188 189 180
135 6 4 bottom
188 197 198 189
136 6 4 bottom
197 206 207 198
137 6 4 bottom
206 215 216 207
138 6 4 bottom
215 224 225 216
139 6 4 bottom
224 233 234 225
140 6 4 bottom
233 66 65 234
141 6 4 bottom
126 162 163 127
142 6 4 bottom
162 171 172 163
143 6 4 bottom
171 180 181 172
144 6 4 bottom
180 189 190 181
145 6 4 bottom
189 198 199 190
146 6 4 bottom
198 207 208 199
147 6 4 bottom
207 216 217 208
148 6 4 bottom
216 225 226 217
149 6 4 bottom
225 234 235 226
150 6 4 bottom
234 65 64 235
151 6 4 bottom
127 163 164 128
152 6 4 bottom
163 172 173 164
153 6 4 bottom
172 181 182 173
154 6 4 bottom
181 190 191 182
155 6 4 bottom
190 199 200 191
156 6 4 bottom
199 208 209 200
157 6 4 bottom
208 217 218 209
158 6 4 bottom
217 226 227 218
159 6 4 bottom
226 235 236 227
160 6 4 bottom
235 64 63 236
161 6 4 bottom
128 164 165 129
162 6 4 bottom
164 173 174 165
163 6 4 bottom
173 182 183 174
164 6 4 bottom
182 191 192 183
165 6 4 bottom
191 200 201 192
166 6 4 bottom
200 209 210 201
167 6 4 bottom
209 218 219 210
168 6 4 bottom
218 227 228 219
169 6 4 bottom
227 236 237 228
170 6 4 bottom
236 63 62 237
171 6 4 bottom
129 165 166 130
172 6 4 bottom
165 174 175 166
173 6 4 bottom
174 183 184 175
174 6 4 bottom
183 192 193 184
175 6 4 bottom
192 201 202 193
176 6 4 bottom
201 210 211 202
177 6 4 bottom
210 219 220 211
178 6 4 bottom
219 228 229 220
179 6 4 bottom
228 237 238 229
180 6 4 bottom
237 62 61 238
181 6 4 bottom
130 166 167 131
182 6 4 bottom
166 175 176 167
183 6 4 bottom
175 184 185 176
184 6 4 bottom
184 193 194 185
185 6 4 bottom
193 202 203 194
186 6 4 bottom
202 211 212 203
187 6 4 bottom
211 220 221 212
188 6 4 bottom
220 229 230 221
189 6 4 bottom
229 238 239 230
190 6 4 bottom
238 61 60 239
191 6 4 bottom
131 167 168 132
192 6 4 bottom
167 176 177 168
193 6 4 bottom
176 185 186 177
194 6 4 bottom
185 194 195 186
195 6 4 bottom
194 203 204 195
196 6 4 bottom
203 212 213 204
197 6 4 bottom
212 221 222 213
198 6 4 bottom
221 230 231 222
199 6 4 bottom
230 239 240 231
200 6 4 bottom
239 60 59 240
201 6 4 bottom
132 168 169 133
202 6 4 bottom
168 177 178 169
203 6 4 bottom
177 186 187 178
204 6 4 bottom
186 195 196 187
205 6 4 bottom
195 204 205 196
206 6 4 bottom
204 213 214 205
207 6 4 bottom
213 222 223 214
208 6 4 bottom
222 231 232 223
209 6 4 bottom
231 240 241 232
210 6 4 bottom
240 59 58 241
211 6 4 bottom
133 169 98 95
212 6 4 bottom
169 178 99 98
213 6 4 bottom
178 187 100 99
214 6 4 bottom
187 196 101 100
215 6 4 bottom
196 205 102 101
216 6 4 bottom
205 214 103 102
217 6 4 bottom
214 223 104 103
218 6 4 bottom
223 232 105 104
219 6 4 bottom
232 241 106 105
220 6 4 bottom
241 58 55 106
661 6 4 top
253 257 285 255
662 6 4 top
257 258 283 285
663 6 4 top
258 259 281 283
664 6 4 top
259 260 279 281
665 6 4 top
260 261 277 279
666 6 4 top
261 262 275 277
667 6 4 top
262 263 273 275
668 6 4 top
263 264 271 273
669 6 4 top
264 265 269 271
670 6 4 top
265 256 266 269
671 6 4 top
255 285 284 254
672 6 4 top
285 283 282 284
673 6 4 top
283 281 280 282
674 6 4 top
281 279 278 280
675 6 4 top
279 277 276 278
676 6 4 top
277 275 274 276
677 6 4 top
275 273 272 274
678 6 4 top
273 271 270 272
679 6 4 top
271 269 268 270
680 6 4 top
269 266 267 268
681 6 4 top
254 284 252 243
682 6 4 top
284 282 251 252
683 6 4 top
282 280 250 251
684 6 4 top
280 278 249 250
685 6 4 top
278 276 248 249
686 6 4 top
276 274 247 248
687 6 4 top
274 272 246 247
688 6 4 top
272 270 245 246
689 6 4 top
270 268 244 245
690 6 4 top
268 267 242 244
711 6 4 top
340 343 369 342
712 6 4 top
343 344 367 369
713 6 4 top
344 345 365 367
714 6 4 top
345 346 363 365
715 6 4 top
346 347 361 363
716 6 4 top
347 348 359 361
717 6 4 top
348 349 357 359
718 6 4 top
349 350 355 357
719 6 4 top
350 351 353 355
720 6 4 top
351 253 255 353
721 6 4 top
342 369 368 341
722 6 4 top
369 367 366 368
723 6 4 top
367 365 364 366
724 6 4 top
365 363 362 364
725 6 4 top
363 361 360 362
726 6 4 top
361 359 358 360
727 6 4 top
359 357 356 358
728 6 4 top
357 355 354 356
729 6 4 top
355 353 352 354
730 6 4 top
353 255 254 352
731 6 4 top
341 368 339 330
732 6 4 top
368 366 338 339
733 6 4 top
366 364 337 338
734 6 4 top
364 362 336 337
735 6 4 top
362 360 335 336
736 6 4 top
360 358 334 335
737 6 4 top
358 356 333 334
738 6 4 top
356 354 332 333
739 6 4 top
354 352 331 332
740 6 4 top
352 254 243 331
761 6 4 top
410 421 449 419
762 6 4 top
421 422 440 449
763 6 4 top
422 420 423 440
764 6 4 top
419 449 448 418
765 6 4 top
449 440 439 448
766 6 4 top
440 423 424 439
767 6 4 top
418 448 447 417
768 6 4 top
448 439 438 447
769 6 4 top
439 424 425 438
770 6 4 top
417 447 446 416
771 6 4 top
447 438 437 446
772 6 4 top
438 425 426 437
773 6 4 top
416 446 445 415
774 6 4 top
446 437 436 445
775 6 4 top
437 426 427 436
776 6 4 top
415 445 444 414
777 6 4 top
445 436 435 444
778 6 4 top
436 427 428 435
779 6 4 top
414 444 443 413
780 6 4 top
444 435 434 443
781 6 4 top
435 428 429 434
782 6 4 top
413 443 442 412
783 6 4 top
443 434 433 442
784 6 4 top
434 429 430 433
785 6 4 top
412 442 441 411
786 6 4 top
442 433 432 441
787 6 4 top
433 430 431 432
788 6 4 top
411 441 341 330
789 6 4 top
441 432 342 341
790 6 4 top
432 431 340 342
811 6 4 top
420 422 525 498
812 6 4 top
422 421 516 525
813 6 4 top
421 410 499 516
814 6 4 top
498 525 524 497
815 6 4 top
525 516 515 524
816 6 4 top
516 499 500 515
817 6 4 top
497 524 523 496
818 6 4 top
524 515 514 523
819 6 4 top
515 500 501 514
820 6 4 top
496 523 522 495
821 6 4 top
523 514 513 522
822 6 4 top
514 501 502 513
823 6 4 top
495 522 521 494
824 6 4 top
522 513 512 521
825 6 4 top
513 502 503 512
826 6 4 top
494 521 520 493
827 6 4 top
521 512 511 520
828 6 4 top
512 503 504 511
829 6 4 top
493 520 519 492
830 6 4 top
520 511 510 519
831 6 4 top
511 504 505 510
832 6 4 top
492 519 518 491
833 6 4 top
519 510 509 518
834 6 4 top
510 505 506 509
835 6 4 top
491 518 517 490
836 6 4 top
518 509 508 517
837 6 4 top
509 506 507 508
838 6 4 top
490 517 266 256
839 6 4 top
517 508 267 266
840 6 4 top
508 507 242 267
861 6 4 top
340 431 642 343
862 6 4 top
431 430 633 642
863 6 4 top
430 429 624 633
864 6 4 top
429 428 615 624
865 6 4 top
428 427 606 615
866 6 4 top
427 426 597 606
867 6 4 top
426 425 588 597
868 6 4 top
425 424 579 588
869 6 4 top
424 423 570 579
870 6 4 top
423 420 498 570
871 6 4 top
343 642 641 344
872 6 4 top
642 633 632 641
873 6 4 top
633 624 623 632
874 6 4 top
624 615 614 623
875 6 4 top
615 606 605 614
876 6 4 top
606 597 596 605
877 6 4 top
597 588 587 596
878 6 4 top
588 579 578 587
879 6 4 top
579 570 569 578
880 6 4 top
570 498 497 569
881 6 4 top
344 641 640 345
882 6 4 top
641 632 631 640
883 6 4 top
632 623 622 631
884 6 4 top
623 614 613 622
885 6 4 top
614 605 604 613
886 6 4 top
605 596 595 604
887 6 4 top
596 587 586 595
888 6 4 top
587 578 577 586
889 6 4 top
578 569 568 577
890 6 4 top
569 497 496 568
891 6 4 top
345 640 639 346
892 6 4 top
640 631 630 639
893 6 4 top
631 622 621 630
894 6 4 top
622 613 612 621
895 6 4 top
613 604 603 612
896 6 4 top
604 595 594 603
897 6 4 top
595 586 585 594
898 6 4 top
586 577 576 585
899 6 4 top
577 568 567 576
900 6 4 top
568 496 495 567
901 6 4 top
346 639 638 347
902 6 4 top
639 630 629 638
903 6 4 top
630 621 620 629
904 6 4 top
621 612 611 620
905 6 4 top
612 603 602 611
906 6 4 top
603 594 593 602
907 6 4 top
594 585 584 593
908 6 4 top
585 576 575 584
909 6 4 top
576 567 566 575
910 6 4 top
567 495 494 566
911 6 4 top
347 638 637 348
912 6 4 top
638 629 628 637
913 6 4 top
629 620 619 628
914 6 4 top
620 611 610 619
915 6 4 top
611 602 601 610
916 6 4 top
602 593 592 601
917 6 4 top
593 584 583 592
918 6 4 top
584 575 574 583
919 6 4 top
575 566 565 574
920 6 4 top
566 494 493 565
921 6 4 top
348 637 636 349
922 6 4 top
637 628 627 636
923 6 4 top
628 619 618 627
924 6 4 top
619 610 609 618
925 6 4 top
610 601 600 609
926 6 4 top
601 592 591 600
927 6 4 top
592 583 582 591
928 6 4 top
583 574 573 582
929 6 4 top
574 565 564 573
930 6 4 top
565 493 492 564
931 6 4 top
349 636 635 350
932 6 4 top
636 627 626 635
933 6 4 top
627 618 617 626
934 6 4 top
618 609 608 617
935 6 4 top
609 600 599 608
936 6 4 top
600 591 590 599
937 6 4 top
591 582 581 590
938 6 4 top
582 573 572 581
939 6 4 top
573 564 563 572
940 6 4 top
564 492 491 563
941 6 4 top
350 635 634 351
942 6 4 top
635 626 625 634
943 6 4 top
626 617 616 625
944 6 4 top
617 608 607 616
945 6 4 top
608 599 598 607
946 6 4 top
599 590 589 598
947 6 4 top
590 581 580 589
948 6 4 top
581 572 571 580
949 6 4 top
572 563 562 571
950 6 4 top
563 491 490 562
951 6 4 top
351 634 257 253
952 6 4 top
634 625 258 257
953 6 4 top
625 616 259 258
954 6 4 top
616 607 260 259
955 6 4 top
607 598 261 260
956 6 4 top
598 589 262 261
957 6 4 top
589 580 263 262
958 6 4 top
580 571 264 263
959 6 4 top
571 562 265 264
960 6 4 top
562 490 256 265

[1D Elements]
#ElemNr  ElemType  NrOfNodes  Level
#Node1 Node2 ... NodeNrOfNodes

[Node BC]
#NodeNr Level
       1 fixAll
       2 fixAll
      45 fixAll
      85 fixAll
     420 saveErg

[Save Nodes]
#NodeNr Level

[Save Elements]
#ElemNr Level
121 coil-in
122 coil-in
123 coil-in
124 coil-in
125 coil-in
126 coil-in
127 coil-in
128 coil-in
129 coil-in
130 coil-in
131 coil-in
132 coil-in
133 coil-in
134 coil-in
135 coil-in
136 coil-in
137 coil-in
138 coil-in
139 coil-in
140 coil-in
141 coil-in
142 coil-in
143 coil-in
144 coil-in
145 coil-in
146 coil-in
147 coil-in
148 coil-in
149 coil-in
150 coil-in
151 coil-in
152 coil-in
153 coil-in
154 coil-in
155 coil-in
156 coil-in
157 coil-in
158 coil-in
159 coil-in
160 coil-in
161 coil-in
162 coil-in
163 coil-in
164 coil-in
165 coil-in
166 coil-in
167 coil-in
168 coil-in
169 coil-in
170 coil-in
171 coil-in
172 coil-in
173 coil-in
174 coil-in
175 coil-in
176 coil-in
177 coil-in
178 coil-in
179 coil-in
180 coil-in
181 coil-in
182 coil-in
183 coil-in
184 coil-in
185 coil-in
186 coil-in
187 coil-in
188 coil-in
189 coil-in
190 coil-in
191 coil-in
192 coil-in
193 coil-in
194 coil-in
195 coil-in
196 coil-in
197 coil-in
198 coil-in
199 coil-in
200 coil-in
201 coil-in
202 coil-in
203 coil-in
204 coil-in
205 coil-in
206 coil-in
207 coil-in
208 coil-in
209 coil-in
210 coil-in
211 coil-in
212 coil-in
213 coil-in
214 coil-in
215 coil-in
216 coil-in
217 coil-in
218 coil-in
219 coil-in
220 coil-in
861 coil-out
862 coil-out
863 coil-out
864 coil-out
865 coil-out
866 coil-out
867 coil-out
868 coil-out
869 coil-out
870 coil-out
871 coil-out
872 coil-out
873 coil-out
874 coil-out
875 coil-out
876 coil-out
877 coil-out
878 coil-out
879 coil-out
880 coil-out
881 coil-out
882 coil-out
883 coil-out
884 coil-out
885 coil-out
886 coil-out
887 coil-out
888 coil-out
889 coil-out
890 coil-out
891 coil-out
892 coil-out
893 coil-out
894 coil-out
895 coil-out
896 coil-out
897 coil-out
898 coil-out
899 coil-out
900 coil-out
901 coil-out
902 coil-out
903 coil-out
904 coil-out
905 coil-out
906 coil-out
907 coil-out
908 coil-out
909 coil-out
910 coil-out
911 coil-out
912 coil-out
913 coil-out
914 coil-out
915 coil-out
916 coil-out
917 coil-out
918 coil-out
919 coil-out
920 coil-out
921 coil-out
922 coil-out
923 coil-out
924 coil-out
925 coil-out
926 coil-out
927 coil-out
928 coil-out
929 coil-out
930 coil-out
931 coil-out
932 coil-out
933 coil-out
934 coil-out
935 coil-out
936 coil-out
937 coil-out
938 coil-out
939 coil-out
940 coil-out
941 coil-out
942 coil-out
943 coil-out
944 coil-out
945 coil-out
946 coil-out
947 coil-out
948 coil-out
949 coil-out
950 coil-out
951 coil-out
952 coil-out
953 coil-out
954 coil-out
955 coil-out
956 coil-out
957 coil-out
958 coil-out
959 coil-out
960 coil-out

