$MeshFormat
2.2 0 8
$EndMeshFormat
$PhysicalNames
5
1 2 "bottom"
1 3 "top"
1 4 "inlet"
1 5 "outlet"
2 1 "fluid"
$EndPhysicalNames
$Nodes
441
1 -2 -2 0
2 2 -2 0
3 2 2 0
4 -2 2 0
5 -1.800000000000554 -2 0
6 -1.600000000001109 -2 0
7 -1.400000000001664 -2 0
8 -1.200000000002219 -2 0
9 -1.000000000002773 -2 0
10 -0.8000000000033274 -2 0
11 -0.6000000000038817 -2 0
12 -0.4000000000044357 -2 0
13 -0.2000000000049897 -2 0
14 -5.500488953202876e-12 -2 0
15 0.1999999999950108 -2 0
16 0.3999999999955652 -2 0
17 0.5999999999961196 -2 0
18 0.7999999999966736 -2 0
19 0.999999999997228 -2 0
20 1.199999999997782 -2 0
21 1.399999999998337 -2 0
22 1.599999999998891 -2 0
23 1.799999999999445 -2 0
24 2 -1.800000000000554 0
25 2 -1.600000000001109 0
26 2 -1.400000000001664 0
27 2 -1.200000000002219 0
28 2 -1.000000000002773 0
29 2 -0.8000000000033274 0
30 2 -0.6000000000038817 0
31 2 -0.4000000000044357 0
32 2 -0.2000000000049897 0
33 2 -5.500488953202876e-12 0
34 2 0.1999999999950108 0
35 2 0.3999999999955652 0
36 2 0.5999999999961196 0
37 2 0.7999999999966736 0
38 2 0.999999999997228 0
39 2 1.199999999997782 0
40 2 1.399999999998337 0
41 2 1.599999999998891 0
42 2 1.799999999999445 0
43 1.800000000000554 2 0
44 1.600000000001109 2 0
45 1.400000000001664 2 0
46 1.200000000002219 2 0
47 1.000000000002773 2 0
48 0.8000000000033274 2 0
49 0.6000000000038817 2 0
50 0.4000000000044357 2 0
51 0.2000000000049897 2 0
52 5.500488953202876e-12 2 0
53 -0.1999999999950108 2 0
54 -0.3999999999955652 2 0
55 -0.5999999999961196 2 0
56 -0.7999999999966736 2 0
57 -0.999999999997228 2 0
58 -1.199999999997782 2 0
59 -1.399999999998337 2 0
60 -1.599999999998891 2 0
61 -1.799999999999445 2 0
62 -2 1.800000000000554 0
63 -2 1.600000000001109 0
64 -2 1.400000000001664 0
65 -2 1.200000000002219 0
66 -2 1.000000000002773 0
67 -2 0.8000000000033274 0
68 -2 0.6000000000038817 0
69 -2 0.4000000000044357 0
70 -2 0.2000000000049897 0
71 -2 5.500488953202876e-12 0
72 -2 -0.1999999999950108 0
73 -2 -0.3999999999955652 0
74 -2 -0.5999999999961196 0
75 -2 -0.7999999999966736 0
76 -2 -0.999999999997228 0
77 -2 -1.199999999997782 0
78 -2 -1.399999999998337 0
79 -2 -1.599999999998891 0
80 -2 -1.799999999999445 0
81 -1.800000000000499 -1.799999999999501 0
82 -1.800000000000443 -1.599999999999002 0
83 -1.800000000000388 -1.399999999998504 0
84 -1.800000000000333 -1.199999999998004 0
85 -1.800000000000277 -0.9999999999975056 0
86 -1.800000000000221 -0.7999999999970061 0
87 -1.800000000000166 -0.5999999999965078 0
88 -1.800000000000111 -0.3999999999960089 0
89 -1.800000000000055 -0.1999999999955099 0
90 -1.8 4.950484466803573e-12 0
91 -1.799999999999944 0.2000000000044908 0
92 -1.799999999999889 0.4000000000039921 0
93 -1.799999999999833 0.6000000000034935 0
94 -1.799999999999778 0.8000000000029948 0
95 -1.799999999999723 1.000000000002496 0
96 -1.799999999999667 1.200000000001997 0
97 -1.799999999999612 1.400000000001497 0
98 -1.799999999999556 1.600000000000998 0
99 -1.799999999999501 1.800000000000499 0
100 -1.600000000000998 -1.799999999999556 0
101 -1.600000000000887 -1.599999999999113 0
102 -1.600000000000776 -1.39999999999867 0
103 -1.600000000000666 -1.199999999998226 0
104 -1.600000000000554 -0.9999999999977827 0
105 -1.600000000000444 -0.799999999997339 0
106 -1.600000000000333 -0.5999999999968961 0
107 -1.600000000000222 -0.3999999999964523 0
108 -1.600000000000111 -0.1999999999960086 0
109 -1.600000000000001 4.400368958101808e-12 0
110 -1.599999999999889 0.2000000000039919 0
111 -1.599999999999778 0.4000000000035487 0
112 -1.599999999999667 0.6000000000031057 0
113 -1.599999999999556 0.8000000000026618 0
114 -1.599999999999445 1.000000000002219 0
115 -1.599999999999334 1.200000000001775 0
116 -1.599999999999224 1.400000000001331 0
117 -1.599999999999113 1.600000000000887 0
118 -1.599999999999002 1.800000000000443 0
119 -1.400000000001498 -1.799999999999612 0
120 -1.400000000001331 -1.599999999999224 0
121 -1.400000000001165 -1.399999999998836 0
122 -1.400000000000999 -1.199999999998448 0
123 -1.400000000000832 -0.9999999999980596 0
124 -1.400000000000666 -0.7999999999976716 0
125 -1.4000000000005 -0.599999999997284 0
126 -1.400000000000333 -0.3999999999968958 0
127 -1.400000000000166 -0.1999999999965077 0
128 -1.4 3.850253449400043e-12 0
129 -1.399999999999834 0.2000000000034931 0
130 -1.399999999999667 0.4000000000031051 0
131 -1.399999999999501 0.6000000000027175 0
132 -1.399999999999335 0.8000000000023295 0
133 -1.399999999999169 1.000000000001942 0
134 -1.399999999999002 1.200000000001553 0
135 -1.399999999998836 1.400000000001165 0
136 -1.399999999998669 1.600000000000776 0
137 -1.399999999998503 1.800000000000388 0
138 -1.200000000001997 -1.799999999999667 0
139 -1.200000000001775 -1.599999999999335 0
140 -1.200000000001554 -1.399999999999002 0
141 -1.200000000001332 -1.19999999999867 0
142 -1.20000000000111 -0.9999999999983369 0
143 -1.200000000000887 -0.7999999999980043 0
144 -1.200000000000666 -0.5999999999976724 0
145 -1.200000000000444 -0.3999999999973394 0
146 -1.200000000000222 -0.1999999999970067 0
147 -1.200000000000001 3.30024896300074e-12 0
148 -1.199999999999779 0.2000000000029939 0
149 -1.199999999999557 0.4000000000026616 0
150 -1.199999999999335 0.6000000000023293 0
151 -1.199999999999113 0.8000000000019964 0
152 -1.199999999998892 1.000000000001664 0
153 -1.19999999999867 1.200000000001332 0
154 -1.199999999998448 1.400000000000999 0
155 -1.199999999998226 1.600000000000666 0
156 -1.199999999998004 1.800000000000333 0
157 -1.000000000002496 -1.799999999999722 0
158 -1.000000000002219 -1.599999999999446 0
159 -1.000000000001941 -1.399999999999169 0
160 -1.000000000001664 -1.199999999998892 0
161 -1.000000000001387 -0.999999999998614 0
162 -1.00000000000111 -0.7999999999983369 0
163 -1.000000000000833 -0.59999999999806 0
164 -1.000000000000555 -0.3999999999977828 0
165 -1.000000000000278 -0.1999999999975055 0
166 -1 2.750244476601438e-12 0
167 -0.9999999999997233 0.2000000000024951 0
168 -0.9999999999994462 0.4000000000022182 0
169 -0.9999999999991691 0.6000000000019412 0
170 -0.9999999999988916 0.8000000000016639 0
171 -0.9999999999986144 1.000000000001387 0
172 -0.9999999999983369 1.20000000000111 0
173 -0.9999999999980598 1.400000000000832 0
174 -0.9999999999977827 1.600000000000555 0
175 -0.9999999999975051 1.800000000000277 0
176 -0.8000000000029944 -1.799999999999778 0
177 -0.800000000002662 -1.599999999999556 0
178 -0.8000000000023295 -1.399999999999335 0
179 -0.8000000000019967 -1.199999999999113 0
180 -0.8000000000016637 -0.9999999999988911 0
181 -0.8000000000013313 -0.7999999999986696 0
182 -0.8000000000009985 -0.5999999999984482 0
183 -0.800000000000666 -0.3999999999982264 0
184 -0.8000000000003333 -0.1999999999980044 0
185 -0.8000000000000007 2.200128967899673e-12 0
186 -0.7999999999996679 0.2000000000019962 0
187 -0.799999999999335 0.4000000000017744 0
188 -0.7999999999990024 0.6000000000015531 0
189 -0.7999999999986698 0.8000000000013312 0
190 -0.7999999999983369 1.00000000000111 0
191 -0.7999999999980045 1.200000000000887 0
192 -0.7999999999976717 1.400000000000666 0
193 -0.7999999999973387 1.600000000000444 0
194 -0.7999999999970062 1.800000000000221 0
195 -0.6000000000034937 -1.799999999999833 0
196 -0.6000000000031054 -1.599999999999667 0
197 -0.6000000000027172 -1.399999999999501 0
198 -0.6000000000023296 -1.199999999999336 0
199 -0.600000000001941 -0.9999999999991689 0
200 -0.600000000001553 -0.7999999999990025 0
201 -0.600000000001165 -0.5999999999988364 0
202 -0.6000000000007768 -0.39999999999867 0
203 -0.6000000000003887 -0.1999999999985034 0
204 -0.6000000000000006 1.650235503802833e-12 0
205 -0.5999999999996125 0.2000000000014971 0
206 -0.5999999999992244 0.400000000001331 0
207 -0.5999999999988361 0.6000000000011648 0
208 -0.5999999999984483 0.8000000000009985 0
209 -0.5999999999980602 1.000000000000832 0
210 -0.5999999999976721 1.200000000000666 0
211 -0.5999999999972838 1.4000000000005 0
212 -0.5999999999968961 1.600000000000333 0
213 -0.5999999999965078 1.800000000000166 0
214 -0.4000000000039922 -1.799999999999889 0
215 -0.4000000000035486 -1.599999999999778 0
216 -0.4000000000031052 -1.399999999999668 0
217 -0.4000000000026617 -1.199999999999557 0
218 -0.4000000000022181 -0.999999999999446 0
219 -0.4000000000017745 -0.7999999999993352 0
220 -0.400000000001331 -0.5999999999992245 0
221 -0.4000000000008875 -0.3999999999991135 0
222 -0.4000000000004439 -0.1999999999990024 0
223 -0.4000000000000005 1.099897950496143e-12 0
224 -0.3999999999995569 0.2000000000009982 0
225 -0.3999999999991136 0.4000000000008875 0
226 -0.3999999999986698 0.6000000000007767 0
227 -0.3999999999982264 0.8000000000006658 0
228 -0.3999999999977827 1.000000000000555 0
229 -0.3999999999973393 1.200000000000444 0
230 -0.3999999999968958 1.400000000000333 0
231 -0.3999999999964522 1.600000000000222 0
232 -0.3999999999960089 1.800000000000111 0
233 -0.2000000000044908 -1.799999999999944 0
234 -0.2000000000039917 -1.599999999999889 0
235 -0.2000000000034929 -1.399999999999834 0
236 -0.2000000000029941 -1.199999999999779 0
237 -0.2000000000024949 -0.9999999999997231 0
238 -0.200000000001996 -0.7999999999996679 0
239 -0.2000000000014971 -0.5999999999996124 0
240 -0.2000000000009983 -0.399999999999557 0
241 -0.2000000000004993 -0.1999999999995015 0
242 -0.2000000000000003 5.500044863993026e-13 0
243 -0.1999999999995014 0.2000000000004992 0
244 -0.1999999999990024 0.4000000000004439 0
245 -0.1999999999985034 0.6000000000003886 0
246 -0.1999999999980045 0.8000000000003333 0
247 -0.1999999999975056 1.000000000000278 0
248 -0.1999999999970067 1.200000000000222 0
249 -0.1999999999965075 1.400000000000166 0
250 -0.1999999999960087 1.600000000000111 0
251 -0.1999999999955097 1.800000000000055 0
252 -4.950523324610961e-12 -1.8 0
253 -4.400335651414121e-12 -1.6 0
254 -3.850397778397818e-12 -1.4 0
255 -3.300182349625366e-12 -1.200000000000001 0
256 -2.750244476609063e-12 -1 0
257 -2.200306603592764e-12 -0.8000000000000005 0
258 -1.650146685971539e-12 -0.6000000000000005 0
259 -1.100097790652775e-12 -0.4000000000000004 0
260 -5.499378730315472e-13 -0.2000000000000002 0
261 -1.512835792177061e-23 0 0
262 5.501599176090299e-13 0.2000000000000003 0
263 1.100097790628379e-12 0.4000000000000005 0
264 1.650146685950191e-12 0.6000000000000005 0
265 2.200084558969539e-12 0.8000000000000005 0
266 2.750244476593814e-12 1.000000000000001 0
267 3.300404394218088e-12 1.200000000000001 0
268 3.850342267237439e-12 1.4 0
269 4.400502184861714e-12 1.6 0
270 4.950329035578599e-12 1.8 0
271 0.1999999999955099 -1.800000000000055 0
272 0.1999999999960087 -1.600000000000111 0
273 0.1999999999965077 -1.400000000000166 0
274 0.1999999999970065 -1.200000000000222 0
275 0.1999999999975056 -1.000000000000278 0
276 0.1999999999980046 -0.8000000000003331 0
277 0.1999999999985033 -0.6000000000003888 0
278 0.1999999999990024 -0.4000000000004441 0
279 0.1999999999995014 -0.2000000000004993 0
280 0.2000000000000002 -5.499489752480713e-13 0
281 0.2000000000004992 0.1999999999995014 0
282 0.2000000000009983 0.3999999999995569 0
283 0.200000000001497 0.5999999999996126 0
284 0.200000000001996 0.7999999999996679 0
285 0.2000000000024951 0.9999999999997233 0
286 0.2000000000029939 1.199999999999779 0
287 0.2000000000034929 1.399999999999834 0
288 0.200000000003992 1.59999999999989 0
289 0.2000000000044909 1.799999999999944 0
290 0.3999999999960088 -1.80000000000011 0
291 0.3999999999964524 -1.600000000000222 0
292 0.3999999999968958 -1.400000000000333 0
293 0.3999999999973394 -1.200000000000444 0
294 0.399999999997783 -1.000000000000555 0
295 0.3999999999982264 -0.8000000000006662 0
296 0.3999999999986698 -0.600000000000777 0
297 0.3999999999991135 -0.4000000000008876 0
298 0.3999999999995569 -0.2000000000009983 0
299 0.4000000000000004 -1.100008972798605e-12 0
300 0.4000000000004439 0.1999999999990025 0
301 0.4000000000008875 0.3999999999991135 0
302 0.4000000000013312 0.5999999999992245 0
303 0.4000000000017746 0.799999999999335 0
304 0.4000000000022181 0.9999999999994462 0
305 0.4000000000026616 1.199999999999557 0
306 0.4000000000031051 1.399999999999667 0
307 0.4000000000035486 1.599999999999778 0
308 0.4000000000039922 1.799999999999889 0
309 0.5999999999965078 -1.800000000000166 0
310 0.599999999996896 -1.600000000000333 0
311 0.5999999999972838 -1.400000000000499 0
312 0.599999999997672 -1.200000000000666 0
313 0.5999999999980601 -1.000000000000833 0
314 0.5999999999984482 -0.8000000000009984 0
315 0.5999999999988365 -0.600000000001165 0
316 0.5999999999992244 -0.4000000000013311 0
317 0.5999999999996126 -0.2000000000014973 0
318 0.6000000000000008 -1.650235503802833e-12 0
319 0.6000000000003887 0.1999999999985034 0
320 0.6000000000007768 0.3999999999986699 0
321 0.6000000000011649 0.5999999999988364 0
322 0.6000000000015531 0.7999999999990024 0
323 0.6000000000019412 0.9999999999991689 0
324 0.6000000000023293 1.199999999999335 0
325 0.6000000000027174 1.399999999999501 0
326 0.6000000000031055 1.599999999999667 0
327 0.6000000000034934 1.799999999999833 0
328 0.7999999999970062 -1.800000000000222 0
329 0.799999999997339 -1.600000000000443 0
330 0.7999999999976718 -1.400000000000666 0
331 0.7999999999980043 -1.200000000000888 0
332 0.7999999999983373 -1.00000000000111 0
333 0.7999999999986698 -0.8000000000013314 0
334 0.7999999999990023 -0.6000000000015532 0
335 0.799999999999335 -0.4000000000017745 0
336 0.7999999999996676 -0.2000000000019961 0
337 0.8000000000000003 -2.200295501353366e-12 0
338 0.8000000000003331 0.1999999999980046 0
339 0.800000000000666 0.3999999999982263 0
340 0.8000000000009988 0.5999999999984482 0
341 0.8000000000013313 0.7999999999986698 0
342 0.8000000000016637 0.9999999999988914 0
343 0.8000000000019964 1.199999999999113 0
344 0.8000000000023293 1.399999999999335 0
345 0.8000000000026621 1.599999999999556 0
346 0.8000000000029948 1.799999999999778 0
347 0.9999999999975054 -1.800000000000277 0
348 0.9999999999977826 -1.600000000000554 0
349 0.9999999999980598 -1.400000000000832 0
350 0.9999999999983369 -1.20000000000111 0
351 0.9999999999986144 -1.000000000001387 0
352 0.9999999999988916 -0.8000000000016636 0
353 0.999999999999169 -0.6000000000019413 0
354 0.999999999999446 -0.4000000000022181 0
355 0.9999999999997234 -0.2000000000024951 0
356 1.000000000000001 -2.750244476601438e-12 0
357 1.000000000000278 0.1999999999975056 0
358 1.000000000000555 0.3999999999977828 0
359 1.000000000000832 0.5999999999980603 0
360 1.00000000000111 0.7999999999983368 0
361 1.000000000001387 0.9999999999986144 0
362 1.000000000001664 1.199999999998892 0
363 1.000000000001942 1.399999999999169 0
364 1.000000000002219 1.599999999999445 0
365 1.000000000002496 1.799999999999722 0
366 1.199999999998004 -1.800000000000332 0
367 1.199999999998226 -1.600000000000665 0
368 1.199999999998448 -1.400000000000998 0
369 1.19999999999867 -1.200000000001331 0
370 1.199999999998892 -1.000000000001664 0
371 1.199999999999113 -0.8000000000019967 0
372 1.199999999999335 -0.6000000000023294 0
373 1.199999999999557 -0.4000000000026616 0
374 1.199999999999778 -0.2000000000029941 0
375 1.200000000000001 -3.300193451849509e-12 0
376 1.200000000000222 0.1999999999970065 0
377 1.200000000000444 0.3999999999973394 0
378 1.200000000000666 0.5999999999976722 0
379 1.200000000000888 0.7999999999980045 0
380 1.20000000000111 0.9999999999983372 0
381 1.200000000001332 1.19999999999867 0
382 1.200000000001553 1.399999999999002 0
383 1.200000000001775 1.599999999999335 0
384 1.200000000001997 1.799999999999667 0
385 1.399999999998503 -1.800000000000389 0
386 1.399999999998669 -1.600000000000776 0
387 1.399999999998836 -1.400000000001164 0
388 1.399999999999002 -1.200000000001553 0
389 1.399999999999169 -1.000000000001941 0
390 1.399999999999335 -0.8000000000023293 0
391 1.399999999999501 -0.6000000000027176 0
392 1.399999999999667 -0.4000000000031052 0
393 1.399999999999834 -0.2000000000034929 0
394 1.4 -3.850281204975659e-12 0
395 1.400000000000166 0.1999999999965076 0
396 1.400000000000333 0.3999999999968956 0
397 1.400000000000499 0.5999999999972839 0
398 1.400000000000666 0.7999999999976717 0
399 1.400000000000832 0.9999999999980598 0
400 1.400000000000998 1.199999999998448 0
401 1.400000000001165 1.399999999998836 0
402 1.400000000001331 1.599999999999224 0
403 1.400000000001497 1.799999999999611 0
404 1.599999999999002 -1.800000000000443 0
405 1.599999999999113 -1.600000000000887 0
406 1.599999999999224 -1.400000000001332 0
407 1.599999999999334 -1.200000000001775 0
408 1.599999999999445 -1.000000000002219 0
409 1.599999999999556 -0.8000000000026617 0
410 1.599999999999667 -0.6000000000031053 0
411 1.599999999999778 -0.4000000000035486 0
412 1.59999999999989 -0.2000000000039919 0
413 1.599999999999999 -4.400452224828655e-12 0
414 1.600000000000111 0.1999999999960088 0
415 1.600000000000222 0.3999999999964523 0
416 1.600000000000333 0.599999999996896 0
417 1.600000000000444 0.7999999999973388 0
418 1.600000000000555 0.9999999999977827 0
419 1.600000000000666 1.199999999998226 0
420 1.600000000000776 1.399999999998669 0
421 1.600000000000888 1.599999999999113 0
422 1.600000000000998 1.799999999999556 0
423 1.799999999999501 -1.800000000000499 0
424 1.799999999999556 -1.600000000000998 0
425 1.799999999999611 -1.400000000001498 0
426 1.799999999999667 -1.200000000001997 0
427 1.799999999999722 -1.000000000002496 0
428 1.799999999999778 -0.8000000000029945 0
429 1.799999999999833 -0.6000000000034934 0
430 1.799999999999889 -0.4000000000039923 0
431 1.799999999999944 -0.2000000000044908 0
432 1.8 -4.950526100166996e-12 0
433 1.800000000000056 0.1999999999955098 0
434 1.800000000000111 0.3999999999960088 0
435 1.800000000000166 0.5999999999965077 0
436 1.800000000000222 0.7999999999970062 0
437 1.800000000000277 0.9999999999975051 0
438 1.800000000000333 1.199999999998004 0
439 1.800000000000388 1.399999999998503 0
440 1.800000000000443 1.599999999999002 0
441 1.800000000000499 1.799999999999501 0
$EndNodes
$Elements
480
1 1 2 2 5 1 5
2 1 2 2 5 5 6
3 1 2 2 5 6 7
4 1 2 2 5 7 8
5 1 2 2 5 8 9
6 1 2 2 5 9 10
7 1 2 2 5 10 11
8 1 2 2 5 11 12
9 1 2 2 5 12 13
10 1 2 2 5 13 14
11 1 2 2 5 14 15
12 1 2 2 5 15 16
13 1 2 2 5 16 17
14 1 2 2 5 17 18
15 1 2 2 5 18 19
16 1 2 2 5 19 20
17 1 2 2 5 20 21
18 1 2 2 5 21 22
19 1 2 2 5 22 23
20 1 2 2 5 23 2
21 1 2 5 6 2 24
22 1 2 5 6 24 25
23 1 2 5 6 25 26
24 1 2 5 6 26 27
25 1 2 5 6 27 28
26 1 2 5 6 28 29
27 1 2 5 6 29 30
28 1 2 5 6 30 31
29 1 2 5 6 31 32
30 1 2 5 6 32 33
31 1 2 5 6 33 34
32 1 2 5 6 34 35
33 1 2 5 6 35 36
34 1 2 5 6 36 37
35 1 2 5 6 37 38
36 1 2 5 6 38 39
37 1 2 5 6 39 40
38 1 2 5 6 40 41
39 1 2 5 6 41 42
40 1 2 5 6 42 3
41 1 2 3 7 3 43
42 1 2 3 7 43 44
43 1 2 3 7 44 45
44 1 2 3 7 45 46
45 1 2 3 7 46 47
46 1 2 3 7 47 48
47 1 2 3 7 48 49
48 1 2 3 7 49 50
49 1 2 3 7 50 51
50 1 2 3 7 51 52
51 1 2 3 7 52 53
52 1 2 3 7 53 54
53 1 2 3 7 54 55
54 1 2 3 7 55 56
55 1 2 3 7 56 57
56 1 2 3 7 57 58
57 1 2 3 7 58 59
58 1 2 3 7 59 60
59 1 2 3 7 60 61
60 1 2 3 7 61 4
61 1 2 4 8 4 62
62 1 2 4 8 62 63
63 1 2 4 8 63 64
64 1 2 4 8 64 65
65 1 2 4 8 65 66
66 1 2 4 8 66 67
67 1 2 4 8 67 68
68 1 2 4 8 68 69
69 1 2 4 8 69 70
70 1 2 4 8 70 71
71 1 2 4 8 71 72
72 1 2 4 8 72 73
73 1 2 4 8 73 74
74 1 2 4 8 74 75
75 1 2 4 8 75 76
76 1 2 4 8 76 77
77 1 2 4 8 77 78
78 1 2 4 8 78 79
79 1 2 4 8 79 80
80 1 2 4 8 80 1
81 3 2 1 6 1 5 81 80
82 3 2 1 6 80 81 82 79
83 3 2 1 6 79 82 83 78
84 3 2 1 6 78 83 84 77
85 3 2 1 6 77 84 85 76
86 3 2 1 6 76 85 86 75
87 3 2 1 6 75 86 87 74
88 3 2 1 6 74 87 88 73
89 3 2 1 6 73 88 89 72
90 3 2 1 6 72 89 90 71
91 3 2 1 6 71 90 91 70
92 3 2 1 6 70 91 92 69
93 3 2 1 6 69 92 93 68
94 3 2 1 6 68 93 94 67
95 3 2 1 6 67 94 95 66
96 3 2 1 6 66 95 96 65
97 3 2 1 6 65 96 97 64
98 3 2 1 6 64 97 98 63
99 3 2 1 6 63 98 99 62
100 3 2 1 6 62 99 61 4
101 3 2 1 6 5 6 100 81
102 3 2 1 6 81 100 101 82
103 3 2 1 6 82 101 102 83
104 3 2 1 6 83 102 103 84
105 3 2 1 6 84 103 104 85
106 3 2 1 6 85 104 105 86
107 3 2 1 6 86 105 106 87
108 3 2 1 6 87 106 107 88
109 3 2 1 6 88 107 108 89
110 3 2 1 6 89 108 109 90
111 3 2 1 6 90 109 110 91
112 3 2 1 6 91 110 111 92
113 3 2 1 6 92 111 112 93
114 3 2 1 6 93 112 113 94
115 3 2 1 6 94 113 114 95
116 3 2 1 6 95 114 115 96
117 3 2 1 6 96 115 116 97
118 3 2 1 6 97 116 117 98
119 3 2 1 6 98 117 118 99
120 3 2 1 6 99 118 60 61
121 3 2 1 6 6 7 119 100
122 3 2 1 6 100 119 120 101
123 3 2 1 6 101 120 121 102
124 3 2 1 6 102 121 122 103
125 3 2 1 6 103 122 123 104
126 3 2 1 6 104 123 124 105
127 3 2 1 6 105 124 125 106
128 3 2 1 6 106 125 126 107
129 3 2 1 6 107 126 127 108
130 3 2 1 6 108 127 128 109
131 3 2 1 6 109 128 129 110
132 3 2 1 6 110 129 130 111
133 3 2 1 6 111 130 131 112
134 3 2 1 6 112 131 132 113
135 3 2 1 6 113 132 133 114
136 3 2 1 6 114 133 134 115
137 3 2 1 6 115 134 135 116
138 3 2 1 6 116 135 136 117
139 3 2 1 6 117 136 137 118
140 3 2 1 6 118 137 59 60
141 3 2 1 6 7 8 138 119
142 3 2 1 6 119 138 139 120
143 3 2 1 6 120 139 140 121
144 3 2 1 6 121 140 141 122
145 3 2 1 6 122 141 142 123
146 3 2 1 6 123 142 143 124
147 3 2 1 6 124 143 144 125
148 3 2 1 6 125 144 145 126
149 3 2 1 6 126 145 146 127
150 3 2 1 6 127 146 147 128
151 3 2 1 6 128 147 148 129
152 3 2 1 6 129 148 149 130
153 3 2 1 6 130 149 150 131
154 3 2 1 6 131 150 151 132
155 3 2 1 6 132 151 152 133
156 3 2 1 6 133 152 153 134
157 3 2 1 6 134 153 154 135
158 3 2 1 6 135 154 155 136
159 3 2 1 6 136 155 156 137
160 3 2 1 6 137 156 58 59
161 3 2 1 6 8 9 157 138
162 3 2 1 6 138 157 158 139
163 3 2 1 6 139 158 159 140
164 3 2 1 6 140 159 160 141
165 3 2 1 6 141 160 161 142
166 3 2 1 6 142 161 162 143
167 3 2 1 6 143 162 163 144
168 3 2 1 6 144 163 164 145
169 3 2 1 6 145 164 165 146
170 3 2 1 6 146 165 166 147
171 3 2 1 6 147 166 167 148
172 3 2 1 6 148 167 168 149
173 3 2 1 6 149 168 169 150
174 3 2 1 6 150 169 170 151
175 3 2 1 6 151 170 171 152
176 3 2 1 6 152 171 172 153
177 3 2 1 6 153 172 173 154
178 3 2 1 6 154 173 174 155
179 3 2 1 6 155 174 175 156
180 3 2 1 6 156 175 57 58
181 3 2 1 6 9 10 176 157
182 3 2 1 6 157 176 177 158
183 3 2 1 6 158 177 178 159
184 3 2 1 6 159 178 179 160
185 3 2 1 6 160 179 180 161
186 3 2 1 6 161 180 181 162
187 3 2 1 6 162 181 182 163
188 3 2 1 6 163 182 183 164
189 3 2 1 6 164 183 184 165
190 3 2 1 6 165 184 185 166
191 3 2 1 6 166 185 186 167
192 3 2 1 6 167 186 187 168
193 3 2 1 6 168 187 188 169
194 3 2 1 6 169 188 189 170
195 3 2 1 6 170 189 190 171
196 3 2 1 6 171 190 191 172
197 3 2 1 6 172 191 192 173
198 3 2 1 6 173 192 193 174
199 3 2 1 6 174 193 194 175
200 3 2 1 6 175 194 56 57
201 3 2 1 6 10 11 195 176
202 3 2 1 6 176 195 196 177
203 3 2 1 6 177 196 197 178
204 3 2 1 6 178 197 198 179
205 3 2 1 6 179 198 199 180
206 3 2 1 6 180 199 200 181
207 3 2 1 6 181 200 201 182
208 3 2 1 6 182 201 202 183
209 3 2 1 6 183 202 203 184
210 3 2 1 6 184 203 204 185
211 3 2 1 6 185 204 205 186
212 3 2 1 6 186 205 206 187
213 3 2 1 6 187 206 207 188
214 3 2 1 6 188 207 208 189
215 3 2 1 6 189 208 209 190
216 3 2 1 6 190 209 210 191
217 3 2 1 6 191 210 211 192
218 3 2 1 6 192 211 212 193
219 3 2 1 6 193 212 213 194
220 3 2 1 6 194 213 55 56
221 3 2 1 6 11 12 214 195
222 3 2 1 6 195 214 215 196
223 3 2 1 6 196 215 216 197
224 3 2 1 6 197 216 217 198
225 3 2 1 6 198 217 218 199
226 3 2 1 6 199 218 219 200
227 3 2 1 6 200 219 220 201
228 3 2 1 6 201 220 221 202
229 3 2 1 6 202 221 222 203
230 3 2 1 6 203 222 223 204
231 3 2 1 6 204 223 224 205
232 3 2 1 6 205 224 225 206
233 3 2 1 6 206 225 226 207
234 3 2 1 6 207 226 227 208
235 3 2 1 6 208 227 228 209
236 3 2 1 6 209 228 229 210
237 3 2 1 6 210 229 230 211
238 3 2 1 6 211 230 231 212
239 3 2 1 6 212 231 232 213
240 3 2 1 6 213 232 54 55
241 3 2 1 6 12 13 233 214
242 3 2 1 6 214 233 234 215
243 3 2 1 6 215 234 235 216
244 3 2 1 6 216 235 236 217
245 3 2 1 6 217 236 237 218
246 3 2 1 6 218 237 238 219
247 3 2 1 6 219 238 239 220
248 3 2 1 6 220 239 240 221
249 3 2 1 6 221 240 241 222
250 3 2 1 6 222 241 242 223
251 3 2 1 6 223 242 243 224
252 3 2 1 6 224 243 244 225
253 3 2 1 6 225 244 245 226
254 3 2 1 6 226 245 246 227
255 3 2 1 6 227 246 247 228
256 3 2 1 6 228 247 248 229
257 3 2 1 6 229 248 249 230
258 3 2 1 6 230 249 250 231
259 3 2 1 6 231 250 251 232
260 3 2 1 6 232 251 53 54
261 3 2 1 6 13 14 252 233
262 3 2 1 6 233 252 253 234
263 3 2 1 6 234 253 254 235
264 3 2 1 6 235 254 255 236
265 3 2 1 6 236 255 256 237
266 3 2 1 6 237 256 257 238
267 3 2 1 6 238 257 258 239
268 3 2 1 6 239 258 259 240
269 3 2 1 6 240 259 260 241
270 3 2 1 6 241 260 261 242
271 3 2 1 6 242 261 262 243
272 3 2 1 6 243 262 263 244
273 3 2 1 6 244 263 264 245
274 3 2 1 6 245 264 265 246
275 3 2 1 6 246 265 266 247
276 3 2 1 6 247 266 267 248
277 3 2 1 6 248 267 268 249
278 3 2 1 6 249 268 269 250
279 3 2 1 6 250 269 270 251
280 3 2 1 6 251 270 52 53
281 3 2 1 6 14 15 271 252
282 3 2 1 6 252 271 272 253
283 3 2 1 6 253 272 273 254
284 3 2 1 6 254 273 274 255
285 3 2 1 6 255 274 275 256
286 3 2 1 6 256 275 276 257
287 3 2 1 6 257 276 277 258
288 3 2 1 6 258 277 278 259
289 3 2 1 6 259 278 279 260
290 3 2 1 6 260 279 280 261
291 3 2 1 6 261 280 281 262
292 3 2 1 6 262 281 282 263
293 3 2 1 6 263 282 283 264
294 3 2 1 6 264 283 284 265
295 3 2 1 6 265 284 285 266
296 3 2 1 6 266 285 286 267
297 3 2 1 6 267 286 287 268
298 3 2 1 6 268 287 288 269
299 3 2 1 6 269 288 289 270
300 3 2 1 6 270 289 51 52
301 3 2 1 6 15 16 290 271
302 3 2 1 6 271 290 291 272
303 3 2 1 6 272 291 292 273
304 3 2 1 6 273 292 293 274
305 3 2 1 6 274 293 294 275
306 3 2 1 6 275 294 295 276
307 3 2 1 6 276 295 296 277
308 3 2 1 6 277 296 297 278
309 3 2 1 6 278 297 298 279
310 3 2 1 6 279 298 299 280
311 3 2 1 6 280 299 300 281
312 3 2 1 6 281 300 301 282
313 3 2 1 6 282 301 302 283
314 3 2 1 6 283 302 303 284
315 3 2 1 6 284 303 304 285
316 3 2 1 6 285 304 305 286
317 3 2 1 6 286 305 306 287
318 3 2 1 6 287 306 307 288
319 3 2 1 6 288 307 308 289
320 3 2 1 6 289 308 50 51
321 3 2 1 6 16 17 309 290
322 3 2 1 6 290 309 310 291
323 3 2 1 6 291 310 311 292
324 3 2 1 6 292 311 312 293
325 3 2 1 6 293 312 313 294
326 3 2 1 6 294 313 314 295
327 3 2 1 6 295 314 315 296
328 3 2 1 6 296 315 316 297
329 3 2 1 6 297 316 317 298
330 3 2 1 6 298 317 318 299
331 3 2 1 6 299 318 319 300
332 3 2 1 6 300 319 320 301
333 3 2 1 6 301 320 321 302
334 3 2 1 6 302 321 322 303
335 3 2 1 6 303 322 323 304
336 3 2 1 6 304 323 324 305
337 3 2 1 6 305 324 325 306
338 3 2 1 6 306 325 326 307
339 3 2 1 6 307 326 327 308
340 3 2 1 6 308 327 49 50
341 3 2 1 6 17 18 328 309
342 3 2 1 6 309 328 329 310
343 3 2 1 6 310 329 330 311
344 3 2 1 6 311 330 331 312
345 3 2 1 6 312 331 332 313
346 3 2 1 6 313 332 333 314
347 3 2 1 6 314 333 334 315
348 3 2 1 6 315 334 335 316
349 3 2 1 6 316 335 336 317
350 3 2 1 6 317 336 337 318
351 3 2 1 6 318 337 338 319
352 3 2 1 6 319 338 339 320
353 3 2 1 6 320 339 340 321
354 3 2 1 6 321 340 341 322
355 3 2 1 6 322 341 342 323
356 3 2 1 6 323 342 343 324
357 3 2 1 6 324 343 344 325
358 3 2 1 6 325 344 345 326
359 3 2 1 6 326 345 346 327
360 3 2 1 6 327 346 48 49
361 3 2 1 6 18 19 347 328
362 3 2 1 6 328 347 348 329
363 3 2 1 6 329 348 349 330
364 3 2 1 6 330 349 350 331
365 3 2 1 6 331 350 351 332
366 3 2 1 6 332 351 352 333
367 3 2 1 6 333 352 353 334
368 3 2 1 6 334 353 354 335
369 3 2 1 6 335 354 355 336
370 3 2 1 6 336 355 356 337
371 3 2 1 6 337 356 357 338
372 3 2 1 6 338 357 358 339
373 3 2 1 6 339 358 359 340
374 3 2 1 6 340 359 360 341
375 3 2 1 6 341 360 361 342
376 3 2 1 6 342 361 362 343
377 3 2 1 6 343 362 363 344
378 3 2 1 6 344 363 364 345
379 3 2 1 6 345 364 365 346
380 3 2 1 6 346 365 47 48
381 3 2 1 6 19 20 366 347
382 3 2 1 6 347 366 367 348
383 3 2 1 6 348 367 368 349
384 3 2 1 6 349 368 369 350
385 3 2 1 6 350 369 370 351
386 3 2 1 6 351 370 371 352
387 3 2 1 6 352 371 372 353
388 3 2 1 6 353 372 373 354
389 3 2 1 6 354 373 374 355
390 3 2 1 6 355 374 375 356
391 3 2 1 6 356 375 376 357
392 3 2 1 6 357 376 377 358
393 3 2 1 6 358 377 378 359
394 3 2 1 6 359 378 379 360
395 3 2 1 6 360 379 380 361
396 3 2 1 6 361 380 381 362
397 3 2 1 6 362 381 382 363
398 3 2 1 6 363 382 383 364
399 3 2 1 6 364 383 384 365
400 3 2 1 6 365 384 46 47
401 3 2 1 6 20 21 385 366
402 3 2 1 6 366 385 386 367
403 3 2 1 6 367 386 387 368
404 3 2 1 6 368 387 388 369
405 3 2 1 6 369 388 389 370
406 3 2 1 6 370 389 390 371
407 3 2 1 6 371 390 391 372
408 3 2 1 6 372 391 392 373
409 3 2 1 6 373 392 393 374
410 3 2 1 6 374 393 394 375
411 3 2 1 6 375 394 395 376
412 3 2 1 6 376 395 396 377
413 3 2 1 6 377 396 397 378
414 3 2 1 6 378 397 398 379
415 3 2 1 6 379 398 399 380
416 3 2 1 6 380 399 400 381
417 3 2 1 6 381 400 401 382
418 3 2 1 6 382 401 402 383
419 3 2 1 6 383 402 403 384
420 3 2 1 6 384 403 45 46
421 3 2 1 6 21 22 404 385
422 3 2 1 6 385 404 405 386
423 3 2 1 6 386 405 406 387
424 3 2 1 6 387 406 407 388
425 3 2 1 6 388 407 408 389
426 3 2 1 6 389 408 409 390
427 3 2 1 6 390 409 410 391
428 3 2 1 6 391 410 411 392
429 3 2 1 6 392 411 412 393
430 3 2 1 6 393 412 413 394
431 3 2 1 6 394 413 414 395
432 3 2 1 6 395 414 415 396
433 3 2 1 6 396 415 416 397
434 3 2 1 6 397 416 417 398
435 3 2 1 6 398 417 418 399
436 3 2 1 6 399 418 419 400
437 3 2 1 6 400 419 420 401
438 3 2 1 6 401 420 421 402
439 3 2 1 6 402 421 422 403
440 3 2 1 6 403 422 44 45
441 3 2 1 6 22 23 423 404
442 3 2 1 6 404 423 424 405
443 3 2 1 6 405 424 425 406
444 3 2 1 6 406 425 426 407
445 3 2 1 6 407 426 427 408
446 3 2 1 6 408 427 428 409
447 3 2 1 6 409 428 429 410
448 3 2 1 6 410 429 430 411
449 3 2 1 6 411 430 431 412
450 3 2 1 6 412 431 432 413
451 3 2 1 6 413 432 433 414
452 3 2 1 6 414 433 434 415
453 3 2 1 6 415 434 435 416
454 3 2 1 6 416 435 436 417
455 3 2 1 6 417 436 437 418
456 3 2 1 6 418 437 438 419
457 3 2 1 6 419 438 439 420
458 3 2 1 6 420 439 440 421
459 3 2 1 6 421 440 441 422
460 3 2 1 6 422 441 43 44
461 3 2 1 6 23 2 24 423
462 3 2 1 6 423 24 25 424
463 3 2 1 6 424 25 26 425
464 3 2 1 6 425 26 27 426
465 3 2 1 6 426 27 28 427
466 3 2 1 6 427 28 29 428
467 3 2 1 6 428 29 30 429
468 3 2 1 6 429 30 31 430
469 3 2 1 6 430 31 32 431
470 3 2 1 6 431 32 33 432
471 3 2 1 6 432 33 34 433
472 3 2 1 6 433 34 35 434
473 3 2 1 6 434 35 36 435
474 3 2 1 6 435 36 37 436
475 3 2 1 6 436 37 38 437
476 3 2 1 6 437 38 39 438
477 3 2 1 6 438 39 40 439
478 3 2 1 6 439 40 41 440
479 3 2 1 6 440 41 42 441
480 3 2 1 6 441 42 3 43
$EndElements
