
0                         0
2.0000000000000003E-6     2.0377826146090434E-6
4.000000000000001E-6      4.034321809801109E-6
6.0E-6                    5.9896233209844565E-6
8.000000000000001E-6      7.903692654376882E-6
1.0E-5                    9.776535093931159E-6
1.2E-5                    1.1608155708115584E-5
1.4000000000000001E-5     1.3398559356549475E-5
1.6000000000000003E-5     1.5147750696493535E-5
1.8000000000000004E-5     1.685573418919514E-5
2.0E-5                    1.8522514106088426E-5
2.2E-5                    2.0148094534849117E-5
2.4E-5                    2.173247938530429E-5
2.6000000000000002E-5     2.3275672395196278E-5
2.8000000000000003E-5     2.4777677135801806E-5
3.0000000000000008E-5     2.6238497017405753E-5
3.2000000000000005E-5     2.7658135294628665E-5
3.4000000000000007E-5     2.903659507160983E-5
3.600000000000001E-5      3.037387930704417E-5
3.8E-5                    3.166999081907373E-5
4.0E-5                    3.292493229003375E-5
4.2E-5                    3.413870627105275E-5
4.4E-5                    3.531131518650712E-5
4.6E-5                    3.644276133833033E-5
4.8E-5                    3.753304691017553E-5
5.0E-5                    3.858217397143361E-5
5.2000000000000004E-5     3.95901444811044E-5
5.4000000000000005E-5     4.055696029152241E-5
5.6000000000000006E-5     4.148262315193693E-5
5.800000000000001E-5      4.2367134711945974E-5
6.0000000000000015E-5     4.3210496524784146E-5
6.200000000000002E-5      4.4012710050465065E-5
6.400000000000001E-5      4.4773776658777316E-5
6.600000000000002E-5      4.549369763213475E-5
6.800000000000001E-5      4.617247416828045E-5
7.0E-5                    4.6810107382845164E-5
7.200000000000002E-5      4.7406598311758976E-5
7.4E-5                    4.796194791351741E-5
7.6E-5                    4.8476157071301415E-5
7.800000000000001E-5      4.894922659495083E-5
8.0E-5                    4.9381157222792044E-5
8.200000000000001E-5      4.9771949623319556E-5
8.4E-5                    5.01216043967313E-5
8.600000000000002E-5      5.043012207631739E-5
8.8E-5                    5.069750312970356E-5
9.000000000000002E-5      5.092374795994742E-5
9.2E-5                    5.1108856906489165E-5
9.4E-5                    5.12528302459559E-5
9.6E-5                    5.135566819281961E-5
9.8E-5                    5.14173708999088E-5
1.0E-4                    5.143793845877436E-5
