[Info]
Version 1
Dimension 2
NumNodes 9
Num3DElements 0
Num2DElements 4
Num1DElements 0
NumNodeBC 16
NumSaveNodes 0
NumSaveElements 0
Num 2d-line      : 0
Num 2d-line,quad : 0
Num 3d-line      : 0
Num 3d-line,quad : 0
Num triangle     : 0
Num triangle,quad: 0
Num quadr        : 4
Num quadr,quad   : 0
Num tetra        : 0
Num tetra,quad   : 0
Num brick        : 0
Num brick,quad   : 0
Num pyramid      : 0
Num pyramid,quad : 0
Num wedge        : 0
Num wedge,quad   : 0

[Nodes]
#NodeNr x-coord y-coord z-coord
1  0.0  0.0  0.0
2  0.5  0.0  0.0
3  1.0  0.0  0.0
4  0.0  0.5  0.0
5  0.5  0.5  0.0
6  1.0  0.5  0.0
7  0.0  1.0  0.0
8  0.5  1.0  0.0
9  1.0  1.0  0.0

[1D Elements]
#ElemNr  ElemType  NrOfNodes  Level
#Node1 Node2 ... NodeNrOfNodes

[2D Elements]
#ElemNr  ElemType  NrOfNodes  Level
#Node1 Node2 ... NodeNrOfNodes
1 6 4 mech
1 2 5 4
2 6 4 mech
2 3 6 5
3 6 4 mech
4 5 8 7
4 6 4 mech
5 6 9 8

[3D Elements]
#ElemNr  ElemType  NrOfNodes  Level
#Node1 Node2 ... NodeNrOfNodes

[Node BC]
#NodeNr Level
1 bottom
2 bottom
3 bottom
7 top
8 top
9 top
1 left
4 left
7 left
3 right
6 right
9 right
1 bottom_left
3 bottom_right
7 top_left
9 top_right

[Save Nodes]
#NodeNr Level

[Save Elements]
#ElemNr Level

 
