[Info]
Version 1
Dimension 3
NumNodes 252
Num3DElements 981
Num2DElements 0
Num1DElements 0
NumNodeBC 28
NumSaveNodes 0
NumSaveElements 0
Num 2d-line      : 0
Num 2d-line,quad : 0
Num 3d-line      : 0
Num 3d-line,quad : 0
Num triangle     : 0
Num triangle,quad: 0
Num quadr        : 0
Num quadr,quad   : 0
Num tetra        : 981
Num tetra,quad   : 0
Num brick        : 0
Num brick,quad   : 0
Num pyramid      : 0
Num pyramid,quad : 0
Num wedge        : 0
Num wedge,quad   : 0

[Nodes]
#NodeNr x-coord y-coord z-coord
1  0.25  0.4330127018922193  0.5
2  0.25  0.4330127018922193  -0.5
3  0.25  -0.4330127018922193  -0.5
4  0.25  -0.4330127018922193  0.5
5  -0.5  -6.123233995736765e-17  0.5
6  0.0  0.0  1.5
7  0.25  0.4330127018922193  0.29999999999999993
8  0.25  0.4330127018922193  0.09999999999999998
9  0.25  0.4330127018922193  -0.09999999999999998
10  0.25  0.4330127018922193  -0.29999999999999993
11  0.05226423290367369  -0.49726094755067035  -0.5
12  -0.1545084959030902  -0.4755282585648983  -0.5
13  -0.33456530212110536  -0.3715724136916161  -0.5
14  -0.4567727282121109  -0.20336832290616225  -0.5
15  -0.5  -1.5713804203989362e-09  -0.5
16  -0.4567727295171491  0.20336831997499843  -0.5
17  -0.3345653045055261  0.3715724115446741  -0.5
18  -0.15450849895460392  0.4755282575734014  -0.5
19  0.05226422971270797  0.49726094788605435  -0.5
20  0.25  -0.4330127018922193  -0.29999999999999993
21  0.25  -0.4330127018922193  -0.09999999999999998
22  0.25  -0.4330127018922193  0.09999999999999998
23  0.25  -0.4330127018922193  0.29999999999999993
24  0.052264234292961655  0.4972609474046503  0.5
25  -0.15450849324595056  0.4755282594282553  0.5
26  -0.33456529900671395  0.3715724164958266  0.5
27  -0.456772725939359  0.20336832801084637  0.5
28  -0.45677272620036524  -0.2033683274246168  0.5
29  -0.33456529996047707  -0.3715724156370545  0.5
30  -0.1545084950768495  -0.47552825883336014  0.5
31  0.052264231740196364  -0.49726094767295675  0.5
32  0.25  -0.3331260404400713  0.6669982981547276
33  0.25  -0.22431092224824703  0.8282399540316228
34  0.24999999999999997  -0.09041856709979096  0.9683026527191266
35  0.25  0.09041856709979162  0.9683026527191263
36  0.24999999999999997  0.2243109222482474  0.828239954031622
37  0.25  0.33312604044007144  0.6669982981547276
38  0.25  0.21650635094610962  -0.5
39  0.25  -2.42861286636753e-17  -0.5
40  0.25  -0.21650635094610968  -0.5
41  -0.4166666666666667  -5.102694996447304e-17  0.6666666666666666
42  -0.3333333333333333  -4.082155997157843e-17  0.8333333333333334
43  -0.24999999999999994  -3.061616997868382e-17  1.0
44  -0.16666666666666663  -2.0410779985789213e-17  1.1666666666666667
45  -0.08333333333333329  -1.0205389992894602e-17  1.3333333333333335
46  -0.40450849821470114  0.2938926247323792  -0.32884969648121554
47  -0.2422166646917171  0.4374140913889495  -0.31705995270613085
48  -0.0535154939540534  0.4971278426188315  -0.32695843741764774
49  0.07932718622823878  -0.49366709179882584  -0.22352492933817114
50  0.07722596103098137  -0.4940001527761315  -0.012622633738086808
51  -0.40450849402068056  -0.2938926305049533  0.3288496981471689
52  -0.4890738007081056  0.10395584380364692  -0.32884969653498364
53  0.07926836657164199  0.4936765399135995  0.22260801628254123
54  0.07127974470664805  0.49489311774822153  0.00776651711851617
55  0.08530316775555269  0.4926696353245935  -0.21840335583088688
56  -0.05876907693396914  -0.49653418371379954  -0.3333437483768449
57  -0.24999999879856466  -0.4330127025858683  -0.3288496964812182
58  -0.4045084963287593  -0.29389262732815546  -0.3288496964812182
59  -0.48907380004784884  -0.10395584690991075  -0.32884969648121554
60  -0.059536024219675895  0.49644280820665954  0.3319035633735776
61  -0.24999999577409687  0.43301270433204553  0.3288496976227768
62  0.07260277916608551  -0.49470075445400385  0.2097566198712313
63  -0.4045084934549009  0.29389263128368204  0.32884969762277727
64  -0.4890737996303214  0.1039558488742228  0.3288497107915429
65  -0.4890737996970308  -0.10395584856037965  0.328849711315935
66  -0.24999999716343407  -0.4330127035299114  0.328849698147168
67  -0.057021931978141524  -0.4967378577011019  0.3351253428909482
68  -0.15279524639451886  -0.4760815189431724  0.17519532471788368
69  -0.5  -2.3053064440371616e-10  0.16012168415252503
70  -0.45677310139810634  0.2033674847146298  0.1601278195351643
71  -0.3312799100742052  0.374504500882468  0.1618440372927692
72  -0.13170156708055708  0.4823429249284429  0.13757648339112283
73  -0.45712820652725406  -0.2025680201739063  -0.158910525361442
74  -0.3321668718939227  -0.37371803437378603  -0.1611182062263068
75  -0.13401355622333794  -0.4817056847789677  -0.15112472215656503
76  -0.10866824690002844  0.4880483706720825  -0.1123892593832787
77  -0.5  -1.5438920640229571e-09  -0.15769939301619917
78  -0.45641622368804224  -0.20416716375153704  0.15891668847490026
79  -0.33510277477516626  -0.37108776635451646  0.15893161149230206
80  -0.3288157459706409  0.37666988889712283  -0.15827545417605027
81  -0.4567727295283296  0.20336831994988663  -0.15769939301619917
82  -0.4045679454495612  0.2938107852253229  0.011054893399659704
83  -0.40463623956042305  -0.29371672345033395  -0.008962479862093087
84  -0.4890749559608306  0.10395040861830035  0.0112230137809326
85  -0.2531297458490819  0.4311905979568422  -0.006807940446861949
86  -0.25558263805927417  -0.4297412187848194  0.007363013787103245
87  -0.48905095049090197  -0.10406328758954944  0.00919332968846609
88  -0.0817354918623765  -0.4932740712524989  0.036176925851646224
89  0.25  -0.12506400647761118  0.6462202368502525
90  0.25  -0.00830254286251031  0.7934608837648047
91  0.25  -0.2419375156867396  0.4644290729263707
92  0.25  0.12163461976479728  0.6507967063420337
93  0.25  -0.259207931780417  0.21235806151072123
94  0.25  -0.09171319122781552  -0.3097358720106833
95  0.25  0.2555979132888966  -0.1884058057212552
96  0.25  0.24147710017020607  0.4656804951222502
97  0.25  -0.2598076235669904  -4.440892098500626e-16
98  0.25  0.10675865551794628  -0.32678697855242267
99  0.25  -0.2569616229573015  -0.19058536474760923
100  0.25  0.26024892096352037  0.2147113424313527
101  0.25  0.2598076235669904  -4.440892098500626e-16
102  0.25  -9.30773270029217e-05  0.4890720936432469
103  0.25  0.09608520785798413  0.10671779029218542
104  0.25  -0.09356264143018223  -0.10325932693287365
105  0.25  0.07204203482600202  -0.10618072472423723
106  0.25  -0.08660254524176114  0.09999999999999987
107  0.25  0.2949702243266268  -0.34909590363190524
108  0.25  -0.2911455982298876  -0.34924583767861805
109  0.25  -0.00016442828625473638  0.26905366316000756
110  0.25  -0.12618073496132398  0.3312643219610809
111  0.25  0.12656129958875617  0.3333027541067406
112  0.11292182523564087  -0.30529065013127143  -0.5
113  0.07235197674549221  -0.10288580088586219  -0.5
114  0.08737074574451653  0.10872984016360698  -0.5
115  -0.028531173088400363  -0.309712051470478  -0.5
116  0.051562267003208984  0.30928968379309607  -0.5
117  -0.16792274334524948  -0.29539601797062287  -0.5
118  -0.2751149198158973  -0.19873614402862383  -0.5
119  -0.31064854347622894  -0.06602789431260536  -0.5
120  -0.3106485434762305  0.06602789431259337  -0.5
121  -0.26238593350010864  0.19687217962664882  -0.5
122  -0.1370132655294256  0.28893267550361323  -0.5
123  -0.1106395773401041  -0.11705843098113278  -0.5
124  -0.09205225837636055  0.08538038268725456  -0.5
125  0.04151542544495756  -0.07225589176370756  1.3333333333333333
126  0.04196860013631343  0.07199361809940297  1.3333333333333333
127  0.10797381048916647  0.4222675388560328  0.6282931269673695
128  0.09510237466269743  0.3397635921830602  0.7943548760471141
129  -0.0509626347289952  0.4142987600323376  0.6651571340596998
130  -0.3547857381604983  0.20604549368953518  0.6794449062449153
131  0.08775644100176963  0.2510527642024625  0.968102704082849
132  0.1079696631008698  -0.42226891354607526  0.628292518105992
133  0.0951023743496705  -0.33976359293090874  0.7943548747755281
134  -0.0509838239737099  -0.4142608173397504  0.6652272762242879
135  -0.35474892638655814  -0.2060430263260597  0.6795110495076316
136  0.17324661008378459  0.0002778450729256558  1.1535063342373633
137  -0.22181371663220464  -0.34592457571965807  0.6781359310128774
138  0.08781260182523572  -0.2510929587812892  0.9679897482609585
139  -0.2556365810361969  -0.1864012285266083  0.867242607123062
140  -0.13336121245494464  -0.18781246605981938  1.039310363064574
141  -0.058809035103740664  -0.13284449548441923  1.2094407971490637
142  -0.22184934257811925  0.3459525413665931  0.6780503867502631
143  -0.2560467375911527  0.18634629646480486  0.8666442578227569
144  -0.13504813366900648  0.18856544732014538  1.0361253344683357
145  -0.07121380147523426  0.13046707825385895  1.2027252851071748
146  -0.0942290936543244  -0.31186836689632147  0.8484142409122372
147  -0.09418111911841746  0.31216246375612383  0.8478788855536392
148  0.08484828918359667  0.16229682865619635  1.133724187152676
149  0.08800680802390018  -0.1615253919771689  1.1321106116673998
150  -0.05095429894392092  0.2050597917882361  -0.368929487176193
151  -0.14232475593329025  0.018330892612967338  -0.3801604981829207
152  0.03364325003968541  0.05167895484450782  -0.37369168981030226
153  -0.015472351049445684  0.03255859581687177  -0.21362189547725452
154  -0.11673415621688109  -0.0407380655738997  -0.11406869815873942
155  -0.22922914543430287  0.06412942469889282  -0.3062461687490223
156  -0.16781075835287582  0.12667599239949928  -0.09013167421427698
157  0.097178317690666  0.14986083821541776  -0.27808474113324017
158  0.12591772118937403  0.011209635250313727  -0.269811617366038
159  -0.10495579799635212  -0.11993090204357781  -0.2644690689106678
160  -0.005444226034179611  -0.21910089507203714  -0.11669459473552932
161  0.0958932113409417  -0.11520403447290421  -0.2297333760222925
162  0.089058492908923  -0.09664563851297865  -0.057194976003354034
163  0.07413019810228864  0.08269286187562631  -0.059038774541318804
164  -0.2556151340609517  0.2511631284991986  0.055265000982084006
165  -0.13215126616447423  0.25890235516872945  -0.18037883092501572
166  -0.060204300694153806  0.20553169066196494  -0.021720553879524665
167  -0.1528204678098156  0.08053840574767687  0.05225402013784821
168  0.09748813756229877  0.30406438827820004  -0.22284617260728215
169  0.11631080196313624  -0.24861147762406396  0.6654296189141576
170  -0.3356715425863828  -0.008156283586730843  -0.1287802843562441
171  -0.2955306810928314  0.1737842500318615  -0.08914816102885348
172  0.11171803033753662  0.28041832083180573  0.36941735283336935
173  -0.005768691555260219  -0.12911180601814676  -0.3664260928560119
174  -0.19388459628385926  -0.1251384716643418  -0.37259358613502286
175  -0.11735956882359702  -0.23102892073053238  -0.3829484821538471
176  -0.10088519422693139  0.41066210706485506  -0.23603715255717655
177  -0.16425737743872082  0.3083182201890009  0.480629856871079
178  -0.06049408454600071  0.3322080350121191  0.33448721609402304
179  -0.32452248892209956  0.1811988417523747  -0.2917720831002796
180  -0.0766228041543023  0.1903107454213459  0.16850463893261677
181  0.04856996334271345  0.10410942924116208  0.10506142697289429
182  0.04112496304456565  0.3471219242904303  -0.053011880562401956
183  0.08078688211745311  0.04320827799160316  0.44591244258552754
184  -0.001128962670382248  0.14869906476858247  0.5582937687968086
185  -0.35801731843680706  -0.04869774199628653  -0.2674907383187942
186  -0.25987665376756347  -0.26611187877054304  -0.2692995466869871
187  0.06999004133128921  0.11537088393359766  0.3068614119595654
188  -0.09825185591506408  0.1517327284890439  0.3934398956245352
189  0.06775206080183545  0.08692220834537047  0.7197501587263552
190  -0.0004921508982381527  0.2810041308254697  0.6540068800357328
191  0.12129957794820352  0.29838373434863064  0.5568281208372902
192  -0.20368845972636843  0.19978537688143244  0.5757160707994443
193  -0.062302917894631625  0.013223286685030415  0.5972478835655279
194  -0.1866506584741273  -0.025134080467389235  0.8042344831448655
195  -0.1861709095551702  -0.3135483789774186  0.14769070537067153
196  -0.00015577538815262292  -0.21018022365262043  0.19176225846610495
197  -0.13867995979980538  -0.11894877386952023  0.026983143440116177
198  -0.10018328890700469  -0.07486465337008504  0.21538016114352823
199  -0.3403897207912625  -0.029752154556052877  0.20843535874376365
200  -0.2730970907541734  -0.1512082218678623  0.18746330663201624
201  -0.08041111773806296  -0.3289389059925081  0.32961587152563004
202  0.06820757703911788  -0.3250455245905816  0.40580065642305424
203  -0.08114517731582482  -0.16884987726965875  0.32195084708196126
204  -0.06029129319265612  -0.15229920951811224  0.4569667783935131
205  -0.2765899738313808  -0.1853823381376042  0.4736735742506434
206  -0.18392294544047885  -0.31297129869171275  0.45493817915401913
207  0.1645897286172481  0.13444971111781417  0.19324353797971705
208  0.07736349413821798  -0.1037214645882537  0.3327831117401785
209  -0.11945514643947568  -0.02582690314555041  0.3799373291495582
210  -0.1889934135151844  -0.16521730127393178  0.6640838069986827
211  -0.053490124441034174  -0.25842579308706104  0.6838768368320778
212  -0.29628342452419804  -0.07690327567119949  0.31319211615859105
213  -0.23684264177349523  -0.22828581246630064  0.30450447002571146
214  0.1141628328117594  -0.2540746357619607  0.2880392570564342
215  -0.19406836248470574  -0.23701564469255681  -0.03414137468045589
216  -0.2982008902442548  -0.24880429309721094  0.07542917557511979
217  -0.3095718741989352  -0.1169047465352164  -0.02966296503883301
218  -0.10091284107742948  0.07461885539524006  0.21579306500282008
219  -0.2963472442146876  0.07696079529798838  0.313225514489374
220  -0.23671577159672763  0.22841537178904595  0.30467369989372334
221  -0.2740442537865606  0.15077669780567113  0.18820785345119317
222  0.07755743583759193  0.011365454724091315  0.2388599648192306
223  -0.3081303254270233  0.05729474103441695  0.032945534085673814
224  -0.06989515127393438  -0.3196933808931565  0.03202654724443082
225  0.13353659770738457  -0.3205569425802572  -0.0008177149031061109
226  0.12294597528260408  -0.20373941688556527  0.12096775973717522
227  0.04005991772346364  -0.3683137262256148  0.10223002503695183
228  -0.030813554838503666  -0.3708686687515629  0.22557521212428266
229  0.06425419922921811  -0.11852322160507123  0.06444232337207478
230  -0.30984045409171446  -0.01672533791246788  0.515736457189589
231  0.10442000730318304  -0.10493545307611965  0.5125311366387563
232  -0.08818381917040058  0.10810928645369096  0.8639728655001198
233  0.11529827317142746  0.01795528349971495  0.8820977454063513
234  -0.013481371637837263  -0.09001232380888605  1.0141258242905338
235  0.12885732167274216  -0.00271107999665721  1.0070554035771593
236  -0.07591719309829277  -0.0001758450114802985  0.9956066014850962
237  -0.012904627926973585  0.07860811154620495  1.0368212070905414
238  0.004922931102810295  0.002635808545150705  1.1802059222758954
239  -0.27769496309818414  0.19004048171434937  0.4526135681475944
240  0.08033436897209033  -0.365956599646306  -0.3653416733816153
241  0.12475639720867705  -0.23343688471072865  -0.2886874464713159
242  -0.2542303880261949  -0.1796396896087741  -0.14067164019415154
243  -0.1413164105823035  -0.33093790906598036  -0.12599410370907904
244  -0.11298278101491346  -0.34704003225040747  -0.28021607000816373
245  0.14537755903883456  -0.264334489380398  -0.09197069254378479
246  0.07816212439995834  0.32608803860538305  0.1593288524705722
247  -0.1819040778825454  0.31081457879477387  0.20581890258297458
248  -0.15949165105699234  0.33164517282045064  0.060419368956423414
249  0.07430348510064373  0.37119096782167876  -0.39407494891544564
250  0.09566281249409998  -0.07804598435582591  0.7228489288551904
251  -0.07682274508918516  -0.16015813935365744  0.8084507608683343
252  0.05388761419203275  -0.36399915455920107  -0.13514993582664703

[1D Elements]
#ElemNr  ElemType  NrOfNodes  Level
#Node1 Node2 ... NodeNrOfNodes

[2D Elements]
#ElemNr  ElemType  NrOfNodes  Level
#Node1 Node2 ... NodeNrOfNodes

[3D Elements]
#ElemNr  ElemType  NrOfNodes  Level
#Node1 Node2 ... NodeNrOfNodes
1 8 4 mech
150 151 152 153
2 8 4 mech
154 155 156 153
3 8 4 mech
157 152 158 153
4 8 4 mech
159 151 155 153
5 8 4 mech
154 160 159 153
6 8 4 mech
161 159 160 153
7 8 4 mech
162 163 158 153
8 8 4 mech
164 165 166 156
9 8 4 mech
163 167 166 156
10 8 4 mech
163 165 168 157
11 8 4 mech
89 32 33 169
12 8 4 mech
170 155 171 156
13 8 4 mech
96 1 7 172
14 8 4 mech
173 174 175 159
15 8 4 mech
150 155 151 153
16 8 4 mech
119 155 174 151
17 8 4 mech
173 151 159 153
18 8 4 mech
113 123 173 151
19 8 4 mech
113 173 152 151
20 8 4 mech
48 150 168 176
21 8 4 mech
48 168 55 176
22 8 4 mech
47 150 48 176
23 8 4 mech
25 24 177 178
24 8 4 mech
55 168 76 176
25 8 4 mech
76 165 80 176
26 8 4 mech
80 165 179 176
27 8 4 mech
164 180 167 166
28 8 4 mech
164 166 167 156
29 8 4 mech
165 156 155 153
30 8 4 mech
181 180 182 166
31 8 4 mech
163 182 168 166
32 8 4 mech
165 168 182 166
33 8 4 mech
92 96 183 184
34 8 4 mech
118 174 185 186
35 8 4 mech
187 183 172 188
36 8 4 mech
92 189 190 184
37 8 4 mech
178 172 191 184
38 8 4 mech
192 188 177 184
39 8 4 mech
192 190 189 184
40 8 4 mech
192 189 193 184
41 8 4 mech
177 178 191 184
42 8 4 mech
164 171 165 156
43 8 4 mech
80 164 82 171
44 8 4 mech
80 85 164 165
45 8 4 mech
41 42 135 194
46 8 4 mech
195 196 197 198
47 8 4 mech
199 200 197 198
48 8 4 mech
201 202 203 204
49 8 4 mech
205 206 203 204
50 8 4 mech
100 103 111 207
51 8 4 mech
208 203 202 204
52 8 4 mech
208 183 209 204
53 8 4 mech
183 193 209 204
54 8 4 mech
210 193 211 204
55 8 4 mech
205 203 209 204
56 8 4 mech
206 201 203 204
57 8 4 mech
212 209 213 198
58 8 4 mech
213 209 203 198
59 8 4 mech
195 203 196 198
60 8 4 mech
201 202 214 203
61 8 4 mech
213 209 205 203
62 8 4 mech
208 196 203 198
63 8 4 mech
195 201 196 203
64 8 4 mech
208 196 214 203
65 8 4 mech
86 195 215 216
66 8 4 mech
86 215 83 216
67 8 4 mech
200 217 215 216
68 8 4 mech
200 215 217 197
69 8 4 mech
87 217 200 216
70 8 4 mech
78 87 199 200
71 8 4 mech
78 200 79 216
72 8 4 mech
87 83 217 216
73 8 4 mech
187 209 188 218
74 8 4 mech
219 220 188 218
75 8 4 mech
199 167 221 218
76 8 4 mech
220 180 188 218
77 8 4 mech
199 218 212 198
78 8 4 mech
222 209 218 198
79 8 4 mech
200 195 197 198
80 8 4 mech
223 167 154 156
81 8 4 mech
199 197 167 198
82 8 4 mech
217 215 154 197
83 8 4 mech
222 218 181 198
84 8 4 mech
195 224 215 197
85 8 4 mech
224 225 226 227
86 8 4 mech
201 214 228 196
87 8 4 mech
229 226 224 225
88 8 4 mech
224 228 227 196
89 8 4 mech
230 192 193 209
90 8 4 mech
183 231 193 204
91 8 4 mech
187 183 188 209
92 8 4 mech
43 143 144 232
93 8 4 mech
222 209 187 218
94 8 4 mech
92 191 96 184
95 8 4 mech
230 192 194 193
96 8 4 mech
183 231 189 193
97 8 4 mech
192 189 232 193
98 8 4 mech
92 190 191 184
99 8 4 mech
131 144 147 232
100 8 4 mech
138 233 234 235
101 8 4 mech
236 237 238 235
102 8 4 mech
236 233 237 235
103 8 4 mech
148 238 237 235
104 8 4 mech
131 148 237 235
105 8 4 mech
131 237 233 235
106 8 4 mech
34 35 233 235
107 8 4 mech
25 142 26 177
108 8 4 mech
229 197 196 198
109 8 4 mech
239 192 230 209
110 8 4 mech
96 191 172 184
111 8 4 mech
219 188 209 218
112 8 4 mech
221 180 220 218
113 8 4 mech
187 178 180 188
114 8 4 mech
67 201 202 228
115 8 4 mech
26 63 61 177
116 8 4 mech
67 68 201 228
117 8 4 mech
195 228 224 196
118 8 4 mech
68 224 195 228
119 8 4 mech
108 240 20 241
120 8 4 mech
94 113 40 241
121 8 4 mech
112 115 240 241
122 8 4 mech
94 99 161 241
123 8 4 mech
163 154 156 153
124 8 4 mech
154 159 155 153
125 8 4 mech
121 124 150 151
126 8 4 mech
170 154 159 155
127 8 4 mech
170 185 179 155
128 8 4 mech
121 150 179 155
129 8 4 mech
120 179 185 155
130 8 4 mech
113 152 173 158
131 8 4 mech
39 98 152 158
132 8 4 mech
121 17 16 46
133 8 4 mech
39 152 113 158
134 8 4 mech
162 158 161 153
135 8 4 mech
104 162 105 158
136 8 4 mech
104 161 162 158
137 8 4 mech
94 161 104 158
138 8 4 mech
84 223 170 171
139 8 4 mech
40 113 112 241
140 8 4 mech
173 161 159 241
141 8 4 mech
242 160 243 159
142 8 4 mech
173 152 151 153
143 8 4 mech
123 174 173 151
144 8 4 mech
123 173 174 175
145 8 4 mech
185 186 174 159
146 8 4 mech
170 242 185 159
147 8 4 mech
170 154 242 159
148 8 4 mech
94 105 98 158
149 8 4 mech
244 175 159 241
150 8 4 mech
173 159 161 153
151 8 4 mech
242 154 215 160
152 8 4 mech
163 156 165 153
153 8 4 mech
215 224 160 197
154 8 4 mech
162 225 229 160
155 8 4 mech
162 245 225 160
156 8 4 mech
162 160 229 197
157 8 4 mech
195 196 224 197
158 8 4 mech
217 154 223 197
159 8 4 mech
221 164 180 167
160 8 4 mech
84 82 223 171
161 8 4 mech
181 167 180 166
162 8 4 mech
181 246 182 180
163 8 4 mech
183 188 193 184
164 8 4 mech
187 246 181 180
165 8 4 mech
187 181 246 207
166 8 4 mech
247 246 178 180
167 8 4 mech
220 247 178 180
168 8 4 mech
101 100 246 207
169 8 4 mech
101 181 103 207
170 8 4 mech
109 222 187 207
171 8 4 mech
100 187 246 207
172 8 4 mech
100 187 111 172
173 8 4 mech
162 161 245 160
174 8 4 mech
41 130 42 194
175 8 4 mech
173 161 158 153
176 8 4 mech
229 160 224 197
177 8 4 mech
163 167 154 197
178 8 4 mech
163 154 167 156
179 8 4 mech
164 248 180 166
180 8 4 mech
181 167 163 197
181 8 4 mech
181 163 167 166
182 8 4 mech
213 206 201 203
183 8 4 mech
20 11 49 240
184 8 4 mech
107 157 168 249
185 8 4 mech
116 122 150 249
186 8 4 mech
116 150 157 249
187 8 4 mech
19 48 18 249
188 8 4 mech
106 222 181 229
189 8 4 mech
181 163 229 197
190 8 4 mech
53 72 54 246
191 8 4 mech
71 82 85 164
192 8 4 mech
221 247 220 180
193 8 4 mech
199 212 200 198
194 8 4 mech
187 180 181 218
195 8 4 mech
222 181 229 198
196 8 4 mech
30 66 206 201
197 8 4 mech
131 144 232 237
198 8 4 mech
29 210 137 206
199 8 4 mech
70 221 199 223
200 8 4 mech
44 237 145 238
201 8 4 mech
236 233 232 237
202 8 4 mech
35 131 233 235
203 8 4 mech
44 236 237 238
204 8 4 mech
148 145 237 238
205 8 4 mech
144 236 232 237
206 8 4 mech
93 214 226 227
207 8 4 mech
128 131 147 232
208 8 4 mech
93 226 225 227
209 8 4 mech
93 214 110 226
210 8 4 mech
93 226 97 225
211 8 4 mech
97 106 229 226
212 8 4 mech
201 214 196 203
213 8 4 mech
131 148 144 237
214 8 4 mech
91 214 23 202
215 8 4 mech
62 202 214 228
216 8 4 mech
91 208 214 202
217 8 4 mech
89 33 90 250
218 8 4 mech
110 214 208 226
219 8 4 mech
39 98 114 152
220 8 4 mech
174 155 159 151
221 8 4 mech
165 155 150 153
222 8 4 mech
163 157 158 153
223 8 4 mech
124 152 150 151
224 8 4 mech
113 152 124 151
225 8 4 mech
114 116 150 157
226 8 4 mech
139 140 146 251
227 8 4 mech
96 100 111 172
228 8 4 mech
170 223 154 156
229 8 4 mech
94 113 173 158
230 8 4 mech
107 116 38 157
231 8 4 mech
95 168 107 157
232 8 4 mech
98 107 38 157
233 8 4 mech
250 211 251 193
234 8 4 mech
133 134 146 211
235 8 4 mech
138 233 250 251
236 8 4 mech
236 232 233 251
237 8 4 mech
138 233 251 234
238 8 4 mech
138 251 140 234
239 8 4 mech
73 185 242 186
240 8 4 mech
74 243 244 186
241 8 4 mech
118 175 174 186
242 8 4 mech
18 48 122 249
243 8 4 mech
242 186 185 159
244 8 4 mech
162 161 160 153
245 8 4 mech
208 202 231 204
246 8 4 mech
206 202 201 204
247 8 4 mech
222 226 208 196
248 8 4 mech
208 214 202 203
249 8 4 mech
62 227 68 228
250 8 4 mech
30 67 201 202
251 8 4 mech
31 67 30 202
252 8 4 mech
62 214 227 228
253 8 4 mech
66 68 195 201
254 8 4 mech
143 147 232 190
255 8 4 mech
183 193 189 184
256 8 4 mech
192 193 188 184
257 8 4 mech
192 177 190 184
258 8 4 mech
128 189 232 190
259 8 4 mech
142 192 177 190
260 8 4 mech
133 251 250 211
261 8 4 mech
134 30 206 202
262 8 4 mech
210 211 206 204
263 8 4 mech
137 206 210 211
264 8 4 mech
137 210 139 251
265 8 4 mech
133 211 250 169
266 8 4 mech
133 134 211 169
267 8 4 mech
115 244 240 241
268 8 4 mech
117 244 175 186
269 8 4 mech
115 173 175 241
270 8 4 mech
118 123 174 175
271 8 4 mech
115 173 123 175
272 8 4 mech
119 120 59 185
273 8 4 mech
21 99 49 252
274 8 4 mech
119 185 174 155
275 8 4 mech
77 170 185 179
276 8 4 mech
77 170 73 185
277 8 4 mech
119 120 15 59
278 8 4 mech
107 116 157 249
279 8 4 mech
95 105 163 157
280 8 4 mech
121 179 120 155
281 8 4 mech
165 150 157 153
282 8 4 mech
223 154 167 197
283 8 4 mech
165 150 179 176
284 8 4 mech
48 168 150 249
285 8 4 mech
54 246 248 182
286 8 4 mech
248 165 182 166
287 8 4 mech
54 248 76 182
288 8 4 mech
72 247 71 248
289 8 4 mech
71 247 164 248
290 8 4 mech
53 178 246 172
291 8 4 mech
96 1 172 191
292 8 4 mech
187 172 178 188
293 8 4 mech
177 188 178 184
294 8 4 mech
111 187 183 172
295 8 4 mech
100 7 246 172
296 8 4 mech
100 111 187 207
297 8 4 mech
183 172 188 184
298 8 4 mech
244 159 160 241
299 8 4 mech
115 175 244 241
300 8 4 mech
3 112 11 240
301 8 4 mech
99 252 245 241
302 8 4 mech
3 108 112 240
303 8 4 mech
108 20 99 241
304 8 4 mech
93 97 22 225
305 8 4 mech
20 240 49 241
306 8 4 mech
99 104 161 245
307 8 4 mech
94 161 173 241
308 8 4 mech
163 166 165 156
309 8 4 mech
91 208 110 214
310 8 4 mech
195 201 228 196
311 8 4 mech
31 62 67 202
312 8 4 mech
4 31 132 202
313 8 4 mech
91 23 4 202
314 8 4 mech
161 245 160 241
315 8 4 mech
161 160 159 241
316 8 4 mech
99 245 161 241
317 8 4 mech
97 226 229 225
318 8 4 mech
97 229 162 225
319 8 4 mech
97 162 104 245
320 8 4 mech
97 21 225 245
321 8 4 mech
21 252 225 245
322 8 4 mech
97 106 162 229
323 8 4 mech
106 162 229 163
324 8 4 mech
105 162 163 158
325 8 4 mech
224 225 252 160
326 8 4 mech
200 195 215 197
327 8 4 mech
199 223 167 197
328 8 4 mech
68 227 224 228
329 8 4 mech
214 226 227 196
330 8 4 mech
222 229 226 196
331 8 4 mech
62 67 202 228
332 8 4 mech
86 215 195 224
333 8 4 mech
224 227 226 196
334 8 4 mech
75 243 86 224
335 8 4 mech
86 79 195 216
336 8 4 mech
66 195 213 201
337 8 4 mech
68 88 224 227
338 8 4 mech
66 79 213 195
339 8 4 mech
181 182 163 166
340 8 4 mech
76 165 168 182
341 8 4 mech
95 9 168 182
342 8 4 mech
95 163 101 182
343 8 4 mech
9 55 168 182
344 8 4 mech
8 53 54 246
345 8 4 mech
106 229 181 163
346 8 4 mech
78 87 69 199
347 8 4 mech
101 103 181 163
348 8 4 mech
101 246 8 182
349 8 4 mech
223 171 164 156
350 8 4 mech
9 8 54 182
351 8 4 mech
41 135 230 194
352 8 4 mech
221 223 164 167
353 8 4 mech
135 139 210 194
354 8 4 mech
139 194 43 236
355 8 4 mech
130 192 143 194
356 8 4 mech
43 194 143 232
357 8 4 mech
162 229 163 197
358 8 4 mech
125 136 149 238
359 8 4 mech
10 9 55 168
360 8 4 mech
104 162 161 245
361 8 4 mech
74 242 243 186
362 8 4 mech
74 242 83 215
363 8 4 mech
83 242 217 215
364 8 4 mech
39 114 113 152
365 8 4 mech
94 173 161 158
366 8 4 mech
108 112 240 241
367 8 4 mech
49 240 244 241
368 8 4 mech
213 201 195 203
369 8 4 mech
121 150 47 179
370 8 4 mech
48 55 168 249
371 8 4 mech
114 150 124 152
372 8 4 mech
199 200 217 197
373 8 4 mech
121 155 120 151
374 8 4 mech
162 160 154 153
375 8 4 mech
119 174 123 151
376 8 4 mech
163 168 165 166
377 8 4 mech
106 105 162 163
378 8 4 mech
106 181 103 163
379 8 4 mech
217 170 223 154
380 8 4 mech
117 118 13 186
381 8 4 mech
173 159 175 241
382 8 4 mech
57 74 244 186
383 8 4 mech
75 74 243 244
384 8 4 mech
75 243 252 244
385 8 4 mech
117 57 12 244
386 8 4 mech
115 117 12 244
387 8 4 mech
89 250 92 231
388 8 4 mech
250 189 231 193
389 8 4 mech
102 208 110 231
390 8 4 mech
91 110 208 231
391 8 4 mech
91 231 208 202
392 8 4 mech
208 231 183 204
393 8 4 mech
243 244 186 159
394 8 4 mech
117 175 118 186
395 8 4 mech
170 159 185 155
396 8 4 mech
118 58 13 186
397 8 4 mech
74 242 215 243
398 8 4 mech
74 215 86 243
399 8 4 mech
243 160 244 159
400 8 4 mech
81 84 170 171
401 8 4 mech
87 170 84 223
402 8 4 mech
170 171 223 156
403 8 4 mech
70 84 82 223
404 8 4 mech
52 77 185 179
405 8 4 mech
81 170 77 179
406 8 4 mech
87 217 170 223
407 8 4 mech
73 170 242 185
408 8 4 mech
87 217 73 170
409 8 4 mech
65 199 64 219
410 8 4 mech
199 221 219 218
411 8 4 mech
63 219 220 239
412 8 4 mech
63 70 221 219
413 8 4 mech
181 197 229 198
414 8 4 mech
64 199 70 219
415 8 4 mech
65 199 219 212
416 8 4 mech
70 199 221 219
417 8 4 mech
92 183 102 231
418 8 4 mech
137 251 146 211
419 8 4 mech
208 203 209 198
420 8 4 mech
116 18 122 249
421 8 4 mech
250 233 189 232
422 8 4 mech
96 111 102 183
423 8 4 mech
54 72 248 246
424 8 4 mech
250 232 189 193
425 8 4 mech
119 120 155 151
426 8 4 mech
217 215 242 154
427 8 4 mech
58 185 73 186
428 8 4 mech
165 171 155 156
429 8 4 mech
170 155 179 171
430 8 4 mech
47 80 179 176
431 8 4 mech
80 179 165 171
432 8 4 mech
61 177 220 178
433 8 4 mech
187 178 246 180
434 8 4 mech
222 208 183 209
435 8 4 mech
53 178 72 246
436 8 4 mech
72 178 247 246
437 8 4 mech
185 159 174 155
438 8 4 mech
29 137 30 206
439 8 4 mech
69 199 87 223
440 8 4 mech
50 225 224 227
441 8 4 mech
86 243 215 224
442 8 4 mech
115 244 56 240
443 8 4 mech
229 225 224 160
444 8 4 mech
130 239 26 192
445 8 4 mech
64 219 239 230
446 8 4 mech
63 64 219 239
447 8 4 mech
130 230 239 192
448 8 4 mech
165 150 168 157
449 8 4 mech
72 247 248 246
450 8 4 mech
76 168 165 176
451 8 4 mech
95 101 9 182
452 8 4 mech
55 76 168 182
453 8 4 mech
95 9 10 168
454 8 4 mech
10 168 55 249
455 8 4 mech
26 239 63 177
456 8 4 mech
187 246 178 172
457 8 4 mech
212 218 209 198
458 8 4 mech
178 188 172 184
459 8 4 mech
24 190 177 191
460 8 4 mech
24 177 178 191
461 8 4 mech
129 142 177 190
462 8 4 mech
239 177 192 188
463 8 4 mech
219 230 212 209
464 8 4 mech
26 142 192 177
465 8 4 mech
25 24 129 177
466 8 4 mech
94 173 113 241
467 8 4 mech
162 154 163 153
468 8 4 mech
50 224 225 252
469 8 4 mech
50 224 88 227
470 8 4 mech
106 208 222 226
471 8 4 mech
243 224 252 160
472 8 4 mech
242 215 243 160
473 8 4 mech
1 24 7 172
474 8 4 mech
92 183 189 184
475 8 4 mech
36 131 189 233
476 8 4 mech
250 211 231 169
477 8 4 mech
92 189 183 231
478 8 4 mech
250 233 232 251
479 8 4 mech
219 209 212 218
480 8 4 mech
89 250 231 169
481 8 4 mech
119 123 124 151
482 8 4 mech
106 110 109 208
483 8 4 mech
90 189 250 233
484 8 4 mech
131 189 233 232
485 8 4 mech
21 49 50 252
486 8 4 mech
106 222 229 226
487 8 4 mech
132 202 134 169
488 8 4 mech
222 208 209 198
489 8 4 mech
21 50 225 252
490 8 4 mech
22 225 50 227
491 8 4 mech
21 99 252 245
492 8 4 mech
121 150 155 151
493 8 4 mech
47 48 76 176
494 8 4 mech
205 209 210 204
495 8 4 mech
61 247 72 178
496 8 4 mech
1 24 172 191
497 8 4 mech
61 220 71 247
498 8 4 mech
71 220 221 247
499 8 4 mech
71 164 85 248
500 8 4 mech
76 248 165 182
501 8 4 mech
133 138 250 251
502 8 4 mech
236 251 233 234
503 8 4 mech
46 80 81 179
504 8 4 mech
236 238 234 235
505 8 4 mech
96 172 183 184
506 8 4 mech
140 251 236 234
507 8 4 mech
139 236 140 251
508 8 4 mech
140 44 141 234
509 8 4 mech
141 149 234 238
510 8 4 mech
34 233 138 235
511 8 4 mech
100 246 187 172
512 8 4 mech
8 100 7 246
513 8 4 mech
8 246 54 182
514 8 4 mech
213 203 195 198
515 8 4 mech
103 222 109 207
516 8 4 mech
217 242 170 154
517 8 4 mech
225 245 252 160
518 8 4 mech
33 34 90 233
519 8 4 mech
125 45 6 126
520 8 4 mech
200 215 195 216
521 8 4 mech
229 224 196 197
522 8 4 mech
68 86 195 224
523 8 4 mech
215 224 243 160
524 8 4 mech
126 148 136 238
525 8 4 mech
83 73 217 242
526 8 4 mech
134 202 206 211
527 8 4 mech
181 218 167 198
528 8 4 mech
199 223 221 167
529 8 4 mech
79 200 213 195
530 8 4 mech
83 215 217 216
531 8 4 mech
51 79 200 213
532 8 4 mech
131 232 233 237
533 8 4 mech
162 154 160 197
534 8 4 mech
78 87 200 216
535 8 4 mech
65 78 199 212
536 8 4 mech
51 200 212 213
537 8 4 mech
89 90 92 250
538 8 4 mech
130 230 192 194
539 8 4 mech
27 239 130 230
540 8 4 mech
65 212 219 230
541 8 4 mech
28 205 65 230
542 8 4 mech
65 219 64 230
543 8 4 mech
205 230 210 209
544 8 4 mech
219 220 239 188
545 8 4 mech
29 205 135 210
546 8 4 mech
29 51 205 206
547 8 4 mech
51 212 65 205
548 8 4 mech
200 213 195 198
549 8 4 mech
221 167 180 218
550 8 4 mech
231 211 193 204
551 8 4 mech
16 46 52 179
552 8 4 mech
65 205 212 230
553 8 4 mech
109 222 208 183
554 8 4 mech
102 109 110 208
555 8 4 mech
102 109 208 183
556 8 4 mech
111 187 109 183
557 8 4 mech
37 128 127 191
558 8 4 mech
192 188 193 209
559 8 4 mech
250 251 232 193
560 8 4 mech
221 164 247 180
561 8 4 mech
187 188 180 218
562 8 4 mech
164 165 248 166
563 8 4 mech
61 220 247 178
564 8 4 mech
63 221 71 220
565 8 4 mech
61 63 220 177
566 8 4 mech
103 181 222 207
567 8 4 mech
208 226 214 196
568 8 4 mech
136 149 238 235
569 8 4 mech
89 33 250 169
570 8 4 mech
33 133 250 169
571 8 4 mech
90 92 250 189
572 8 4 mech
33 138 34 233
573 8 4 mech
89 231 91 169
574 8 4 mech
127 128 190 191
575 8 4 mech
135 205 230 210
576 8 4 mech
127 128 129 190
577 8 4 mech
92 189 128 190
578 8 4 mech
220 178 177 188
579 8 4 mech
1 37 127 191
580 8 4 mech
33 250 138 233
581 8 4 mech
137 210 251 211
582 8 4 mech
7 53 246 172
583 8 4 mech
127 129 24 190
584 8 4 mech
143 232 192 190
585 8 4 mech
231 202 211 204
586 8 4 mech
143 194 192 232
587 8 4 mech
142 143 192 190
588 8 4 mech
133 146 251 211
589 8 4 mech
47 179 150 176
590 8 4 mech
149 234 238 235
591 8 4 mech
44 236 144 237
592 8 4 mech
43 236 194 232
593 8 4 mech
250 231 211 193
594 8 4 mech
128 232 147 190
595 8 4 mech
44 234 236 238
596 8 4 mech
134 137 146 211
597 8 4 mech
140 236 44 234
598 8 4 mech
66 213 206 201
599 8 4 mech
64 69 70 199
600 8 4 mech
135 210 230 194
601 8 4 mech
97 225 162 245
602 8 4 mech
105 163 157 158
603 8 4 mech
181 180 167 218
604 8 4 mech
79 200 195 216
605 8 4 mech
29 205 210 206
606 8 4 mech
109 187 222 183
607 8 4 mech
215 160 154 197
608 8 4 mech
44 144 145 237
609 8 4 mech
44 141 234 238
610 8 4 mech
125 149 141 238
611 8 4 mech
45 44 145 238
612 8 4 mech
51 213 212 205
613 8 4 mech
118 59 58 185
614 8 4 mech
139 194 236 251
615 8 4 mech
212 205 213 209
616 8 4 mech
102 183 208 231
617 8 4 mech
121 120 124 151
618 8 4 mech
30 201 206 202
619 8 4 mech
134 206 137 211
620 8 4 mech
51 213 205 206
621 8 4 mech
121 122 47 150
622 8 4 mech
25 26 61 177
623 8 4 mech
208 209 203 204
624 8 4 mech
194 232 251 193
625 8 4 mech
210 194 251 193
626 8 4 mech
28 135 205 230
627 8 4 mech
194 232 236 251
628 8 4 mech
87 199 217 223
629 8 4 mech
113 114 124 152
630 8 4 mech
77 84 87 170
631 8 4 mech
119 59 118 185
632 8 4 mech
97 104 99 245
633 8 4 mech
75 86 88 224
634 8 4 mech
22 21 50 225
635 8 4 mech
62 88 68 227
636 8 4 mech
51 66 213 206
637 8 4 mech
199 217 223 197
638 8 4 mech
199 219 212 218
639 8 4 mech
222 183 187 209
640 8 4 mech
27 64 239 230
641 8 4 mech
210 209 193 204
642 8 4 mech
92 250 189 231
643 8 4 mech
222 196 208 198
644 8 4 mech
51 200 78 212
645 8 4 mech
231 211 202 169
646 8 4 mech
23 214 62 202
647 8 4 mech
200 212 213 198
648 8 4 mech
49 56 75 244
649 8 4 mech
87 199 200 217
650 8 4 mech
138 140 149 234
651 8 4 mech
70 223 82 164
652 8 4 mech
69 70 199 223
653 8 4 mech
75 243 224 252
654 8 4 mech
223 164 167 156
655 8 4 mech
78 200 199 212
656 8 4 mech
92 190 128 191
657 8 4 mech
239 188 192 209
658 8 4 mech
24 178 53 172
659 8 4 mech
230 194 210 193
660 8 4 mech
32 91 4 132
661 8 4 mech
212 230 205 209
662 8 4 mech
52 81 77 179
663 8 4 mech
106 222 103 181
664 8 4 mech
220 180 178 188
665 8 4 mech
221 220 219 218
666 8 4 mech
70 221 223 164
667 8 4 mech
70 71 221 164
668 8 4 mech
10 107 168 249
669 8 4 mech
85 248 164 165
670 8 4 mech
54 72 76 248
671 8 4 mech
95 105 101 163
672 8 4 mech
97 106 104 162
673 8 4 mech
27 63 26 239
674 8 4 mech
248 182 180 166
675 8 4 mech
90 36 92 189
676 8 4 mech
80 81 179 171
677 8 4 mech
63 70 71 221
678 8 4 mech
33 32 133 169
679 8 4 mech
96 7 100 172
680 8 4 mech
98 38 114 157
681 8 4 mech
114 157 150 152
682 8 4 mech
10 2 107 249
683 8 4 mech
95 10 107 168
684 8 4 mech
2 19 116 249
685 8 4 mech
74 83 86 215
686 8 4 mech
206 211 202 204
687 8 4 mech
93 110 106 226
688 8 4 mech
68 88 86 224
689 8 4 mech
222 229 196 198
690 8 4 mech
106 110 208 226
691 8 4 mech
29 30 66 206
692 8 4 mech
111 103 109 207
693 8 4 mech
87 83 73 217
694 8 4 mech
148 145 144 237
695 8 4 mech
43 144 236 232
696 8 4 mech
244 175 186 159
697 8 4 mech
59 52 77 185
698 8 4 mech
119 15 14 59
699 8 4 mech
94 39 40 113
700 8 4 mech
120 15 59 52
701 8 4 mech
127 190 24 191
702 8 4 mech
25 129 142 177
703 8 4 mech
126 145 148 238
704 8 4 mech
129 177 24 190
705 8 4 mech
130 143 42 194
706 8 4 mech
33 90 250 233
707 8 4 mech
130 142 143 192
708 8 4 mech
129 147 142 190
709 8 4 mech
115 123 117 175
710 8 4 mech
117 13 12 57
711 8 4 mech
61 63 71 220
712 8 4 mech
80 82 81 171
713 8 4 mech
219 239 230 209
714 8 4 mech
27 64 63 239
715 8 4 mech
102 111 109 183
716 8 4 mech
63 219 221 220
717 8 4 mech
63 239 220 177
718 8 4 mech
71 221 164 247
719 8 4 mech
181 167 197 198
720 8 4 mech
101 246 181 207
721 8 4 mech
135 139 137 210
722 8 4 mech
41 28 5 230
723 8 4 mech
63 64 70 219
724 8 4 mech
36 35 131 233
725 8 4 mech
45 145 126 238
726 8 4 mech
163 165 157 153
727 8 4 mech
121 16 120 179
728 8 4 mech
81 82 84 171
729 8 4 mech
243 252 244 160
730 8 4 mech
112 113 115 241
731 8 4 mech
121 124 122 150
732 8 4 mech
95 107 98 157
733 8 4 mech
165 168 150 176
734 8 4 mech
34 149 136 235
735 8 4 mech
39 98 38 114
736 8 4 mech
168 157 150 249
737 8 4 mech
80 85 82 164
738 8 4 mech
98 105 157 158
739 8 4 mech
82 164 223 171
740 8 4 mech
46 47 80 179
741 8 4 mech
162 163 154 197
742 8 4 mech
81 84 77 170
743 8 4 mech
252 244 160 241
744 8 4 mech
5 28 65 230
745 8 4 mech
125 141 45 238
746 8 4 mech
5 65 64 230
747 8 4 mech
42 43 139 194
748 8 4 mech
125 45 126 238
749 8 4 mech
106 103 105 163
750 8 4 mech
150 152 157 153
751 8 4 mech
121 122 17 47
752 8 4 mech
68 86 79 195
753 8 4 mech
50 88 62 227
754 8 4 mech
93 22 23 62
755 8 4 mech
72 71 85 248
756 8 4 mech
96 111 183 172
757 8 4 mech
137 139 146 251
758 8 4 mech
142 147 143 190
759 8 4 mech
130 26 142 192
760 8 4 mech
128 147 129 190
761 8 4 mech
92 128 37 191
762 8 4 mech
138 234 149 235
763 8 4 mech
139 43 140 236
764 8 4 mech
91 231 202 169
765 8 4 mech
183 193 188 209
766 8 4 mech
173 174 159 151
767 8 4 mech
2 38 107 116
768 8 4 mech
1 127 24 191
769 8 4 mech
61 71 72 247
770 8 4 mech
36 37 92 128
771 8 4 mech
25 60 24 178
772 8 4 mech
170 154 155 156
773 8 4 mech
76 248 85 165
774 8 4 mech
222 181 187 207
775 8 4 mech
51 78 65 212
776 8 4 mech
58 73 74 186
777 8 4 mech
116 122 124 150
778 8 4 mech
117 123 118 175
779 8 4 mech
115 12 56 244
780 8 4 mech
11 115 12 56
781 8 4 mech
12 57 56 244
782 8 4 mech
28 51 65 205
783 8 4 mech
25 61 60 178
784 8 4 mech
213 205 206 203
785 8 4 mech
230 193 210 209
786 8 4 mech
93 22 62 227
787 8 4 mech
205 210 206 204
788 8 4 mech
65 78 69 199
789 8 4 mech
41 27 130 230
790 8 4 mech
34 138 149 235
791 8 4 mech
121 17 46 47
792 8 4 mech
128 189 131 232
793 8 4 mech
18 47 122 48
794 8 4 mech
18 17 122 47
795 8 4 mech
120 52 185 179
796 8 4 mech
122 48 47 150
797 8 4 mech
119 14 118 59
798 8 4 mech
120 16 52 179
799 8 4 mech
120 16 15 52
800 8 4 mech
136 238 148 235
801 8 4 mech
119 118 123 174
802 8 4 mech
75 74 86 243
803 8 4 mech
242 154 160 159
804 8 4 mech
47 76 80 176
805 8 4 mech
98 157 114 152
806 8 4 mech
49 244 252 241
807 8 4 mech
2 116 107 249
808 8 4 mech
10 19 2 249
809 8 4 mech
94 39 113 158
810 8 4 mech
38 116 114 157
811 8 4 mech
9 54 55 182
812 8 4 mech
91 93 23 214
813 8 4 mech
30 67 66 201
814 8 4 mech
22 50 62 227
815 8 4 mech
66 68 79 195
816 8 4 mech
86 83 79 216
817 8 4 mech
70 82 71 164
818 8 4 mech
23 62 31 202
819 8 4 mech
117 57 244 186
820 8 4 mech
9 101 8 182
821 8 4 mech
43 144 44 236
822 8 4 mech
139 210 194 251
823 8 4 mech
92 96 102 183
824 8 4 mech
90 36 189 233
825 8 4 mech
43 44 140 236
826 8 4 mech
27 26 130 239
827 8 4 mech
41 135 28 230
828 8 4 mech
106 109 222 208
829 8 4 mech
94 104 105 158
830 8 4 mech
80 165 164 171
831 8 4 mech
50 75 88 224
832 8 4 mech
48 55 76 176
833 8 4 mech
10 55 19 249
834 8 4 mech
248 182 246 180
835 8 4 mech
114 116 124 150
836 8 4 mech
93 106 97 226
837 8 4 mech
247 248 246 180
838 8 4 mech
134 202 211 169
839 8 4 mech
219 188 239 209
840 8 4 mech
92 37 96 191
841 8 4 mech
106 109 103 222
842 8 4 mech
91 202 132 169
843 8 4 mech
122 48 150 249
844 8 4 mech
46 81 52 179
845 8 4 mech
120 52 59 185
846 8 4 mech
81 170 179 171
847 8 4 mech
94 99 104 161
848 8 4 mech
56 57 75 244
849 8 4 mech
117 13 57 186
850 8 4 mech
119 124 120 151
851 8 4 mech
8 7 53 246
852 8 4 mech
78 79 83 216
853 8 4 mech
26 192 239 177
854 8 4 mech
42 143 43 194
855 8 4 mech
68 195 201 228
856 8 4 mech
134 31 30 202
857 8 4 mech
222 187 181 218
858 8 4 mech
95 163 168 157
859 8 4 mech
118 14 13 58
860 8 4 mech
59 77 73 185
861 8 4 mech
95 98 105 157
862 8 4 mech
165 179 150 155
863 8 4 mech
201 214 202 228
864 8 4 mech
93 62 214 227
865 8 4 mech
97 21 22 225
866 8 4 mech
51 66 79 213
867 8 4 mech
134 30 137 206
868 8 4 mech
164 248 247 180
869 8 4 mech
36 131 128 189
870 8 4 mech
28 135 29 205
871 8 4 mech
95 168 163 182
872 8 4 mech
199 167 218 198
873 8 4 mech
69 87 84 223
874 8 4 mech
76 85 80 165
875 8 4 mech
119 120 185 155
876 8 4 mech
51 79 78 200
877 8 4 mech
28 29 51 205
878 8 4 mech
74 73 242 186
879 8 4 mech
65 69 64 199
880 8 4 mech
77 87 73 170
881 8 4 mech
229 224 226 196
882 8 4 mech
113 123 115 173
883 8 4 mech
104 106 105 162
884 8 4 mech
78 83 87 216
885 8 4 mech
25 177 61 178
886 8 4 mech
89 92 102 231
887 8 4 mech
32 91 132 169
888 8 4 mech
29 66 51 206
889 8 4 mech
210 251 211 193
890 8 4 mech
41 5 27 230
891 8 4 mech
41 230 130 194
892 8 4 mech
236 234 233 235
893 8 4 mech
192 232 194 193
894 8 4 mech
125 126 136 238
895 8 4 mech
143 147 144 232
896 8 4 mech
90 34 35 233
897 8 4 mech
34 136 35 235
898 8 4 mech
90 35 36 233
899 8 4 mech
27 5 64 230
900 8 4 mech
138 146 140 251
901 8 4 mech
36 128 92 189
902 8 4 mech
173 158 152 153
903 8 4 mech
101 105 103 163
904 8 4 mech
108 40 112 241
905 8 4 mech
119 185 118 174
906 8 4 mech
112 115 11 240
907 8 4 mech
192 232 189 190
908 8 4 mech
111 109 187 207
909 8 4 mech
132 31 134 202
910 8 4 mech
69 84 70 223
911 8 4 mech
135 42 139 194
912 8 4 mech
121 47 46 179
913 8 4 mech
101 103 100 207
914 8 4 mech
89 91 32 169
915 8 4 mech
177 191 190 184
916 8 4 mech
93 62 23 214
917 8 4 mech
35 136 148 235
918 8 4 mech
220 177 239 188
919 8 4 mech
73 170 217 242
920 8 4 mech
101 163 181 182
921 8 4 mech
50 75 224 252
922 8 4 mech
57 74 75 244
923 8 4 mech
57 58 74 186
924 8 4 mech
118 185 58 186
925 8 4 mech
113 173 115 241
926 8 4 mech
252 160 245 241
927 8 4 mech
11 115 56 240
928 8 4 mech
113 124 123 151
929 8 4 mech
54 76 55 182
930 8 4 mech
101 181 246 182
931 8 4 mech
4 23 31 202
932 8 4 mech
214 227 228 196
933 8 4 mech
140 141 149 234
934 8 4 mech
24 178 172 191
935 8 4 mech
53 60 72 178
936 8 4 mech
32 132 133 169
937 8 4 mech
66 67 68 201
938 8 4 mech
35 148 131 235
939 8 4 mech
24 60 53 178
940 8 4 mech
3 108 40 112
941 8 4 mech
49 56 244 240
942 8 4 mech
108 99 94 241
943 8 4 mech
91 4 132 202
944 8 4 mech
58 59 73 185
945 8 4 mech
3 20 108 240
946 8 4 mech
74 73 83 242
947 8 4 mech
108 94 40 241
948 8 4 mech
165 179 155 171
949 8 4 mech
20 49 99 241
950 8 4 mech
99 49 252 241
951 8 4 mech
3 11 20 240
952 8 4 mech
94 98 39 158
953 8 4 mech
33 133 138 250
954 8 4 mech
133 146 138 251
955 8 4 mech
29 135 137 210
956 8 4 mech
19 55 48 249
957 8 4 mech
76 72 85 248
958 8 4 mech
96 37 1 191
959 8 4 mech
60 61 72 178
960 8 4 mech
93 225 22 227
961 8 4 mech
121 46 16 179
962 8 4 mech
98 157 152 158
963 8 4 mech
101 100 8 246
964 8 4 mech
45 141 44 238
965 8 4 mech
116 19 18 249
966 8 4 mech
91 102 110 231
967 8 4 mech
7 24 53 172
968 8 4 mech
118 14 58 59
969 8 4 mech
89 102 91 231
970 8 4 mech
62 68 67 228
971 8 4 mech
11 56 49 240
972 8 4 mech
20 21 99 49
973 8 4 mech
97 99 21 245
974 8 4 mech
13 58 57 186
975 8 4 mech
91 110 93 214
976 8 4 mech
49 75 50 252
977 8 4 mech
49 75 252 244
978 8 4 mech
174 186 175 159
979 8 4 mech
242 243 186 159
980 8 4 mech
132 134 133 169
981 8 4 mech
115 117 244 175

[Node BC]
#NodeNr Level
38 support
39 support
40 support
11 support
12 support
13 support
14 support
15 support
16 support
17 support
18 support
19 support
2 support
3 support
112 support
113 support
114 support
115 support
116 support
117 support
118 support
119 support
120 support
121 support
122 support
123 support
124 support
6 load

[Save Nodes]
#NodeNr Level

[Save Elements]
#ElemNr Level

 
