$MeshFormat
2.2 0 8
$EndMeshFormat
$PhysicalNames
9
0 1 "N_NO"
0 2 "N_NW"
0 3 "N_SO"
0 4 "N_spring"
1 5 "S_N"
1 6 "S_O"
1 7 "S_S"
1 8 "S_fixed"
2 9 "V_square"
$EndPhysicalNames
$Nodes
4
1 -0.5 -0.5 0
2 0.5 -0.5 0
3 0.5 0.5 0
4 -0.5 0.5 0
$EndNodes
$Elements
9
1 15 2 4 1 1
2 15 2 3 2 2
3 15 2 1 3 3
4 15 2 2 4 4
5 1 2 7 1 1 2
6 1 2 6 2 2 3
7 1 2 5 3 3 4
8 1 2 8 4 4 1
9 3 2 9 1 1 2 3 4
$EndElements
