$MeshFormat
2.2 0 8
$EndMeshFormat
$PhysicalNames
5
1 2 "bottom"
1 3 "top"
1 4 "inlet"
1 5 "outlet"
2 1 "fluid"
$EndPhysicalNames
$Nodes
961
1 -3 -3 0
2 3 -3 0
3 3 3 0
4 -3 3 0
5 -2.80000000000074 -3 0
6 -2.60000000000148 -3 0
7 -2.40000000000222 -3 0
8 -2.200000000002961 -3 0
9 -2.000000000003701 -3 0
10 -1.800000000004441 -3 0
11 -1.600000000005181 -3 0
12 -1.400000000005921 -3 0
13 -1.200000000006661 -3 0
14 -1.000000000007401 -3 0
15 -0.80000000000814 -3 0
16 -0.6000000000088797 -3 0
17 -0.4000000000096193 -3 0
18 -0.2000000000103586 -3 0
19 -1.10111919582323e-11 -3 0
20 0.1999999999896414 -3 0
21 0.3999999999903814 -3 0
22 0.5999999999911214 -3 0
23 0.799999999991861 -3 0
24 0.999999999992601 -3 0
25 1.199999999993342 -3 0
26 1.399999999994081 -3 0
27 1.599999999994821 -3 0
28 1.799999999995561 -3 0
29 1.9999999999963 -3 0
30 2.19999999999704 -3 0
31 2.399999999997779 -3 0
32 2.599999999998519 -3 0
33 2.799999999999259 -3 0
34 3 -2.80000000000074 0
35 3 -2.60000000000148 0
36 3 -2.40000000000222 0
37 3 -2.200000000002961 0
38 3 -2.000000000003701 0
39 3 -1.800000000004441 0
40 3 -1.600000000005181 0
41 3 -1.400000000005921 0
42 3 -1.200000000006661 0
43 3 -1.000000000007401 0
44 3 -0.80000000000814 0
45 3 -0.6000000000088797 0
46 3 -0.4000000000096193 0
47 3 -0.2000000000103586 0
48 3 -1.10111919582323e-11 0
49 3 0.1999999999896414 0
50 3 0.3999999999903814 0
51 3 0.5999999999911214 0
52 3 0.799999999991861 0
53 3 0.999999999992601 0
54 3 1.199999999993342 0
55 3 1.399999999994081 0
56 3 1.599999999994821 0
57 3 1.799999999995561 0
58 3 1.9999999999963 0
59 3 2.19999999999704 0
60 3 2.399999999997779 0
61 3 2.599999999998519 0
62 3 2.799999999999259 0
63 2.80000000000074 3 0
64 2.60000000000148 3 0
65 2.40000000000222 3 0
66 2.200000000002961 3 0
67 2.000000000003701 3 0
68 1.800000000004441 3 0
69 1.600000000005181 3 0
70 1.400000000005921 3 0
71 1.200000000006661 3 0
72 1.000000000007401 3 0
73 0.80000000000814 3 0
74 0.6000000000088797 3 0
75 0.4000000000096193 3 0
76 0.2000000000103586 3 0
77 1.10111919582323e-11 3 0
78 -0.1999999999896414 3 0
79 -0.3999999999903814 3 0
80 -0.5999999999911214 3 0
81 -0.799999999991861 3 0
82 -0.999999999992601 3 0
83 -1.199999999993342 3 0
84 -1.399999999994081 3 0
85 -1.599999999994821 3 0
86 -1.799999999995561 3 0
87 -1.9999999999963 3 0
88 -2.19999999999704 3 0
89 -2.399999999997779 3 0
90 -2.599999999998519 3 0
91 -2.799999999999259 3 0
92 -3 2.80000000000074 0
93 -3 2.60000000000148 0
94 -3 2.40000000000222 0
95 -3 2.200000000002961 0
96 -3 2.000000000003701 0
97 -3 1.800000000004441 0
98 -3 1.600000000005181 0
99 -3 1.400000000005921 0
100 -3 1.200000000006661 0
101 -3 1.000000000007401 0
102 -3 0.80000000000814 0
103 -3 0.6000000000088797 0
104 -3 0.4000000000096193 0
105 -3 0.2000000000103586 0
106 -3 1.10111919582323e-11 0
107 -3 -0.1999999999896414 0
108 -3 -0.3999999999903814 0
109 -3 -0.5999999999911214 0
110 -3 -0.799999999991861 0
111 -3 -0.999999999992601 0
112 -3 -1.199999999993342 0
113 -3 -1.399999999994081 0
114 -3 -1.599999999994821 0
115 -3 -1.799999999995561 0
116 -3 -1.9999999999963 0
117 -3 -2.19999999999704 0
118 -3 -2.399999999997779 0
119 -3 -2.599999999998519 0
120 -3 -2.799999999999259 0
121 -2.80000000000069 -2.799999999999307 0
122 -2.800000000000642 -2.599999999998617 0
123 -2.800000000000592 -2.399999999997928 0
124 -2.800000000000542 -2.199999999997237 0
125 -2.800000000000492 -1.999999999996546 0
126 -2.800000000000443 -1.799999999995857 0
127 -2.800000000000395 -1.599999999995166 0
128 -2.800000000000344 -1.399999999994475 0
129 -2.800000000000295 -1.199999999993785 0
130 -2.800000000000246 -0.999999999993094 0
131 -2.800000000000196 -0.7999999999924037 0
132 -2.800000000000148 -0.5999999999917138 0
133 -2.800000000000098 -0.3999999999910226 0
134 -2.800000000000049 -0.1999999999903319 0
135 -2.799999999999999 1.027711249435015e-11 0
136 -2.799999999999951 0.2000000000096678 0
137 -2.799999999999899 0.4000000000089774 0
138 -2.799999999999851 0.6000000000082877 0
139 -2.799999999999801 0.8000000000075973 0
140 -2.799999999999752 1.000000000006907 0
141 -2.799999999999703 1.200000000006217 0
142 -2.799999999999654 1.400000000005527 0
143 -2.799999999999604 1.600000000004836 0
144 -2.799999999999555 1.800000000004145 0
145 -2.799999999999506 2.000000000003454 0
146 -2.799999999999456 2.200000000002763 0
147 -2.799999999999407 2.400000000002072 0
148 -2.799999999999357 2.600000000001381 0
149 -2.799999999999308 2.800000000000691 0
150 -2.600000000001382 -2.799999999999358 0
151 -2.600000000001283 -2.599999999998716 0
152 -2.600000000001184 -2.399999999998077 0
153 -2.600000000001086 -2.199999999997434 0
154 -2.600000000000986 -1.999999999996793 0
155 -2.600000000000888 -1.799999999996153 0
156 -2.600000000000789 -1.599999999995512 0
157 -2.60000000000069 -1.399999999994869 0
158 -2.600000000000592 -1.199999999994229 0
159 -2.600000000000493 -0.9999999999935876 0
160 -2.600000000000394 -0.7999999999929464 0
161 -2.600000000000296 -0.5999999999923049 0
162 -2.600000000000197 -0.3999999999916644 0
163 -2.600000000000098 -0.1999999999910225 0
164 -2.6 9.543033030467996e-12 0
165 -2.599999999999901 0.2000000000089774 0
166 -2.599999999999802 0.4000000000083366 0
167 -2.599999999999703 0.6000000000076953 0
168 -2.599999999999604 0.8000000000070548 0
169 -2.599999999999507 1.000000000006414 0
170 -2.599999999999407 1.200000000005773 0
171 -2.599999999999309 1.400000000005132 0
172 -2.59999999999921 1.600000000004491 0
173 -2.599999999999111 1.800000000003849 0
174 -2.599999999999013 2.000000000003208 0
175 -2.599999999998914 2.200000000002567 0
176 -2.599999999998815 2.400000000001924 0
177 -2.599999999998716 2.600000000001283 0
178 -2.599999999998618 2.800000000000641 0
179 -2.400000000002073 -2.799999999999407 0
180 -2.400000000001925 -2.599999999998816 0
181 -2.400000000001777 -2.399999999998224 0
182 -2.400000000001629 -2.199999999997632 0
183 -2.400000000001481 -1.999999999997039 0
184 -2.400000000001332 -1.799999999996449 0
185 -2.400000000001183 -1.599999999995856 0
186 -2.400000000001037 -1.399999999995264 0
187 -2.400000000000888 -1.199999999994673 0
188 -2.400000000000741 -0.9999999999940812 0
189 -2.400000000000592 -0.799999999993489 0
190 -2.400000000000444 -0.5999999999928975 0
191 -2.400000000000296 -0.3999999999923054 0
192 -2.400000000000149 -0.199999999991713 0
193 -2.400000000000001 8.808953566585842e-12 0
194 -2.399999999999852 0.2000000000082867 0
195 -2.399999999999704 0.4000000000076953 0
196 -2.399999999999556 0.6000000000071037 0
197 -2.399999999999407 0.8000000000065119 0
198 -2.39999999999926 1.00000000000592 0
199 -2.399999999999112 1.200000000005329 0
200 -2.399999999998963 1.400000000004737 0
201 -2.399999999998816 1.600000000004145 0
202 -2.399999999998668 1.800000000003553 0
203 -2.399999999998519 2.000000000002961 0
204 -2.399999999998372 2.200000000002369 0
205 -2.399999999998224 2.400000000001776 0
206 -2.399999999998075 2.600000000001183 0
207 -2.399999999997928 2.800000000000591 0
208 -2.200000000002764 -2.799999999999457 0
209 -2.200000000002566 -2.599999999998913 0
210 -2.200000000002369 -2.399999999998372 0
211 -2.200000000002172 -2.199999999997829 0
212 -2.200000000001974 -1.999999999997287 0
213 -2.200000000001778 -1.799999999996745 0
214 -2.200000000001579 -1.599999999996202 0
215 -2.200000000001383 -1.39999999999566 0
216 -2.200000000001185 -1.199999999995117 0
217 -2.200000000000987 -0.9999999999945741 0
218 -2.20000000000079 -0.7999999999940315 0
219 -2.200000000000593 -0.5999999999934891 0
220 -2.200000000000396 -0.3999999999929469 0
221 -2.200000000000198 -0.1999999999924036 0
222 -2.200000000000001 8.074874102703689e-12 0
223 -2.199999999999803 0.2000000000075959 0
224 -2.199999999999606 0.4000000000070543 0
225 -2.199999999999409 0.6000000000065118 0
226 -2.199999999999212 0.8000000000059695 0
227 -2.199999999999013 1.000000000005427 0
228 -2.199999999998817 1.200000000004884 0
229 -2.19999999999862 1.400000000004343 0
230 -2.199999999998422 1.6000000000038 0
231 -2.199999999998224 1.800000000003257 0
232 -2.199999999998027 2.000000000002714 0
233 -2.199999999997829 2.200000000002172 0
234 -2.199999999997633 2.400000000001628 0
235 -2.199999999997434 2.600000000001085 0
236 -2.199999999997237 2.800000000000543 0
237 -2.000000000003454 -2.799999999999505 0
238 -2.000000000003207 -2.599999999999013 0
239 -2.000000000002961 -2.39999999999852 0
240 -2.000000000002714 -2.199999999998026 0
241 -2.000000000002467 -1.999999999997534 0
242 -2.000000000002221 -1.799999999997042 0
243 -2.000000000001974 -1.599999999996547 0
244 -2.000000000001728 -1.399999999996054 0
245 -2.00000000000148 -1.199999999995561 0
246 -2.000000000001235 -0.9999999999950675 0
247 -2.000000000000987 -0.7999999999945739 0
248 -2.000000000000741 -0.599999999994081 0
249 -2.000000000000494 -0.3999999999935877 0
250 -2.000000000000248 -0.1999999999930941 0
251 -2.000000000000001 7.34101668342646e-12 0
252 -1.999999999999754 0.2000000000069058 0
253 -1.999999999999507 0.400000000006413 0
254 -1.99999999999926 0.6000000000059198 0
255 -1.999999999999013 0.8000000000054268 0
256 -1.999999999998767 1.000000000004934 0
257 -1.99999999999852 1.200000000004441 0
258 -1.999999999998273 1.400000000003948 0
259 -1.999999999998026 1.600000000003455 0
260 -1.99999999999778 1.800000000002961 0
261 -1.999999999997533 2.000000000002467 0
262 -1.999999999997287 2.200000000001975 0
263 -1.99999999999704 2.40000000000148 0
264 -1.999999999996793 2.600000000000986 0
265 -1.999999999996546 2.800000000000494 0
266 -1.800000000004145 -2.799999999999554 0
267 -1.800000000003849 -2.599999999999111 0
268 -1.800000000003553 -2.399999999998668 0
269 -1.800000000003257 -2.199999999998224 0
270 -1.800000000002961 -1.99999999999778 0
271 -1.800000000002665 -1.799999999997338 0
272 -1.800000000002369 -1.599999999996893 0
273 -1.800000000002073 -1.399999999996449 0
274 -1.800000000001777 -1.199999999996005 0
275 -1.800000000001481 -0.9999999999955604 0
276 -1.800000000001185 -0.7999999999951166 0
277 -1.800000000000889 -0.599999999994673 0
278 -1.800000000000593 -0.3999999999942292 0
279 -1.800000000000297 -0.1999999999937847 0
280 -1.800000000000001 6.606715174939382e-12 0
281 -1.799999999999705 0.2000000000062152 0
282 -1.799999999999409 0.4000000000057715 0
283 -1.799999999999113 0.6000000000053278 0
284 -1.799999999998817 0.8000000000048846 0
285 -1.799999999998521 1.000000000004441 0
286 -1.799999999998225 1.200000000003997 0
287 -1.799999999997929 1.400000000003553 0
288 -1.799999999997633 1.600000000003109 0
289 -1.799999999997337 1.800000000002665 0
290 -1.799999999997041 2.000000000002221 0
291 -1.799999999996745 2.200000000001777 0
292 -1.799999999996449 2.400000000001331 0
293 -1.799999999996153 2.600000000000887 0
294 -1.799999999995857 2.800000000000443 0
295 -1.600000000004836 -2.799999999999604 0
296 -1.600000000004491 -2.59999999999921 0
297 -1.600000000004145 -2.399999999998816 0
298 -1.6000000000038 -2.199999999998421 0
299 -1.600000000003455 -1.999999999998027 0
300 -1.600000000003109 -1.799999999997633 0
301 -1.600000000002764 -1.599999999997238 0
302 -1.600000000002418 -1.399999999996844 0
303 -1.600000000002073 -1.199999999996449 0
304 -1.600000000001728 -0.999999999996054 0
305 -1.600000000001382 -0.7999999999956595 0
306 -1.600000000001037 -0.599999999995265 0
307 -1.600000000000691 -0.3999999999948705 0
308 -1.600000000000346 -0.1999999999944755 0
309 -1.600000000000001 5.872635711057228e-12 0
310 -1.599999999999656 0.2000000000055246 0
311 -1.59999999999931 0.4000000000051304 0
312 -1.599999999998965 0.6000000000047359 0
313 -1.599999999998619 0.8000000000043415 0
314 -1.599999999998274 1.000000000003948 0
315 -1.599999999997929 1.200000000003553 0
316 -1.599999999997583 1.400000000003158 0
317 -1.599999999997238 1.600000000002764 0
318 -1.599999999996892 1.800000000002369 0
319 -1.599999999996547 2.000000000001974 0
320 -1.599999999996202 2.200000000001579 0
321 -1.599999999995856 2.400000000001184 0
322 -1.599999999995511 2.600000000000789 0
323 -1.599999999995166 2.800000000000394 0
324 -1.400000000005526 -2.799999999999654 0
325 -1.400000000005132 -2.599999999999308 0
326 -1.400000000004737 -2.399999999998964 0
327 -1.400000000004343 -2.199999999998619 0
328 -1.400000000003948 -1.999999999998274 0
329 -1.400000000003553 -1.799999999997929 0
330 -1.400000000003159 -1.599999999997583 0
331 -1.400000000002764 -1.399999999997238 0
332 -1.400000000002369 -1.199999999996893 0
333 -1.400000000001975 -0.9999999999965474 0
334 -1.40000000000158 -0.7999999999962017 0
335 -1.400000000001185 -0.5999999999958571 0
336 -1.40000000000079 -0.3999999999955113 0
337 -1.400000000000396 -0.1999999999951656 0
338 -1.400000000000001 5.13833420257015e-12 0
339 -1.399999999999607 0.2000000000048335 0
340 -1.399999999999212 0.4000000000044891 0
341 -1.399999999998817 0.6000000000041442 0
342 -1.399999999998423 0.8000000000037991 0
343 -1.399999999998027 1.000000000003454 0
344 -1.399999999997633 1.200000000003109 0
345 -1.399999999997238 1.400000000002764 0
346 -1.399999999996843 1.600000000002418 0
347 -1.399999999996449 1.800000000002073 0
348 -1.399999999996054 2.000000000001728 0
349 -1.399999999995659 2.200000000001381 0
350 -1.399999999995265 2.400000000001036 0
351 -1.39999999999487 2.60000000000069 0
352 -1.399999999994475 2.800000000000344 0
353 -1.200000000006217 -2.799999999999704 0
354 -1.200000000005772 -2.599999999999407 0
355 -1.200000000005328 -2.399999999999111 0
356 -1.200000000004884 -2.199999999998817 0
357 -1.200000000004441 -1.999999999998521 0
358 -1.200000000003997 -1.799999999998226 0
359 -1.200000000003552 -1.599999999997928 0
360 -1.200000000003109 -1.399999999997633 0
361 -1.200000000002664 -1.199999999997337 0
362 -1.20000000000222 -0.999999999997041 0
363 -1.200000000001777 -0.7999999999967446 0
364 -1.200000000001333 -0.5999999999964487 0
365 -1.200000000000889 -0.399999999996153 0
366 -1.200000000000445 -0.1999999999958563 0
367 -1.200000000000001 4.404476783292921e-12 0
368 -1.199999999999557 0.2000000000041433 0
369 -1.199999999999112 0.4000000000038477 0
370 -1.199999999998669 0.6000000000035521 0
371 -1.199999999998225 0.8000000000032564 0
372 -1.199999999997782 1.000000000002961 0
373 -1.199999999997337 1.200000000002665 0
374 -1.199999999996893 1.400000000002369 0
375 -1.199999999996449 1.600000000002073 0
376 -1.199999999996005 1.800000000001777 0
377 -1.199999999995562 2.000000000001481 0
378 -1.199999999995117 2.200000000001185 0
379 -1.199999999994674 2.400000000000887 0
380 -1.199999999994229 2.600000000000592 0
381 -1.199999999993786 2.800000000000296 0
382 -1.000000000006907 -2.799999999999752 0
383 -1.000000000006414 -2.599999999999508 0
384 -1.00000000000592 -2.39999999999926 0
385 -1.000000000005427 -2.199999999999014 0
386 -1.000000000004934 -1.999999999998766 0
387 -1.000000000004441 -1.799999999998521 0
388 -1.000000000003948 -1.599999999998274 0
389 -1.000000000003454 -1.399999999998028 0
390 -1.000000000002961 -1.199999999997781 0
391 -1.000000000002467 -0.9999999999975344 0
392 -1.000000000001974 -0.7999999999972874 0
393 -1.00000000000148 -0.5999999999970407 0
394 -1.000000000000987 -0.3999999999967947 0
395 -1.000000000000494 -0.1999999999965472 0
396 -1.000000000000001 3.670397319410768e-12 0
397 -0.9999999999995073 0.2000000000034523 0
398 -0.9999999999990139 0.4000000000032065 0
399 -0.9999999999985203 0.6000000000029601 0
400 -0.9999999999980271 0.8000000000027137 0
401 -0.999999999997534 1.000000000002467 0
402 -0.9999999999970404 1.200000000002221 0
403 -0.9999999999965472 1.400000000001974 0
404 -0.999999999996054 1.600000000001728 0
405 -0.9999999999955604 1.800000000001481 0
406 -0.9999999999950671 2.000000000001234 0
407 -0.9999999999945739 2.200000000000987 0
408 -0.9999999999940807 2.40000000000074 0
409 -0.9999999999935874 2.600000000000493 0
410 -0.9999999999930944 2.800000000000246 0
411 -0.8000000000075973 -2.799999999999801 0
412 -0.8000000000070546 -2.599999999999604 0
413 -0.8000000000065124 -2.399999999999408 0
414 -0.8000000000059695 -2.199999999999211 0
415 -0.8000000000054269 -1.999999999999013 0
416 -0.8000000000048844 -1.799999999998817 0
417 -0.8000000000043417 -1.59999999999862 0
418 -0.800000000003799 -1.399999999998422 0
419 -0.8000000000032563 -1.199999999998225 0
420 -0.8000000000027137 -0.9999999999980274 0
421 -0.800000000002171 -0.79999999999783 0
422 -0.8000000000016285 -0.5999999999976329 0
423 -0.8000000000010856 -0.3999999999974354 0
424 -0.8000000000005432 -0.1999999999972377 0
425 -0.8000000000000005 2.936317855528614e-12 0
426 -0.7999999999994577 0.2000000000027621 0
427 -0.7999999999989151 0.400000000002565 0
428 -0.7999999999983727 0.6000000000023684 0
429 -0.7999999999978301 0.8000000000021711 0
430 -0.7999999999972873 1.000000000001974 0
431 -0.7999999999967449 1.200000000001777 0
432 -0.7999999999962022 1.40000000000158 0
433 -0.7999999999956592 1.600000000001383 0
434 -0.7999999999951168 1.800000000001186 0
435 -0.7999999999945742 2.000000000000987 0
436 -0.799999999994032 2.20000000000079 0
437 -0.7999999999934889 2.400000000000592 0
438 -0.7999999999929462 2.600000000000394 0
439 -0.7999999999924039 2.800000000000197 0
440 -0.6000000000082879 -2.799999999999851 0
441 -0.6000000000076959 -2.599999999999704 0
442 -0.6000000000071037 -2.399999999999555 0
443 -0.6000000000065121 -2.199999999999408 0
444 -0.60000000000592 -1.999999999999259 0
445 -0.6000000000053279 -1.799999999999113 0
446 -0.600000000004736 -1.599999999998965 0
447 -0.6000000000041441 -1.399999999998817 0
448 -0.6000000000035521 -1.199999999998669 0
449 -0.6000000000029599 -0.9999999999985212 0
450 -0.6000000000023684 -0.7999999999983726 0
451 -0.6000000000017764 -0.5999999999982247 0
452 -0.6000000000011844 -0.3999999999980768 0
453 -0.6000000000005924 -0.1999999999979283 0
454 -0.6000000000000005 2.202349413948923e-12 0
455 -0.5999999999994086 0.2000000000020715 0
456 -0.5999999999988168 0.4000000000019239 0
457 -0.5999999999982246 0.6000000000017762 0
458 -0.5999999999976325 0.8000000000016285 0
459 -0.5999999999970408 1.000000000001481 0
460 -0.5999999999964492 1.200000000001333 0
461 -0.599999999995857 1.400000000001185 0
462 -0.5999999999952649 1.600000000001037 0
463 -0.599999999994673 1.800000000000889 0
464 -0.599999999994081 2.000000000000741 0
465 -0.5999999999934891 2.200000000000593 0
466 -0.5999999999928971 2.400000000000443 0
467 -0.5999999999923049 2.600000000000296 0
468 -0.5999999999917134 2.800000000000147 0
469 -0.400000000008978 -2.799999999999901 0
470 -0.4000000000083368 -2.599999999999802 0
471 -0.4000000000076956 -2.399999999999705 0
472 -0.4000000000070544 -2.199999999999605 0
473 -0.4000000000064128 -1.999999999999507 0
474 -0.4000000000057718 -1.79999999999941 0
475 -0.4000000000051305 -1.59999999999931 0
476 -0.4000000000044891 -1.399999999999211 0
477 -0.4000000000038479 -1.199999999999113 0
478 -0.4000000000032069 -0.9999999999990141 0
479 -0.4000000000025654 -0.7999999999989154 0
480 -0.4000000000019243 -0.5999999999988163 0
481 -0.4000000000012829 -0.3999999999987183 0
482 -0.4000000000006415 -0.1999999999986188 0
483 -0.4000000000000004 1.468047905461844e-12 0
484 -0.3999999999993591 0.2000000000013809 0
485 -0.3999999999987178 0.4000000000012824 0
486 -0.3999999999980766 0.6000000000011843 0
487 -0.3999999999974354 0.8000000000010856 0
488 -0.399999999996794 1.000000000000987 0
489 -0.3999999999961529 1.200000000000889 0
490 -0.3999999999955115 1.400000000000791 0
491 -0.3999999999948703 1.600000000000692 0
492 -0.3999999999942287 1.800000000000593 0
493 -0.3999999999935877 2.000000000000494 0
494 -0.3999999999929464 2.200000000000395 0
495 -0.399999999992305 2.400000000000296 0
496 -0.3999999999916637 2.600000000000197 0
497 -0.3999999999910226 2.800000000000098 0
498 -0.2000000000096679 -2.79999999999995 0
499 -0.2000000000089773 -2.599999999999901 0
500 -0.2000000000082869 -2.399999999999852 0
501 -0.2000000000075963 -2.199999999999802 0
502 -0.2000000000069057 -1.999999999999753 0
503 -0.200000000006215 -1.799999999999705 0
504 -0.2000000000055246 -1.599999999999656 0
505 -0.2000000000048339 -1.399999999999606 0
506 -0.2000000000041431 -1.199999999999557 0
507 -0.2000000000034526 -0.9999999999995075 0
508 -0.2000000000027622 -0.7999999999994578 0
509 -0.2000000000020716 -0.5999999999994086 0
510 -0.2000000000013812 -0.3999999999993592 0
511 -0.2000000000006906 -0.1999999999993094 0
512 -0.2 7.34190486184616e-13 0
513 -0.1999999999993094 0.2000000000006903 0
514 -0.1999999999986186 0.4000000000006414 0
515 -0.1999999999979281 0.6000000000005925 0
516 -0.1999999999972374 0.8000000000005429 0
517 -0.1999999999965469 1.000000000000494 0
518 -0.1999999999958563 1.200000000000445 0
519 -0.1999999999951658 1.400000000000396 0
520 -0.1999999999944754 1.600000000000347 0
521 -0.1999999999937848 1.800000000000297 0
522 -0.199999999993094 2.000000000000247 0
523 -0.1999999999924036 2.200000000000198 0
524 -0.1999999999917131 2.400000000000147 0
525 -0.1999999999910222 2.600000000000098 0
526 -0.1999999999903317 2.800000000000049 0
527 -1.027711249435286e-11 -2.799999999999999 0
528 -9.543033030473427e-12 -2.599999999999999 0
529 -8.808953566593991e-12 -2.4 0
530 -8.074874102714558e-12 -2.2 0
531 -7.340794638835119e-12 -2 0
532 -6.60671517495568e-12 -1.800000000000001 0
533 -5.872635711076247e-12 -1.600000000000001 0
534 -5.138556247196807e-12 -1.400000000000001 0
535 -4.404476783317371e-12 -1.200000000000001 0
536 -3.670397319437929e-12 -1.000000000000001 0
537 -2.936317855558489e-12 -0.8000000000000006 0
538 -2.202238391679055e-12 -0.6000000000000003 0
539 -1.468158927799612e-12 -0.4000000000000005 0
540 -7.340794639201763e-13 -0.2 0
541 -4.041552774145809e-23 0 0
542 7.340794638441355e-13 0.2 0
543 1.468158927729003e-12 0.3999999999999999 0
544 2.202238391613876e-12 0.6000000000000005 0
545 2.936317855498739e-12 0.8000000000000005 0
546 3.670508341686074e-12 1.000000000000001 0
547 4.404476783268484e-12 1.200000000000001 0
548 5.138556247153348e-12 1.400000000000001 0
549 5.872635711038216e-12 1.600000000000001 0
550 6.606715174923087e-12 1.800000000000001 0
551 7.340572594203029e-12 2 0
552 8.074874102692825e-12 2.2 0
553 8.80895356657769e-12 2.399999999999999 0
554 9.543033030462561e-12 2.6 0
555 1.027711249434743e-11 2.799999999999999 0
556 0.1999999999903317 -2.800000000000048 0
557 0.1999999999910224 -2.600000000000098 0
558 0.1999999999917128 -2.400000000000148 0
559 0.1999999999924033 -2.200000000000198 0
560 0.1999999999930943 -2.000000000000248 0
561 0.1999999999937848 -1.800000000000298 0
562 0.1999999999944753 -1.600000000000346 0
563 0.1999999999951656 -1.400000000000395 0
564 0.1999999999958562 -1.200000000000445 0
565 0.1999999999965466 -1.000000000000494 0
566 0.1999999999972376 -0.8000000000005433 0
567 0.1999999999979283 -0.6000000000005927 0
568 0.1999999999986186 -0.4000000000006418 0
569 0.1999999999993092 -0.2000000000006905 0
570 0.2 -7.340794638821535e-13 0
571 0.2000000000006902 0.1999999999993092 0
572 0.2000000000013809 0.399999999999359 0
573 0.2000000000020715 0.5999999999994085 0
574 0.2000000000027622 0.7999999999994578 0
575 0.2000000000034523 0.9999999999995074 0
576 0.2000000000041432 1.199999999999557 0
577 0.2000000000048338 1.399999999999606 0
578 0.2000000000055245 1.599999999999656 0
579 0.2000000000062149 1.799999999999705 0
580 0.2000000000069054 1.999999999999754 0
581 0.2000000000075958 2.199999999999803 0
582 0.2000000000082869 2.399999999999852 0
583 0.2000000000089772 2.599999999999901 0
584 0.2000000000096676 2.79999999999995 0
585 0.3999999999910221 -2.800000000000098 0
586 0.3999999999916637 -2.600000000000198 0
587 0.399999999992305 -2.400000000000297 0
588 0.3999999999929463 -2.200000000000396 0
589 0.3999999999935877 -2.000000000000495 0
590 0.3999999999942287 -1.800000000000593 0
591 0.3999999999948701 -1.600000000000692 0
592 0.3999999999955113 -1.400000000000791 0
593 0.3999999999961524 -1.200000000000889 0
594 0.3999999999967939 -1.000000000000987 0
595 0.3999999999974349 -0.8000000000010856 0
596 0.3999999999980763 -0.6000000000011843 0
597 0.3999999999987173 -0.400000000001283 0
598 0.3999999999993588 -0.200000000001381 0
599 0.3999999999999999 -1.468158927764307e-12 0
600 0.4000000000006415 0.1999999999986187 0
601 0.4000000000012827 0.3999999999987176 0
602 0.4000000000019239 0.5999999999988164 0
603 0.4000000000025654 0.7999999999989154 0
604 0.4000000000032062 0.9999999999990141 0
605 0.4000000000038478 1.199999999999113 0
606 0.400000000004489 1.399999999999212 0
607 0.4000000000051304 1.59999999999931 0
608 0.4000000000057713 1.799999999999409 0
609 0.400000000006413 1.999999999999507 0
610 0.400000000007054 2.199999999999606 0
611 0.4000000000076951 2.399999999999703 0
612 0.4000000000083368 2.599999999999802 0
613 0.4000000000089776 2.7999999999999 0
614 0.5999999999917132 -2.800000000000148 0
615 0.5999999999923047 -2.600000000000295 0
616 0.5999999999928973 -2.400000000000444 0
617 0.5999999999934891 -2.200000000000593 0
618 0.5999999999940813 -2.000000000000742 0
619 0.5999999999946728 -1.800000000000889 0
620 0.5999999999952648 -1.600000000001037 0
621 0.599999999995857 -1.400000000001185 0
622 0.5999999999964487 -1.200000000001333 0
623 0.5999999999970406 -1.00000000000148 0
624 0.5999999999976326 -0.8000000000016283 0
625 0.5999999999982246 -0.6000000000017762 0
626 0.5999999999988164 -0.4000000000019244 0
627 0.5999999999994083 -0.2000000000020714 0
628 0.6000000000000005 -2.202238391646461e-12 0
629 0.6000000000005923 0.1999999999979282 0
630 0.6000000000011841 0.3999999999980764 0
631 0.6000000000017761 0.5999999999982245 0
632 0.6000000000023676 0.7999999999983726 0
633 0.6000000000029603 0.9999999999985208 0
634 0.6000000000035521 1.199999999998669 0
635 0.6000000000041439 1.399999999998817 0
636 0.6000000000047359 1.599999999998965 0
637 0.6000000000053278 1.799999999999113 0
638 0.6000000000059196 1.99999999999926 0
639 0.6000000000065118 2.199999999999408 0
640 0.6000000000071033 2.399999999999555 0
641 0.6000000000076957 2.599999999999703 0
642 0.6000000000082875 2.799999999999851 0
643 0.7999999999924037 -2.800000000000197 0
644 0.7999999999929466 -2.600000000000395 0
645 0.7999999999934888 -2.400000000000592 0
646 0.7999999999940314 -2.200000000000791 0
647 0.7999999999945744 -2.000000000000987 0
648 0.7999999999951167 -1.800000000001185 0
649 0.7999999999956594 -1.600000000001383 0
650 0.799999999996202 -1.40000000000158 0
651 0.7999999999967448 -1.200000000001777 0
652 0.7999999999972875 -1.000000000001974 0
653 0.7999999999978299 -0.8000000000021709 0
654 0.7999999999983726 -0.6000000000023679 0
655 0.7999999999989154 -0.4000000000025659 0
656 0.7999999999994577 -0.2000000000027621 0
657 0.8000000000000005 -2.936317855528614e-12 0
658 0.8000000000005432 0.1999999999972377 0
659 0.8000000000010858 0.3999999999974353 0
660 0.8000000000016282 0.5999999999976321 0
661 0.800000000002171 0.79999999999783 0
662 0.8000000000027137 0.9999999999980276 0
663 0.8000000000032563 1.199999999998225 0
664 0.8000000000037989 1.399999999998422 0
665 0.8000000000043417 1.599999999998619 0
666 0.8000000000048844 1.799999999998817 0
667 0.8000000000054267 1.999999999999014 0
668 0.8000000000059693 2.199999999999211 0
669 0.8000000000065119 2.399999999999407 0
670 0.8000000000070546 2.599999999999604 0
671 0.8000000000075973 2.799999999999803 0
672 0.9999999999930945 -2.800000000000246 0
673 0.999999999993588 -2.600000000000493 0
674 0.9999999999940807 -2.400000000000741 0
675 0.9999999999945743 -2.200000000000987 0
676 0.9999999999950674 -2.000000000001234 0
677 0.9999999999955609 -1.800000000001482 0
678 0.9999999999960543 -1.600000000001728 0
679 0.9999999999965478 -1.400000000001974 0
680 0.9999999999970409 -1.200000000002221 0
681 0.9999999999975342 -1.000000000002467 0
682 0.9999999999980276 -0.8000000000027137 0
683 0.9999999999985211 -0.6000000000029601 0
684 0.999999999999014 -0.4000000000032069 0
685 0.9999999999995076 -0.2000000000034526 0
686 1.000000000000001 -3.670175274805842e-12 0
687 1.000000000000494 0.1999999999965466 0
688 1.000000000000987 0.3999999999967936 0
689 1.000000000001481 0.5999999999970409 0
690 1.000000000001974 0.7999999999972873 0
691 1.000000000002467 0.9999999999975342 0
692 1.000000000002961 1.199999999997782 0
693 1.000000000003454 1.399999999998027 0
694 1.000000000003947 1.599999999998274 0
695 1.00000000000444 1.799999999998521 0
696 1.000000000004934 1.999999999998767 0
697 1.000000000005427 2.199999999999013 0
698 1.000000000005921 2.39999999999926 0
699 1.000000000006414 2.599999999999507 0
700 1.000000000006907 2.799999999999752 0
701 1.199999999993785 -2.800000000000295 0
702 1.199999999994229 -2.600000000000592 0
703 1.199999999994674 -2.400000000000889 0
704 1.199999999995117 -2.200000000001185 0
705 1.199999999995561 -2.00000000000148 0
706 1.199999999996006 -1.800000000001777 0
707 1.199999999996449 -1.600000000002073 0
708 1.199999999996893 -1.400000000002369 0
709 1.199999999997337 -1.200000000002664 0
710 1.199999999997781 -1.000000000002961 0
711 1.199999999998225 -0.8000000000032566 0
712 1.199999999998669 -0.6000000000035524 0
713 1.199999999999113 -0.4000000000038483 0
714 1.199999999999557 -0.2000000000041434 0
715 1.200000000000001 -4.404532294444152e-12 0
716 1.200000000000445 0.1999999999958562 0
717 1.200000000000889 0.3999999999961527 0
718 1.200000000001333 0.5999999999964489 0
719 1.200000000001777 0.7999999999967449 0
720 1.200000000002221 0.9999999999970409 0
721 1.200000000002664 1.199999999997337 0
722 1.200000000003109 1.399999999997633 0
723 1.200000000003553 1.599999999997929 0
724 1.200000000003997 1.799999999998225 0
725 1.200000000004441 1.99999999999852 0
726 1.200000000004884 2.199999999998816 0
727 1.200000000005329 2.399999999999111 0
728 1.200000000005772 2.599999999999407 0
729 1.200000000006216 2.799999999999703 0
730 1.399999999994475 -2.800000000000345 0
731 1.39999999999487 -2.60000000000069 0
732 1.399999999995265 -2.400000000001036 0
733 1.39999999999566 -2.200000000001382 0
734 1.399999999996054 -2.000000000001727 0
735 1.399999999996449 -1.800000000002073 0
736 1.399999999996844 -1.600000000002419 0
737 1.399999999997239 -1.400000000002764 0
738 1.399999999997633 -1.200000000003108 0
739 1.399999999998028 -1.000000000003454 0
740 1.399999999998422 -0.800000000003799 0
741 1.399999999998817 -0.6000000000041441 0
742 1.399999999999212 -0.4000000000044894 0
743 1.399999999999606 -0.2000000000048338 0
744 1.400000000000001 -5.138611758326306e-12 0
745 1.400000000000396 0.1999999999951657 0
746 1.400000000000791 0.3999999999955113 0
747 1.400000000001185 0.5999999999958567 0
748 1.40000000000158 0.799999999996202 0
749 1.400000000001975 0.9999999999965477 0
750 1.400000000002369 1.199999999996893 0
751 1.400000000002764 1.399999999997238 0
752 1.400000000003159 1.599999999997584 0
753 1.400000000003553 1.799999999997929 0
754 1.400000000003948 1.999999999998273 0
755 1.400000000004343 2.199999999998619 0
756 1.400000000004737 2.399999999998964 0
757 1.400000000005133 2.599999999999309 0
758 1.400000000005527 2.799999999999653 0
759 1.599999999995166 -2.800000000000394 0
760 1.599999999995512 -2.600000000000789 0
761 1.599999999995857 -2.400000000001184 0
762 1.599999999996202 -2.200000000001579 0
763 1.599999999996547 -2.000000000001974 0
764 1.599999999996893 -1.800000000002369 0
765 1.599999999997238 -1.600000000002764 0
766 1.599999999997584 -1.400000000003159 0
767 1.59999999999793 -1.200000000003552 0
768 1.599999999998275 -1.000000000003947 0
769 1.59999999999862 -0.8000000000043417 0
770 1.599999999998965 -0.600000000004736 0
771 1.599999999999311 -0.4000000000051308 0
772 1.599999999999656 -0.2000000000055245 0
773 1.600000000000001 -5.872580199905997e-12 0
774 1.600000000000346 0.1999999999944753 0
775 1.600000000000692 0.3999999999948702 0
776 1.600000000001037 0.5999999999952649 0
777 1.600000000001383 0.7999999999956593 0
778 1.600000000001728 0.9999999999960542 0
779 1.600000000002073 1.199999999996449 0
780 1.600000000002418 1.399999999996844 0
781 1.600000000002764 1.599999999997239 0
782 1.60000000000311 1.799999999997633 0
783 1.600000000003455 1.999999999998026 0
784 1.600000000003801 2.199999999998422 0
785 1.600000000004146 2.399999999998815 0
786 1.600000000004491 2.59999999999921 0
787 1.600000000004836 2.799999999999605 0
788 1.799999999995857 -2.800000000000444 0
789 1.799999999996152 -2.600000000000886 0
790 1.799999999996449 -2.400000000001332 0
791 1.799999999996745 -2.200000000001776 0
792 1.799999999997041 -2.00000000000222 0
793 1.799999999997337 -1.800000000002665 0
794 1.799999999997632 -1.600000000003109 0
795 1.799999999997929 -1.400000000003553 0
796 1.799999999998225 -1.200000000003997 0
797 1.799999999998521 -1.000000000004441 0
798 1.799999999998817 -0.8000000000048839 0
799 1.799999999999113 -0.600000000005328 0
800 1.799999999999409 -0.4000000000057717 0
801 1.799999999999705 -0.2000000000062152 0
802 1.800000000000001 -6.606770686090613e-12 0
803 1.800000000000297 0.1999999999937846 0
804 1.800000000000594 0.3999999999942283 0
805 1.800000000000889 0.5999999999946728 0
806 1.800000000001185 0.799999999995117 0
807 1.800000000001481 0.999999999995561 0
808 1.800000000001778 1.199999999996005 0
809 1.800000000002073 1.399999999996449 0
810 1.80000000000237 1.599999999996893 0
811 1.800000000002665 1.799999999997337 0
812 1.800000000002961 1.99999999999778 0
813 1.800000000003257 2.199999999998225 0
814 1.800000000003553 2.399999999998667 0
815 1.80000000000385 2.599999999999111 0
816 1.800000000004145 2.799999999999556 0
817 1.999999999996547 -2.800000000000492 0
818 1.999999999996794 -2.600000000000986 0
819 1.999999999997039 -2.40000000000148 0
820 1.999999999997287 -2.200000000001974 0
821 1.999999999997533 -2.000000000002467 0
822 1.99999999999778 -1.800000000002961 0
823 1.999999999998027 -1.600000000003454 0
824 1.999999999998273 -1.400000000003948 0
825 1.99999999999852 -1.200000000004441 0
826 1.999999999998767 -1.000000000004933 0
827 1.999999999999013 -0.8000000000054266 0
828 1.99999999999926 -0.6000000000059201 0
829 1.999999999999507 -0.4000000000064132 0
830 1.999999999999754 -0.2000000000069056 0
831 2 -7.341127705728923e-12 0
832 2.000000000000247 0.199999999993094 0
833 2.000000000000494 0.3999999999935877 0
834 2.000000000000741 0.5999999999940808 0
835 2.000000000000987 0.7999999999945741 0
836 2.000000000001234 0.9999999999950675 0
837 2.000000000001481 1.199999999995561 0
838 2.000000000001727 1.399999999996054 0
839 2.000000000001974 1.599999999996548 0
840 2.00000000000222 1.799999999997041 0
841 2.000000000002467 1.999999999997534 0
842 2.000000000002714 2.199999999998027 0
843 2.000000000002961 2.39999999999852 0
844 2.000000000003208 2.599999999999013 0
845 2.000000000003454 2.799999999999506 0
846 2.199999999997238 -2.800000000000542 0
847 2.199999999997435 -2.600000000001086 0
848 2.199999999997632 -2.400000000001629 0
849 2.199999999997829 -2.200000000002171 0
850 2.199999999998027 -2.000000000002715 0
851 2.199999999998224 -1.800000000003257 0
852 2.199999999998422 -1.6000000000038 0
853 2.199999999998618 -1.400000000004342 0
854 2.199999999998816 -1.200000000004884 0
855 2.199999999999014 -1.000000000005427 0
856 2.199999999999211 -0.8000000000059696 0
857 2.199999999999409 -0.6000000000065121 0
858 2.199999999999606 -0.4000000000070543 0
859 2.199999999999803 -0.2000000000075964 0
860 2.200000000000001 -8.074874102703689e-12 0
861 2.200000000000197 0.1999999999924032 0
862 2.200000000000395 0.3999999999929461 0
863 2.200000000000593 0.5999999999934891 0
864 2.20000000000079 0.7999999999940318 0
865 2.200000000000986 0.9999999999945745 0
866 2.200000000001185 1.199999999995117 0
867 2.200000000001382 1.399999999995659 0
868 2.200000000001579 1.599999999996202 0
869 2.200000000001777 1.799999999996745 0
870 2.200000000001975 1.999999999997286 0
871 2.200000000002172 2.199999999997829 0
872 2.200000000002369 2.399999999998371 0
873 2.200000000002566 2.599999999998913 0
874 2.200000000002763 2.799999999999456 0
875 2.399999999997927 -2.800000000000592 0
876 2.399999999998075 -2.600000000001183 0
877 2.399999999998223 -2.400000000001776 0
878 2.399999999998372 -2.200000000002369 0
879 2.399999999998518 -2.00000000000296 0
880 2.399999999998667 -1.800000000003554 0
881 2.399999999998815 -1.600000000004145 0
882 2.399999999998963 -1.400000000004737 0
883 2.39999999999911 -1.200000000005329 0
884 2.39999999999926 -1.00000000000592 0
885 2.399999999999408 -0.8000000000065119 0
886 2.399999999999554 -0.600000000007104 0
887 2.399999999999703 -0.4000000000076956 0
888 2.399999999999851 -0.2000000000082868 0
889 2.399999999999999 -8.809009077737073e-12 0
890 2.400000000000148 0.1999999999917131 0
891 2.400000000000296 0.3999999999923047 0
892 2.400000000000443 0.599999999992897 0
893 2.400000000000591 0.7999999999934889 0
894 2.40000000000074 0.999999999994081 0
895 2.400000000000889 1.199999999994673 0
896 2.400000000001036 1.399999999995265 0
897 2.400000000001184 1.599999999995857 0
898 2.400000000001331 1.799999999996449 0
899 2.40000000000148 1.99999999999704 0
900 2.400000000001628 2.199999999997631 0
901 2.400000000001775 2.399999999998223 0
902 2.400000000001924 2.599999999998816 0
903 2.400000000002072 2.799999999999407 0
904 2.599999999998617 -2.800000000000642 0
905 2.599999999998715 -2.600000000001283 0
906 2.599999999998815 -2.400000000001925 0
907 2.599999999998914 -2.200000000002567 0
908 2.599999999999013 -2.000000000003207 0
909 2.599999999999111 -1.800000000003849 0
910 2.59999999999921 -1.60000000000449 0
911 2.59999999999931 -1.400000000005132 0
912 2.599999999999407 -1.200000000005772 0
913 2.599999999999506 -1.000000000006414 0
914 2.599999999999604 -0.8000000000070546 0
915 2.599999999999703 -0.6000000000076958 0
916 2.599999999999802 -0.4000000000083367 0
917 2.599999999999901 -0.2000000000089773 0
918 2.6 -9.542977519316764e-12 0
919 2.600000000000098 0.1999999999910222 0
920 2.600000000000198 0.399999999991664 0
921 2.600000000000296 0.5999999999923052 0
922 2.600000000000395 0.7999999999929464 0
923 2.600000000000492 0.999999999993588 0
924 2.600000000000592 1.19999999999423 0
925 2.600000000000691 1.39999999999487 0
926 2.600000000000789 1.599999999995511 0
927 2.600000000000888 1.799999999996153 0
928 2.600000000000986 1.999999999996793 0
929 2.600000000001086 2.199999999997434 0
930 2.600000000001183 2.399999999998076 0
931 2.600000000001283 2.599999999998716 0
932 2.600000000001382 2.799999999999358 0
933 2.799999999999308 -2.800000000000691 0
934 2.799999999999358 -2.600000000001381 0
935 2.799999999999407 -2.400000000002073 0
936 2.799999999999456 -2.200000000002763 0
937 2.799999999999506 -2.000000000003454 0
938 2.799999999999555 -1.800000000004145 0
939 2.799999999999605 -1.600000000004836 0
940 2.799999999999654 -1.400000000005527 0
941 2.799999999999703 -1.200000000006217 0
942 2.799999999999752 -1.000000000006907 0
943 2.799999999999802 -0.8000000000075975 0
944 2.79999999999985 -0.600000000008288 0
945 2.7999999999999 -0.4000000000089783 0
946 2.79999999999995 -0.2000000000096678 0
947 2.799999999999999 -1.027716800550138e-11 0
948 2.800000000000048 0.1999999999903316 0
949 2.800000000000098 0.3999999999910221 0
950 2.800000000000147 0.5999999999917132 0
951 2.800000000000197 0.7999999999924037 0
952 2.800000000000247 0.9999999999930945 0
953 2.800000000000295 1.199999999993786 0
954 2.800000000000345 1.399999999994475 0
955 2.800000000000394 1.599999999995166 0
956 2.800000000000444 1.799999999995857 0
957 2.800000000000493 1.999999999996546 0
958 2.800000000000543 2.199999999997237 0
959 2.800000000000591 2.399999999997927 0
960 2.800000000000641 2.599999999998618 0
961 2.80000000000069 2.799999999999309 0
$EndNodes
$Elements
1020
1 1 2 2 5 1 5
2 1 2 2 5 5 6
3 1 2 2 5 6 7
4 1 2 2 5 7 8
5 1 2 2 5 8 9
6 1 2 2 5 9 10
7 1 2 2 5 10 11
8 1 2 2 5 11 12
9 1 2 2 5 12 13
10 1 2 2 5 13 14
11 1 2 2 5 14 15
12 1 2 2 5 15 16
13 1 2 2 5 16 17
14 1 2 2 5 17 18
15 1 2 2 5 18 19
16 1 2 2 5 19 20
17 1 2 2 5 20 21
18 1 2 2 5 21 22
19 1 2 2 5 22 23
20 1 2 2 5 23 24
21 1 2 2 5 24 25
22 1 2 2 5 25 26
23 1 2 2 5 26 27
24 1 2 2 5 27 28
25 1 2 2 5 28 29
26 1 2 2 5 29 30
27 1 2 2 5 30 31
28 1 2 2 5 31 32
29 1 2 2 5 32 33
30 1 2 2 5 33 2
31 1 2 5 6 2 34
32 1 2 5 6 34 35
33 1 2 5 6 35 36
34 1 2 5 6 36 37
35 1 2 5 6 37 38
36 1 2 5 6 38 39
37 1 2 5 6 39 40
38 1 2 5 6 40 41
39 1 2 5 6 41 42
40 1 2 5 6 42 43
41 1 2 5 6 43 44
42 1 2 5 6 44 45
43 1 2 5 6 45 46
44 1 2 5 6 46 47
45 1 2 5 6 47 48
46 1 2 5 6 48 49
47 1 2 5 6 49 50
48 1 2 5 6 50 51
49 1 2 5 6 51 52
50 1 2 5 6 52 53
51 1 2 5 6 53 54
52 1 2 5 6 54 55
53 1 2 5 6 55 56
54 1 2 5 6 56 57
55 1 2 5 6 57 58
56 1 2 5 6 58 59
57 1 2 5 6 59 60
58 1 2 5 6 60 61
59 1 2 5 6 61 62
60 1 2 5 6 62 3
61 1 2 3 7 3 63
62 1 2 3 7 63 64
63 1 2 3 7 64 65
64 1 2 3 7 65 66
65 1 2 3 7 66 67
66 1 2 3 7 67 68
67 1 2 3 7 68 69
68 1 2 3 7 69 70
69 1 2 3 7 70 71
70 1 2 3 7 71 72
71 1 2 3 7 72 73
72 1 2 3 7 73 74
73 1 2 3 7 74 75
74 1 2 3 7 75 76
75 1 2 3 7 76 77
76 1 2 3 7 77 78
77 1 2 3 7 78 79
78 1 2 3 7 79 80
79 1 2 3 7 80 81
80 1 2 3 7 81 82
81 1 2 3 7 82 83
82 1 2 3 7 83 84
83 1 2 3 7 84 85
84 1 2 3 7 85 86
85 1 2 3 7 86 87
86 1 2 3 7 87 88
87 1 2 3 7 88 89
88 1 2 3 7 89 90
89 1 2 3 7 90 91
90 1 2 3 7 91 4
91 1 2 4 8 4 92
92 1 2 4 8 92 93
93 1 2 4 8 93 94
94 1 2 4 8 94 95
95 1 2 4 8 95 96
96 1 2 4 8 96 97
97 1 2 4 8 97 98
98 1 2 4 8 98 99
99 1 2 4 8 99 100
100 1 2 4 8 100 101
101 1 2 4 8 101 102
102 1 2 4 8 102 103
103 1 2 4 8 103 104
104 1 2 4 8 104 105
105 1 2 4 8 105 106
106 1 2 4 8 106 107
107 1 2 4 8 107 108
108 1 2 4 8 108 109
109 1 2 4 8 109 110
110 1 2 4 8 110 111
111 1 2 4 8 111 112
112 1 2 4 8 112 113
113 1 2 4 8 113 114
114 1 2 4 8 114 115
115 1 2 4 8 115 116
116 1 2 4 8 116 117
117 1 2 4 8 117 118
118 1 2 4 8 118 119
119 1 2 4 8 119 120
120 1 2 4 8 120 1
121 3 2 1 6 1 5 121 120
122 3 2 1 6 120 121 122 119
123 3 2 1 6 119 122 123 118
124 3 2 1 6 118 123 124 117
125 3 2 1 6 117 124 125 116
126 3 2 1 6 116 125 126 115
127 3 2 1 6 115 126 127 114
128 3 2 1 6 114 127 128 113
129 3 2 1 6 113 128 129 112
130 3 2 1 6 112 129 130 111
131 3 2 1 6 111 130 131 110
132 3 2 1 6 110 131 132 109
133 3 2 1 6 109 132 133 108
134 3 2 1 6 108 133 134 107
135 3 2 1 6 107 134 135 106
136 3 2 1 6 106 135 136 105
137 3 2 1 6 105 136 137 104
138 3 2 1 6 104 137 138 103
139 3 2 1 6 103 138 139 102
140 3 2 1 6 102 139 140 101
141 3 2 1 6 101 140 141 100
142 3 2 1 6 100 141 142 99
143 3 2 1 6 99 142 143 98
144 3 2 1 6 98 143 144 97
145 3 2 1 6 97 144 145 96
146 3 2 1 6 96 145 146 95
147 3 2 1 6 95 146 147 94
148 3 2 1 6 94 147 148 93
149 3 2 1 6 93 148 149 92
150 3 2 1 6 92 149 91 4
151 3 2 1 6 5 6 150 121
152 3 2 1 6 121 150 151 122
153 3 2 1 6 122 151 152 123
154 3 2 1 6 123 152 153 124
155 3 2 1 6 124 153 154 125
156 3 2 1 6 125 154 155 126
157 3 2 1 6 126 155 156 127
158 3 2 1 6 127 156 157 128
159 3 2 1 6 128 157 158 129
160 3 2 1 6 129 158 159 130
161 3 2 1 6 130 159 160 131
162 3 2 1 6 131 160 161 132
163 3 2 1 6 132 161 162 133
164 3 2 1 6 133 162 163 134
165 3 2 1 6 134 163 164 135
166 3 2 1 6 135 164 165 136
167 3 2 1 6 136 165 166 137
168 3 2 1 6 137 166 167 138
169 3 2 1 6 138 167 168 139
170 3 2 1 6 139 168 169 140
171 3 2 1 6 140 169 170 141
172 3 2 1 6 141 170 171 142
173 3 2 1 6 142 171 172 143
174 3 2 1 6 143 172 173 144
175 3 2 1 6 144 173 174 145
176 3 2 1 6 145 174 175 146
177 3 2 1 6 146 175 176 147
178 3 2 1 6 147 176 177 148
179 3 2 1 6 148 177 178 149
180 3 2 1 6 149 178 90 91
181 3 2 1 6 6 7 179 150
182 3 2 1 6 150 179 180 151
183 3 2 1 6 151 180 181 152
184 3 2 1 6 152 181 182 153
185 3 2 1 6 153 182 183 154
186 3 2 1 6 154 183 184 155
187 3 2 1 6 155 184 185 156
188 3 2 1 6 156 185 186 157
189 3 2 1 6 157 186 187 158
190 3 2 1 6 158 187 188 159
191 3 2 1 6 159 188 189 160
192 3 2 1 6 160 189 190 161
193 3 2 1 6 161 190 191 162
194 3 2 1 6 162 191 192 163
195 3 2 1 6 163 192 193 164
196 3 2 1 6 164 193 194 165
197 3 2 1 6 165 194 195 166
198 3 2 1 6 166 195 196 167
199 3 2 1 6 167 196 197 168
200 3 2 1 6 168 197 198 169
201 3 2 1 6 169 198 199 170
202 3 2 1 6 170 199 200 171
203 3 2 1 6 171 200 201 172
204 3 2 1 6 172 201 202 173
205 3 2 1 6 173 202 203 174
206 3 2 1 6 174 203 204 175
207 3 2 1 6 175 204 205 176
208 3 2 1 6 176 205 206 177
209 3 2 1 6 177 206 207 178
210 3 2 1 6 178 207 89 90
211 3 2 1 6 7 8 208 179
212 3 2 1 6 179 208 209 180
213 3 2 1 6 180 209 210 181
214 3 2 1 6 181 210 211 182
215 3 2 1 6 182 211 212 183
216 3 2 1 6 183 212 213 184
217 3 2 1 6 184 213 214 185
218 3 2 1 6 185 214 215 186
219 3 2 1 6 186 215 216 187
220 3 2 1 6 187 216 217 188
221 3 2 1 6 188 217 218 189
222 3 2 1 6 189 218 219 190
223 3 2 1 6 190 219 220 191
224 3 2 1 6 191 220 221 192
225 3 2 1 6 192 221 222 193
226 3 2 1 6 193 222 223 194
227 3 2 1 6 194 223 224 195
228 3 2 1 6 195 224 225 196
229 3 2 1 6 196 225 226 197
230 3 2 1 6 197 226 227 198
231 3 2 1 6 198 227 228 199
232 3 2 1 6 199 228 229 200
233 3 2 1 6 200 229 230 201
234 3 2 1 6 201 230 231 202
235 3 2 1 6 202 231 232 203
236 3 2 1 6 203 232 233 204
237 3 2 1 6 204 233 234 205
238 3 2 1 6 205 234 235 206
239 3 2 1 6 206 235 236 207
240 3 2 1 6 207 236 88 89
241 3 2 1 6 8 9 237 208
242 3 2 1 6 208 237 238 209
243 3 2 1 6 209 238 239 210
244 3 2 1 6 210 239 240 211
245 3 2 1 6 211 240 241 212
246 3 2 1 6 212 241 242 213
247 3 2 1 6 213 242 243 214
248 3 2 1 6 214 243 244 215
249 3 2 1 6 215 244 245 216
250 3 2 1 6 216 245 246 217
251 3 2 1 6 217 246 247 218
252 3 2 1 6 218 247 248 219
253 3 2 1 6 219 248 249 220
254 3 2 1 6 220 249 250 221
255 3 2 1 6 221 250 251 222
256 3 2 1 6 222 251 252 223
257 3 2 1 6 223 252 253 224
258 3 2 1 6 224 253 254 225
259 3 2 1 6 225 254 255 226
260 3 2 1 6 226 255 256 227
261 3 2 1 6 227 256 257 228
262 3 2 1 6 228 257 258 229
263 3 2 1 6 229 258 259 230
264 3 2 1 6 230 259 260 231
265 3 2 1 6 231 260 261 232
266 3 2 1 6 232 261 262 233
267 3 2 1 6 233 262 263 234
268 3 2 1 6 234 263 264 235
269 3 2 1 6 235 264 265 236
270 3 2 1 6 236 265 87 88
271 3 2 1 6 9 10 266 237
272 3 2 1 6 237 266 267 238
273 3 2 1 6 238 267 268 239
274 3 2 1 6 239 268 269 240
275 3 2 1 6 240 269 270 241
276 3 2 1 6 241 270 271 242
277 3 2 1 6 242 271 272 243
278 3 2 1 6 243 272 273 244
279 3 2 1 6 244 273 274 245
280 3 2 1 6 245 274 275 246
281 3 2 1 6 246 275 276 247
282 3 2 1 6 247 276 277 248
283 3 2 1 6 248 277 278 249
284 3 2 1 6 249 278 279 250
285 3 2 1 6 250 279 280 251
286 3 2 1 6 251 280 281 252
287 3 2 1 6 252 281 282 253
288 3 2 1 6 253 282 283 254
289 3 2 1 6 254 283 284 255
290 3 2 1 6 255 284 285 256
291 3 2 1 6 256 285 286 257
292 3 2 1 6 257 286 287 258
293 3 2 1 6 258 287 288 259
294 3 2 1 6 259 288 289 260
295 3 2 1 6 260 289 290 261
296 3 2 1 6 261 290 291 262
297 3 2 1 6 262 291 292 263
298 3 2 1 6 263 292 293 264
299 3 2 1 6 264 293 294 265
300 3 2 1 6 265 294 86 87
301 3 2 1 6 10 11 295 266
302 3 2 1 6 266 295 296 267
303 3 2 1 6 267 296 297 268
304 3 2 1 6 268 297 298 269
305 3 2 1 6 269 298 299 270
306 3 2 1 6 270 299 300 271
307 3 2 1 6 271 300 301 272
308 3 2 1 6 272 301 302 273
309 3 2 1 6 273 302 303 274
310 3 2 1 6 274 303 304 275
311 3 2 1 6 275 304 305 276
312 3 2 1 6 276 305 306 277
313 3 2 1 6 277 306 307 278
314 3 2 1 6 278 307 308 279
315 3 2 1 6 279 308 309 280
316 3 2 1 6 280 309 310 281
317 3 2 1 6 281 310 311 282
318 3 2 1 6 282 311 312 283
319 3 2 1 6 283 312 313 284
320 3 2 1 6 284 313 314 285
321 3 2 1 6 285 314 315 286
322 3 2 1 6 286 315 316 287
323 3 2 1 6 287 316 317 288
324 3 2 1 6 288 317 318 289
325 3 2 1 6 289 318 319 290
326 3 2 1 6 290 319 320 291
327 3 2 1 6 291 320 321 292
328 3 2 1 6 292 321 322 293
329 3 2 1 6 293 322 323 294
330 3 2 1 6 294 323 85 86
331 3 2 1 6 11 12 324 295
332 3 2 1 6 295 324 325 296
333 3 2 1 6 296 325 326 297
334 3 2 1 6 297 326 327 298
335 3 2 1 6 298 327 328 299
336 3 2 1 6 299 328 329 300
337 3 2 1 6 300 329 330 301
338 3 2 1 6 301 330 331 302
339 3 2 1 6 302 331 332 303
340 3 2 1 6 303 332 333 304
341 3 2 1 6 304 333 334 305
342 3 2 1 6 305 334 335 306
343 3 2 1 6 306 335 336 307
344 3 2 1 6 307 336 337 308
345 3 2 1 6 308 337 338 309
346 3 2 1 6 309 338 339 310
347 3 2 1 6 310 339 340 311
348 3 2 1 6 311 340 341 312
349 3 2 1 6 312 341 342 313
350 3 2 1 6 313 342 343 314
351 3 2 1 6 314 343 344 315
352 3 2 1 6 315 344 345 316
353 3 2 1 6 316 345 346 317
354 3 2 1 6 317 346 347 318
355 3 2 1 6 318 347 348 319
356 3 2 1 6 319 348 349 320
357 3 2 1 6 320 349 350 321
358 3 2 1 6 321 350 351 322
359 3 2 1 6 322 351 352 323
360 3 2 1 6 323 352 84 85
361 3 2 1 6 12 13 353 324
362 3 2 1 6 324 353 354 325
363 3 2 1 6 325 354 355 326
364 3 2 1 6 326 355 356 327
365 3 2 1 6 327 356 357 328
366 3 2 1 6 328 357 358 329
367 3 2 1 6 329 358 359 330
368 3 2 1 6 330 359 360 331
369 3 2 1 6 331 360 361 332
370 3 2 1 6 332 361 362 333
371 3 2 1 6 333 362 363 334
372 3 2 1 6 334 363 364 335
373 3 2 1 6 335 364 365 336
374 3 2 1 6 336 365 366 337
375 3 2 1 6 337 366 367 338
376 3 2 1 6 338 367 368 339
377 3 2 1 6 339 368 369 340
378 3 2 1 6 340 369 370 341
379 3 2 1 6 341 370 371 342
380 3 2 1 6 342 371 372 343
381 3 2 1 6 343 372 373 344
382 3 2 1 6 344 373 374 345
383 3 2 1 6 345 374 375 346
384 3 2 1 6 346 375 376 347
385 3 2 1 6 347 376 377 348
386 3 2 1 6 348 377 378 349
387 3 2 1 6 349 378 379 350
388 3 2 1 6 350 379 380 351
389 3 2 1 6 351 380 381 352
390 3 2 1 6 352 381 83 84
391 3 2 1 6 13 14 382 353
392 3 2 1 6 353 382 383 354
393 3 2 1 6 354 383 384 355
394 3 2 1 6 355 384 385 356
395 3 2 1 6 356 385 386 357
396 3 2 1 6 357 386 387 358
397 3 2 1 6 358 387 388 359
398 3 2 1 6 359 388 389 360
399 3 2 1 6 360 389 390 361
400 3 2 1 6 361 390 391 362
401 3 2 1 6 362 391 392 363
402 3 2 1 6 363 392 393 364
403 3 2 1 6 364 393 394 365
404 3 2 1 6 365 394 395 366
405 3 2 1 6 366 395 396 367
406 3 2 1 6 367 396 397 368
407 3 2 1 6 368 397 398 369
408 3 2 1 6 369 398 399 370
409 3 2 1 6 370 399 400 371
410 3 2 1 6 371 400 401 372
411 3 2 1 6 372 401 402 373
412 3 2 1 6 373 402 403 374
413 3 2 1 6 374 403 404 375
414 3 2 1 6 375 404 405 376
415 3 2 1 6 376 405 406 377
416 3 2 1 6 377 406 407 378
417 3 2 1 6 378 407 408 379
418 3 2 1 6 379 408 409 380
419 3 2 1 6 380 409 410 381
420 3 2 1 6 381 410 82 83
421 3 2 1 6 14 15 411 382
422 3 2 1 6 382 411 412 383
423 3 2 1 6 383 412 413 384
424 3 2 1 6 384 413 414 385
425 3 2 1 6 385 414 415 386
426 3 2 1 6 386 415 416 387
427 3 2 1 6 387 416 417 388
428 3 2 1 6 388 417 418 389
429 3 2 1 6 389 418 419 390
430 3 2 1 6 390 419 420 391
431 3 2 1 6 391 420 421 392
432 3 2 1 6 392 421 422 393
433 3 2 1 6 393 422 423 394
434 3 2 1 6 394 423 424 395
435 3 2 1 6 395 424 425 396
436 3 2 1 6 396 425 426 397
437 3 2 1 6 397 426 427 398
438 3 2 1 6 398 427 428 399
439 3 2 1 6 399 428 429 400
440 3 2 1 6 400 429 430 401
441 3 2 1 6 401 430 431 402
442 3 2 1 6 402 431 432 403
443 3 2 1 6 403 432 433 404
444 3 2 1 6 404 433 434 405
445 3 2 1 6 405 434 435 406
446 3 2 1 6 406 435 436 407
447 3 2 1 6 407 436 437 408
448 3 2 1 6 408 437 438 409
449 3 2 1 6 409 438 439 410
450 3 2 1 6 410 439 81 82
451 3 2 1 6 15 16 440 411
452 3 2 1 6 411 440 441 412
453 3 2 1 6 412 441 442 413
454 3 2 1 6 413 442 443 414
455 3 2 1 6 414 443 444 415
456 3 2 1 6 415 444 445 416
457 3 2 1 6 416 445 446 417
458 3 2 1 6 417 446 447 418
459 3 2 1 6 418 447 448 419
460 3 2 1 6 419 448 449 420
461 3 2 1 6 420 449 450 421
462 3 2 1 6 421 450 451 422
463 3 2 1 6 422 451 452 423
464 3 2 1 6 423 452 453 424
465 3 2 1 6 424 453 454 425
466 3 2 1 6 425 454 455 426
467 3 2 1 6 426 455 456 427
468 3 2 1 6 427 456 457 428
469 3 2 1 6 428 457 458 429
470 3 2 1 6 429 458 459 430
471 3 2 1 6 430 459 460 431
472 3 2 1 6 431 460 461 432
473 3 2 1 6 432 461 462 433
474 3 2 1 6 433 462 463 434
475 3 2 1 6 434 463 464 435
476 3 2 1 6 435 464 465 436
477 3 2 1 6 436 465 466 437
478 3 2 1 6 437 466 467 438
479 3 2 1 6 438 467 468 439
480 3 2 1 6 439 468 80 81
481 3 2 1 6 16 17 469 440
482 3 2 1 6 440 469 470 441
483 3 2 1 6 441 470 471 442
484 3 2 1 6 442 471 472 443
485 3 2 1 6 443 472 473 444
486 3 2 1 6 444 473 474 445
487 3 2 1 6 445 474 475 446
488 3 2 1 6 446 475 476 447
489 3 2 1 6 447 476 477 448
490 3 2 1 6 448 477 478 449
491 3 2 1 6 449 478 479 450
492 3 2 1 6 450 479 480 451
493 3 2 1 6 451 480 481 452
494 3 2 1 6 452 481 482 453
495 3 2 1 6 453 482 483 454
496 3 2 1 6 454 483 484 455
497 3 2 1 6 455 484 485 456
498 3 2 1 6 456 485 486 457
499 3 2 1 6 457 486 487 458
500 3 2 1 6 458 487 488 459
501 3 2 1 6 459 488 489 460
502 3 2 1 6 460 489 490 461
503 3 2 1 6 461 490 491 462
504 3 2 1 6 462 491 492 463
505 3 2 1 6 463 492 493 464
506 3 2 1 6 464 493 494 465
507 3 2 1 6 465 494 495 466
508 3 2 1 6 466 495 496 467
509 3 2 1 6 467 496 497 468
510 3 2 1 6 468 497 79 80
511 3 2 1 6 17 18 498 469
512 3 2 1 6 469 498 499 470
513 3 2 1 6 470 499 500 471
514 3 2 1 6 471 500 501 472
515 3 2 1 6 472 501 502 473
516 3 2 1 6 473 502 503 474
517 3 2 1 6 474 503 504 475
518 3 2 1 6 475 504 505 476
519 3 2 1 6 476 505 506 477
520 3 2 1 6 477 506 507 478
521 3 2 1 6 478 507 508 479
522 3 2 1 6 479 508 509 480
523 3 2 1 6 480 509 510 481
524 3 2 1 6 481 510 511 482
525 3 2 1 6 482 511 512 483
526 3 2 1 6 483 512 513 484
527 3 2 1 6 484 513 514 485
528 3 2 1 6 485 514 515 486
529 3 2 1 6 486 515 516 487
530 3 2 1 6 487 516 517 488
531 3 2 1 6 488 517 518 489
532 3 2 1 6 489 518 519 490
533 3 2 1 6 490 519 520 491
534 3 2 1 6 491 520 521 492
535 3 2 1 6 492 521 522 493
536 3 2 1 6 493 522 523 494
537 3 2 1 6 494 523 524 495
538 3 2 1 6 495 524 525 496
539 3 2 1 6 496 525 526 497
540 3 2 1 6 497 526 78 79
541 3 2 1 6 18 19 527 498
542 3 2 1 6 498 527 528 499
543 3 2 1 6 499 528 529 500
544 3 2 1 6 500 529 530 501
545 3 2 1 6 501 530 531 502
546 3 2 1 6 502 531 532 503
547 3 2 1 6 503 532 533 504
548 3 2 1 6 504 533 534 505
549 3 2 1 6 505 534 535 506
550 3 2 1 6 506 535 536 507
551 3 2 1 6 507 536 537 508
552 3 2 1 6 508 537 538 509
553 3 2 1 6 509 538 539 510
554 3 2 1 6 510 539 540 511
555 3 2 1 6 511 540 541 512
556 3 2 1 6 512 541 542 513
557 3 2 1 6 513 542 543 514
558 3 2 1 6 514 543 544 515
559 3 2 1 6 515 544 545 516
560 3 2 1 6 516 545 546 517
561 3 2 1 6 517 546 547 518
562 3 2 1 6 518 547 548 519
563 3 2 1 6 519 548 549 520
564 3 2 1 6 520 549 550 521
565 3 2 1 6 521 550 551 522
566 3 2 1 6 522 551 552 523
567 3 2 1 6 523 552 553 524
568 3 2 1 6 524 553 554 525
569 3 2 1 6 525 554 555 526
570 3 2 1 6 526 555 77 78
571 3 2 1 6 19 20 556 527
572 3 2 1 6 527 556 557 528
573 3 2 1 6 528 557 558 529
574 3 2 1 6 529 558 559 530
575 3 2 1 6 530 559 560 531
576 3 2 1 6 531 560 561 532
577 3 2 1 6 532 561 562 533
578 3 2 1 6 533 562 563 534
579 3 2 1 6 534 563 564 535
580 3 2 1 6 535 564 565 536
581 3 2 1 6 536 565 566 537
582 3 2 1 6 537 566 567 538
583 3 2 1 6 538 567 568 539
584 3 2 1 6 539 568 569 540
585 3 2 1 6 540 569 570 541
586 3 2 1 6 541 570 571 542
587 3 2 1 6 542 571 572 543
588 3 2 1 6 543 572 573 544
589 3 2 1 6 544 573 574 545
590 3 2 1 6 545 574 575 546
591 3 2 1 6 546 575 576 547
592 3 2 1 6 547 576 577 548
593 3 2 1 6 548 577 578 549
594 3 2 1 6 549 578 579 550
595 3 2 1 6 550 579 580 551
596 3 2 1 6 551 580 581 552
597 3 2 1 6 552 581 582 553
598 3 2 1 6 553 582 583 554
599 3 2 1 6 554 583 584 555
600 3 2 1 6 555 584 76 77
601 3 2 1 6 20 21 585 556
602 3 2 1 6 556 585 586 557
603 3 2 1 6 557 586 587 558
604 3 2 1 6 558 587 588 559
605 3 2 1 6 559 588 589 560
606 3 2 1 6 560 589 590 561
607 3 2 1 6 561 590 591 562
608 3 2 1 6 562 591 592 563
609 3 2 1 6 563 592 593 564
610 3 2 1 6 564 593 594 565
611 3 2 1 6 565 594 595 566
612 3 2 1 6 566 595 596 567
613 3 2 1 6 567 596 597 568
614 3 2 1 6 568 597 598 569
615 3 2 1 6 569 598 599 570
616 3 2 1 6 570 599 600 571
617 3 2 1 6 571 600 601 572
618 3 2 1 6 572 601 602 573
619 3 2 1 6 573 602 603 574
620 3 2 1 6 574 603 604 575
621 3 2 1 6 575 604 605 576
622 3 2 1 6 576 605 606 577
623 3 2 1 6 577 606 607 578
624 3 2 1 6 578 607 608 579
625 3 2 1 6 579 608 609 580
626 3 2 1 6 580 609 610 581
627 3 2 1 6 581 610 611 582
628 3 2 1 6 582 611 612 583
629 3 2 1 6 583 612 613 584
630 3 2 1 6 584 613 75 76
631 3 2 1 6 21 22 614 585
632 3 2 1 6 585 614 615 586
633 3 2 1 6 586 615 616 587
634 3 2 1 6 587 616 617 588
635 3 2 1 6 588 617 618 589
636 3 2 1 6 589 618 619 590
637 3 2 1 6 590 619 620 591
638 3 2 1 6 591 620 621 592
639 3 2 1 6 592 621 622 593
640 3 2 1 6 593 622 623 594
641 3 2 1 6 594 623 624 595
642 3 2 1 6 595 624 625 596
643 3 2 1 6 596 625 626 597
644 3 2 1 6 597 626 627 598
645 3 2 1 6 598 627 628 599
646 3 2 1 6 599 628 629 600
647 3 2 1 6 600 629 630 601
648 3 2 1 6 601 630 631 602
649 3 2 1 6 602 631 632 603
650 3 2 1 6 603 632 633 604
651 3 2 1 6 604 633 634 605
652 3 2 1 6 605 634 635 606
653 3 2 1 6 606 635 636 607
654 3 2 1 6 607 636 637 608
655 3 2 1 6 608 637 638 609
656 3 2 1 6 609 638 639 610
657 3 2 1 6 610 639 640 611
658 3 2 1 6 611 640 641 612
659 3 2 1 6 612 641 642 613
660 3 2 1 6 613 642 74 75
661 3 2 1 6 22 23 643 614
662 3 2 1 6 614 643 644 615
663 3 2 1 6 615 644 645 616
664 3 2 1 6 616 645 646 617
665 3 2 1 6 617 646 647 618
666 3 2 1 6 618 647 648 619
667 3 2 1 6 619 648 649 620
668 3 2 1 6 620 649 650 621
669 3 2 1 6 621 650 651 622
670 3 2 1 6 622 651 652 623
671 3 2 1 6 623 652 653 624
672 3 2 1 6 624 653 654 625
673 3 2 1 6 625 654 655 626
674 3 2 1 6 626 655 656 627
675 3 2 1 6 627 656 657 628
676 3 2 1 6 628 657 658 629
677 3 2 1 6 629 658 659 630
678 3 2 1 6 630 659 660 631
679 3 2 1 6 631 660 661 632
680 3 2 1 6 632 661 662 633
681 3 2 1 6 633 662 663 634
682 3 2 1 6 634 663 664 635
683 3 2 1 6 635 664 665 636
684 3 2 1 6 636 665 666 637
685 3 2 1 6 637 666 667 638
686 3 2 1 6 638 667 668 639
687 3 2 1 6 639 668 669 640
688 3 2 1 6 640 669 670 641
689 3 2 1 6 641 670 671 642
690 3 2 1 6 642 671 73 74
691 3 2 1 6 23 24 672 643
692 3 2 1 6 643 672 673 644
693 3 2 1 6 644 673 674 645
694 3 2 1 6 645 674 675 646
695 3 2 1 6 646 675 676 647
696 3 2 1 6 647 676 677 648
697 3 2 1 6 648 677 678 649
698 3 2 1 6 649 678 679 650
699 3 2 1 6 650 679 680 651
700 3 2 1 6 651 680 681 652
701 3 2 1 6 652 681 682 653
702 3 2 1 6 653 682 683 654
703 3 2 1 6 654 683 684 655
704 3 2 1 6 655 684 685 656
705 3 2 1 6 656 685 686 657
706 3 2 1 6 657 686 687 658
707 3 2 1 6 658 687 688 659
708 3 2 1 6 659 688 689 660
709 3 2 1 6 660 689 690 661
710 3 2 1 6 661 690 691 662
711 3 2 1 6 662 691 692 663
712 3 2 1 6 663 692 693 664
713 3 2 1 6 664 693 694 665
714 3 2 1 6 665 694 695 666
715 3 2 1 6 666 695 696 667
716 3 2 1 6 667 696 697 668
717 3 2 1 6 668 697 698 669
718 3 2 1 6 669 698 699 670
719 3 2 1 6 670 699 700 671
720 3 2 1 6 671 700 72 73
721 3 2 1 6 24 25 701 672
722 3 2 1 6 672 701 702 673
723 3 2 1 6 673 702 703 674
724 3 2 1 6 674 703 704 675
725 3 2 1 6 675 704 705 676
726 3 2 1 6 676 705 706 677
727 3 2 1 6 677 706 707 678
728 3 2 1 6 678 707 708 679
729 3 2 1 6 679 708 709 680
730 3 2 1 6 680 709 710 681
731 3 2 1 6 681 710 711 682
732 3 2 1 6 682 711 712 683
733 3 2 1 6 683 712 713 684
734 3 2 1 6 684 713 714 685
735 3 2 1 6 685 714 715 686
736 3 2 1 6 686 715 716 687
737 3 2 1 6 687 716 717 688
738 3 2 1 6 688 717 718 689
739 3 2 1 6 689 718 719 690
740 3 2 1 6 690 719 720 691
741 3 2 1 6 691 720 721 692
742 3 2 1 6 692 721 722 693
743 3 2 1 6 693 722 723 694
744 3 2 1 6 694 723 724 695
745 3 2 1 6 695 724 725 696
746 3 2 1 6 696 725 726 697
747 3 2 1 6 697 726 727 698
748 3 2 1 6 698 727 728 699
749 3 2 1 6 699 728 729 700
750 3 2 1 6 700 729 71 72
751 3 2 1 6 25 26 730 701
752 3 2 1 6 701 730 731 702
753 3 2 1 6 702 731 732 703
754 3 2 1 6 703 732 733 704
755 3 2 1 6 704 733 734 705
756 3 2 1 6 705 734 735 706
757 3 2 1 6 706 735 736 707
758 3 2 1 6 707 736 737 708
759 3 2 1 6 708 737 738 709
760 3 2 1 6 709 738 739 710
761 3 2 1 6 710 739 740 711
762 3 2 1 6 711 740 741 712
763 3 2 1 6 712 741 742 713
764 3 2 1 6 713 742 743 714
765 3 2 1 6 714 743 744 715
766 3 2 1 6 715 744 745 716
767 3 2 1 6 716 745 746 717
768 3 2 1 6 717 746 747 718
769 3 2 1 6 718 747 748 719
770 3 2 1 6 719 748 749 720
771 3 2 1 6 720 749 750 721
772 3 2 1 6 721 750 751 722
773 3 2 1 6 722 751 752 723
774 3 2 1 6 723 752 753 724
775 3 2 1 6 724 753 754 725
776 3 2 1 6 725 754 755 726
777 3 2 1 6 726 755 756 727
778 3 2 1 6 727 756 757 728
779 3 2 1 6 728 757 758 729
780 3 2 1 6 729 758 70 71
781 3 2 1 6 26 27 759 730
782 3 2 1 6 730 759 760 731
783 3 2 1 6 731 760 761 732
784 3 2 1 6 732 761 762 733
785 3 2 1 6 733 762 763 734
786 3 2 1 6 734 763 764 735
787 3 2 1 6 735 764 765 736
788 3 2 1 6 736 765 766 737
789 3 2 1 6 737 766 767 738
790 3 2 1 6 738 767 768 739
791 3 2 1 6 739 768 769 740
792 3 2 1 6 740 769 770 741
793 3 2 1 6 741 770 771 742
794 3 2 1 6 742 771 772 743
795 3 2 1 6 743 772 773 744
796 3 2 1 6 744 773 774 745
797 3 2 1 6 745 774 775 746
798 3 2 1 6 746 775 776 747
799 3 2 1 6 747 776 777 748
800 3 2 1 6 748 777 778 749
801 3 2 1 6 749 778 779 750
802 3 2 1 6 750 779 780 751
803 3 2 1 6 751 780 781 752
804 3 2 1 6 752 781 782 753
805 3 2 1 6 753 782 783 754
806 3 2 1 6 754 783 784 755
807 3 2 1 6 755 784 785 756
808 3 2 1 6 756 785 786 757
809 3 2 1 6 757 786 787 758
810 3 2 1 6 758 787 69 70
811 3 2 1 6 27 28 788 759
812 3 2 1 6 759 788 789 760
813 3 2 1 6 760 789 790 761
814 3 2 1 6 761 790 791 762
815 3 2 1 6 762 791 792 763
816 3 2 1 6 763 792 793 764
817 3 2 1 6 764 793 794 765
818 3 2 1 6 765 794 795 766
819 3 2 1 6 766 795 796 767
820 3 2 1 6 767 796 797 768
821 3 2 1 6 768 797 798 769
822 3 2 1 6 769 798 799 770
823 3 2 1 6 770 799 800 771
824 3 2 1 6 771 800 801 772
825 3 2 1 6 772 801 802 773
826 3 2 1 6 773 802 803 774
827 3 2 1 6 774 803 804 775
828 3 2 1 6 775 804 805 776
829 3 2 1 6 776 805 806 777
830 3 2 1 6 777 806 807 778
831 3 2 1 6 778 807 808 779
832 3 2 1 6 779 808 809 780
833 3 2 1 6 780 809 810 781
834 3 2 1 6 781 810 811 782
835 3 2 1 6 782 811 812 783
836 3 2 1 6 783 812 813 784
837 3 2 1 6 784 813 814 785
838 3 2 1 6 785 814 815 786
839 3 2 1 6 786 815 816 787
840 3 2 1 6 787 816 68 69
841 3 2 1 6 28 29 817 788
842 3 2 1 6 788 817 818 789
843 3 2 1 6 789 818 819 790
844 3 2 1 6 790 819 820 791
845 3 2 1 6 791 820 821 792
846 3 2 1 6 792 821 822 793
847 3 2 1 6 793 822 823 794
848 3 2 1 6 794 823 824 795
849 3 2 1 6 795 824 825 796
850 3 2 1 6 796 825 826 797
851 3 2 1 6 797 826 827 798
852 3 2 1 6 798 827 828 799
853 3 2 1 6 799 828 829 800
854 3 2 1 6 800 829 830 801
855 3 2 1 6 801 830 831 802
856 3 2 1 6 802 831 832 803
857 3 2 1 6 803 832 833 804
858 3 2 1 6 804 833 834 805
859 3 2 1 6 805 834 835 806
860 3 2 1 6 806 835 836 807
861 3 2 1 6 807 836 837 808
862 3 2 1 6 808 837 838 809
863 3 2 1 6 809 838 839 810
864 3 2 1 6 810 839 840 811
865 3 2 1 6 811 840 841 812
866 3 2 1 6 812 841 842 813
867 3 2 1 6 813 842 843 814
868 3 2 1 6 814 843 844 815
869 3 2 1 6 815 844 845 816
870 3 2 1 6 816 845 67 68
871 3 2 1 6 29 30 846 817
872 3 2 1 6 817 846 847 818
873 3 2 1 6 818 847 848 819
874 3 2 1 6 819 848 849 820
875 3 2 1 6 820 849 850 821
876 3 2 1 6 821 850 851 822
877 3 2 1 6 822 851 852 823
878 3 2 1 6 823 852 853 824
879 3 2 1 6 824 853 854 825
880 3 2 1 6 825 854 855 826
881 3 2 1 6 826 855 856 827
882 3 2 1 6 827 856 857 828
883 3 2 1 6 828 857 858 829
884 3 2 1 6 829 858 859 830
885 3 2 1 6 830 859 860 831
886 3 2 1 6 831 860 861 832
887 3 2 1 6 832 861 862 833
888 3 2 1 6 833 862 863 834
889 3 2 1 6 834 863 864 835
890 3 2 1 6 835 864 865 836
891 3 2 1 6 836 865 866 837
892 3 2 1 6 837 866 867 838
893 3 2 1 6 838 867 868 839
894 3 2 1 6 839 868 869 840
895 3 2 1 6 840 869 870 841
896 3 2 1 6 841 870 871 842
897 3 2 1 6 842 871 872 843
898 3 2 1 6 843 872 873 844
899 3 2 1 6 844 873 874 845
900 3 2 1 6 845 874 66 67
901 3 2 1 6 30 31 875 846
902 3 2 1 6 846 875 876 847
903 3 2 1 6 847 876 877 848
904 3 2 1 6 848 877 878 849
905 3 2 1 6 849 878 879 850
906 3 2 1 6 850 879 880 851
907 3 2 1 6 851 880 881 852
908 3 2 1 6 852 881 882 853
909 3 2 1 6 853 882 883 854
910 3 2 1 6 854 883 884 855
911 3 2 1 6 855 884 885 856
912 3 2 1 6 856 885 886 857
913 3 2 1 6 857 886 887 858
914 3 2 1 6 858 887 888 859
915 3 2 1 6 859 888 889 860
916 3 2 1 6 860 889 890 861
917 3 2 1 6 861 890 891 862
918 3 2 1 6 862 891 892 863
919 3 2 1 6 863 892 893 864
920 3 2 1 6 864 893 894 865
921 3 2 1 6 865 894 895 866
922 3 2 1 6 866 895 896 867
923 3 2 1 6 867 896 897 868
924 3 2 1 6 868 897 898 869
925 3 2 1 6 869 898 899 870
926 3 2 1 6 870 899 900 871
927 3 2 1 6 871 900 901 872
928 3 2 1 6 872 901 902 873
929 3 2 1 6 873 902 903 874
930 3 2 1 6 874 903 65 66
931 3 2 1 6 31 32 904 875
932 3 2 1 6 875 904 905 876
933 3 2 1 6 876 905 906 877
934 3 2 1 6 877 906 907 878
935 3 2 1 6 878 907 908 879
936 3 2 1 6 879 908 909 880
937 3 2 1 6 880 909 910 881
938 3 2 1 6 881 910 911 882
939 3 2 1 6 882 911 912 883
940 3 2 1 6 883 912 913 884
941 3 2 1 6 884 913 914 885
942 3 2 1 6 885 914 915 886
943 3 2 1 6 886 915 916 887
944 3 2 1 6 887 916 917 888
945 3 2 1 6 888 917 918 889
946 3 2 1 6 889 918 919 890
947 3 2 1 6 890 919 920 891
948 3 2 1 6 891 920 921 892
949 3 2 1 6 892 921 922 893
950 3 2 1 6 893 922 923 894
951 3 2 1 6 894 923 924 895
952 3 2 1 6 895 924 925 896
953 3 2 1 6 896 925 926 897
954 3 2 1 6 897 926 927 898
955 3 2 1 6 898 927 928 899
956 3 2 1 6 899 928 929 900
957 3 2 1 6 900 929 930 901
958 3 2 1 6 901 930 931 902
959 3 2 1 6 902 931 932 903
960 3 2 1 6 903 932 64 65
961 3 2 1 6 32 33 933 904
962 3 2 1 6 904 933 934 905
963 3 2 1 6 905 934 935 906
964 3 2 1 6 906 935 936 907
965 3 2 1 6 907 936 937 908
966 3 2 1 6 908 937 938 909
967 3 2 1 6 909 938 939 910
968 3 2 1 6 910 939 940 911
969 3 2 1 6 911 940 941 912
970 3 2 1 6 912 941 942 913
971 3 2 1 6 913 942 943 914
972 3 2 1 6 914 943 944 915
973 3 2 1 6 915 944 945 916
974 3 2 1 6 916 945 946 917
975 3 2 1 6 917 946 947 918
976 3 2 1 6 918 947 948 919
977 3 2 1 6 919 948 949 920
978 3 2 1 6 920 949 950 921
979 3 2 1 6 921 950 951 922
980 3 2 1 6 922 951 952 923
981 3 2 1 6 923 952 953 924
982 3 2 1 6 924 953 954 925
983 3 2 1 6 925 954 955 926
984 3 2 1 6 926 955 956 927
985 3 2 1 6 927 956 957 928
986 3 2 1 6 928 957 958 929
987 3 2 1 6 929 958 959 930
988 3 2 1 6 930 959 960 931
989 3 2 1 6 931 960 961 932
990 3 2 1 6 932 961 63 64
991 3 2 1 6 33 2 34 933
992 3 2 1 6 933 34 35 934
993 3 2 1 6 934 35 36 935
994 3 2 1 6 935 36 37 936
995 3 2 1 6 936 37 38 937
996 3 2 1 6 937 38 39 938
997 3 2 1 6 938 39 40 939
998 3 2 1 6 939 40 41 940
999 3 2 1 6 940 41 42 941
1000 3 2 1 6 941 42 43 942
1001 3 2 1 6 942 43 44 943
1002 3 2 1 6 943 44 45 944
1003 3 2 1 6 944 45 46 945
1004 3 2 1 6 945 46 47 946
1005 3 2 1 6 946 47 48 947
1006 3 2 1 6 947 48 49 948
1007 3 2 1 6 948 49 50 949
1008 3 2 1 6 949 50 51 950
1009 3 2 1 6 950 51 52 951
1010 3 2 1 6 951 52 53 952
1011 3 2 1 6 952 53 54 953
1012 3 2 1 6 953 54 55 954
1013 3 2 1 6 954 55 56 955
1014 3 2 1 6 955 56 57 956
1015 3 2 1 6 956 57 58 957
1016 3 2 1 6 957 58 59 958
1017 3 2 1 6 958 59 60 959
1018 3 2 1 6 959 60 61 960
1019 3 2 1 6 960 61 62 961
1020 3 2 1 6 961 62 3 63
$EndElements
